<svg xmlns="http://www.w3.org/2000/svg" xmlns:xlink="http://www.w3.org/1999/xlink" width="502" height="300" viewBox="0 0 502 300">
    <defs>
        <path id="a" d="M0 0h66.857v66.319H0z"/>
        <path id="c" d="M0 .014h69.59v68.75H0z"/>
        <path id="e" d="M0 0h78v77.372H0z"/>
        <path id="g" d="M0 66.263h67.438V0H0z"/>
        <path id="i" d="M0 .012h46.542v62.11H0z"/>
        <path id="k" d="M0 .09h53.53v50.558H0z"/>
        <path id="m" d="M0 .067h65.059v79.527H0z"/>
        <path id="o" d="M0 .036h44.287v82.842H0z"/>
        <path id="q" d="M0 0h83.618v52.49H0z"/>
        <path id="s" d="M0 .132h84.872v55.81H0z"/>
    </defs>
    <g fill="none" fill-rule="evenodd">
        <g transform="translate(6.071 13)">
            <mask id="b" fill="#fff">
                <use xlink:href="#a"/>
            </mask>
            <path fill="#2E76C9" d="M21.684 13.378h23.472V2.829H21.684v10.549zm.094 2.721c-.385 3.447.083 6.662 1.92 9.594 3.826 6.108 11.582 7.467 16.934 2.906 3.708-3.16 4.891-7.344 4.508-12.088-.012-.14-.07-.275-.106-.412H21.778zM54.603 0c.753.303 1.01.871 1.007 1.672-.018 4.935-.008 9.87-.01 14.806 0 .92-.43 1.455-1.199 1.525-.978.089-1.568-.459-1.57-1.484-.004-4.34-.001-8.679-.001-13.018v-.68h-4.86v.676c-.004 5.215.045 10.43-.025 15.644-.088 6.588-4.559 12.574-10.627 14.382-5.804 1.73-12.06-.587-15.597-5.789-1.823-2.68-2.795-5.654-2.816-8.905-.034-5.103-.013-10.206-.015-15.31v-.725h-5.961c-.957 0-1.45-.31-1.628-1.015-.19-.752.125-1.34.956-1.779h42.346z" mask="url(#b)"/>
            <path fill="#2E76C9" d="M52.095 63.497v-1.075c0-2.045-.004-4.091.003-6.137.003-.807.286-1.26.871-1.462 1.026-.356 1.898.268 1.907 1.405.018 2.195.006 4.39.007 6.584v.684h9.035c-.04-.318-.074-.61-.117-.9-.65-4.468-1.295-8.936-1.96-13.401-.246-1.652-.345-3.362-.857-4.932-1.32-4.048-4.395-6.145-8.447-6.828-1.95-.33-3.954-.342-5.931-.525-.352-.033-.579.045-.825.3-2.19 2.274-4.815 3.826-7.873 4.605-.999.254-2.028.388-3.084.584v.659l-.001 11.884c0 .223.003.447-.022.668-.084.751-.59 1.204-1.341 1.217-.915.016-1.42-.54-1.421-1.601-.005-4.147-.01-8.294.007-12.442.002-.458-.111-.626-.591-.708-3.73-.636-6.976-2.217-9.594-5.008-.167-.178-.505-.294-.754-.28-1.204.07-2.408.163-3.606.306-1.58.189-3.215.233-4.721.688-4.197 1.269-6.828 4.034-7.451 8.507-.612 4.398-1.236 8.794-1.851 13.192-.187 1.333-.361 2.667-.542 4.007h9.041v-2.21c0-1.673-.006-3.347.004-5.021.004-.798.298-1.246.897-1.441 1.038-.34 1.873.284 1.881 1.44.015 2.195.005 4.39.006 6.584v.657h37.33zm-18.665 2.82H1.844c-.223 0-.447.01-.668-.014-.903-.1-1.246-.416-1.164-1.306.188-2.05.41-4.1.69-6.14.59-4.288 1.238-8.568 1.837-12.855.773-5.522 3.969-9 9.145-10.68 1.53-.497 3.198-.605 4.813-.793 1.732-.202 3.478-.278 5.216-.43.68-.058 1.202.12 1.663.665 5.468 6.472 15.133 6.574 20.755.222.593-.67 1.237-.96 2.15-.853 2.358.277 4.765.283 7.08.751 5.306 1.074 9.053 4.094 10.518 9.466.48 1.762.599 3.625.86 5.445.662 4.616 1.312 9.234 1.964 13.851.062.441.134.883.152 1.327.033.782-.382 1.24-1.17 1.33-.22.025-.446.013-.668.013H33.43z" mask="url(#b)"/>
            <path fill="#B7DEF4" d="M21.87 13.636h23.118V3.099H21.869z" mask="url(#b)"/>
            <path fill="#2E76C9" d="M39.337 50.2c-.196 0-.394.01-.59-.002-.794-.052-1.268-.65-1.257-1.577.011-.887.49-1.464 1.267-1.504.357-.018.715-.014 1.072-.002.77.025 1.43.785 1.41 1.612-.022.894-.563 1.457-1.42 1.475-.16.003-.32 0-.482 0V50.2z" mask="url(#b)"/>
        </g>
        <g transform="translate(4.679 118.005)">
            <mask id="d" fill="#fff">
                <use xlink:href="#c"/>
            </mask>
            <path fill="#2E76C9" d="M42.806 24.532c.308-.29.513-.4.59-.568a192.596 192.596 0 0 0 1.974-4.39c.24-.555.148-1.125-.126-1.662-.58-1.133-1.891-1.672-3.025-1.242-1.224.464-1.946 1.732-1.497 2.96.587 1.609 1.334 3.16 2.084 4.902zm2.428 2.086l.014.24c1.572.667 3.125 1.387 4.724 1.983 1.099.41 2.14-.02 2.78-.957.59-.864.57-1.895-.054-2.73-.69-.924-1.697-1.271-2.811-.826-1.41.564-2.785 1.218-4.165 1.853-.19.087-.326.289-.488.437zM5.32 16.316c.72-.193 1.48-.298 2.155-.592 3.874-1.683 6.701-4.444 8.366-8.304.323-.75.465-1.624.486-2.446.035-1.369-.753-2.102-2.127-2.074-.665.014-1.365.087-1.984.31-4.15 1.488-6.985 4.373-8.74 8.326-.312.7-.475 1.502-.533 2.27-.122 1.611.725 2.429 2.377 2.51zM43.628 31.57l-5.425-5.377-12.034 11.915 5.43 5.242 12.03-11.78zm-8.254-6.844L19.13 7.23c-1.965 5.721-5.982 9.54-11.673 11.626L25.22 34.795l10.155-10.068zm9.61 9.64L34.7 44.555C41.333 51.42 47.854 58.44 54.073 65.73c.035.041.091.066.134.096 2.388-1.156 11.305-10.007 12.255-12.183-7.397-6.178-14.588-12.6-21.479-19.275zM14.971.014c.235.072.469.148.705.215.972.273 1.786.773 2.446 1.547 6.034 7.076 12.352 13.896 18.886 20.52.107.11.194.239.258.318l1.334-.344c-.187-.525-.382-1.095-.594-1.658-1.307-3.468 1.601-6.93 5.216-6.823 3.394.101 5.881 3.448 4.933 6.671-.162.55-.36 1.088-.58 1.75.368-.136.66-.241.95-.351 2.062-.784 3.978-.592 5.683.868 1.685 1.442 2.284 3.644 1.572 5.667-.73 2.075-2.703 3.598-4.893 3.593-.862-.002-1.726-.337-2.581-.548-.314-.077-.608-.232-.91-.351l-.344 1.333c1.795 1.697 3.622 3.513 5.543 5.226 5.34 4.76 10.714 9.48 16.083 14.206.98.862 1.185 1.455.542 2.605a16.534 16.534 0 0 1-1.887 2.737 74.19 74.19 0 0 1-9.97 9.57c-.89.709-1.926 1.267-2.96 1.762-.93.445-1.424.256-2.084-.514C46.127 60.77 39.64 53.79 33.022 46.93c-.172-.178-.343-.357-.505-.527-1.007.579-1.522.508-2.338-.3-2.336-2.312-4.671-4.625-7.006-6.939-.826-.819-.89-1.256-.268-2.396-.153-.113-.355-.231-.52-.39-6.647-6.404-13.54-12.54-20.619-18.472-1.158-.97-1.678-2.223-1.754-3.72-.099-1.926.44-3.665 1.386-5.305C3.728 4.845 7.022 1.93 11.507.422 12.03.246 12.58.148 13.118.014h1.854z" mask="url(#d)"/>
        </g>
        <path fill="#FFF" d="M49.5 152.223c6.92 6.713 14.14 13.17 21.567 19.384-.954 2.188-9.907 11.089-12.305 12.252-.043-.03-.1-.055-.135-.097-6.245-7.331-12.792-14.39-19.452-21.294L49.5 152.223M39.825 142.965l-10.18 9.904-17.807-15.68c5.705-2.052 9.733-5.809 11.702-11.437l16.285 17.213"/>
        <path fill="#B7DEF4" d="M48.287 149.294l-12.108 11.968-5.466-5.326 12.113-12.106 5.46 5.464"/>
        <path fill="#FFF" d="M10.37 134.791c-1.685-.082-2.55-.908-2.425-2.536.059-.776.226-1.586.543-2.294 1.792-3.994 4.684-6.91 8.918-8.415.632-.224 1.346-.298 2.024-.312 1.402-.029 2.205.713 2.17 2.096-.021.83-.166 1.713-.496 2.472-1.698 3.9-4.582 6.69-8.535 8.391-.69.297-1.464.404-2.199.598"/>
        <path fill="#B7DEF4" d="M49.588 144.531c.159-.158.293-.372.48-.465 1.356-.674 2.707-1.37 4.093-1.968 1.095-.473 2.085-.105 2.763.877.614.888.634 1.983.053 2.901-.628.995-1.652 1.453-2.732 1.017-1.572-.634-3.098-1.398-4.644-2.107l-.013-.255M48.03 142.539c-.793-1.685-1.583-3.185-2.205-4.74-.475-1.19.29-2.416 1.585-2.865 1.2-.416 2.588.105 3.2 1.201.29.52.388 1.07.134 1.608a178.823 178.823 0 0 1-2.089 4.247c-.082.162-.298.268-.624.549"/>
        <g transform="translate(.5 221.628)">
            <mask id="f" fill="#fff">
                <use xlink:href="#e"/>
            </mask>
            <path fill="#2E76C9" d="M15.757 69.03H26.99V57.82H15.757V69.03zm22.665-.021h11.251V46.547h-11.25V69.01zm22.69.013H72.35V26.786h-11.24v42.236zM1.59 57.797h4.13v-8.452H1.576v-2.839h4.157v-8.45H1.59V35.22h4.13v-8.453H1.576V23.93h4.157v-8.45H1.59v-2.836h4.15V0h2.836v69.003h4.292v-.788c0-3.838-.002-7.675.001-11.513.001-1.239.484-1.73 1.737-1.732 4.509-.006 9.019-.007 13.528 0 1.25.003 1.718.484 1.72 1.749.004 3.787.001 7.575.001 11.362v.935h5.688v-.923-22.5c0-1.497.418-1.913 1.935-1.913 4.384-.003 8.767-.003 13.15 0 1.463 0 1.901.433 1.902 1.871v23.453h5.689v-.956-42.14c0-1.589.41-1.996 2.011-1.996h13.075c1.45 0 1.9.445 1.9 1.883v43.262H78v2.844H7.723c-1.538 0-1.949-.418-1.949-1.98v-9.288H1.59v-2.836z" mask="url(#f)"/>
            <path fill="#2E76C9" d="M11.473 53.144L9.455 51.23c1.442-1.438 2.849-2.89 4.326-4.268.28-.262.837-.323 1.268-.327 2.723-.028 5.445-.031 8.167-.001.582.006.976-.18 1.377-.578 4.265-4.226 8.553-8.428 12.817-12.655.518-.515 1.066-.757 1.802-.745 1.815.03 3.63.026 5.445-.005.317-.005.72-.12.934-.33 5.95-5.83 11.882-11.68 17.815-17.526.034-.034.053-.082.144-.228h-4.87v-2.784c.152-.018.318-.055.485-.055 2.597-.003 5.193-.007 7.79 0 1.018.004 1.57.5 1.578 1.491.022 2.631.008 5.262.005 7.894 0 .094-.03.189-.055.33h-2.766v-4.755l-.327-.25c-.125.242-.198.536-.384.72-5.908 5.836-11.834 11.655-17.736 17.498-.58.575-1.181.829-2.002.806-1.713-.047-3.428.006-5.142-.026-.548-.01-.931.147-1.32.533-4.282 4.244-8.59 8.462-12.87 12.707-.538.533-1.103.772-1.87.763a320.27 320.27 0 0 0-8.167.008c-.374.005-.83.19-1.102.443-1.152 1.068-2.25 2.193-3.324 3.255M0 77.372h8.667v-3.126H0zM63.818 77.372h8.667v-3.126h-8.667zM17.333 77.372H26v-3.126h-8.667zM40.182 77.372h8.666v-3.126h-8.666z" mask="url(#f)"/>
            <path fill="#B7DEF4" d="M60.667 68.775h11.818V26.572H60.667zM37.818 68.775h11.818V46.111H37.818zM14.97 68.775h11.818V57.052H14.97z" mask="url(#f)"/>
        </g>
        <g>
            <g transform="translate(140.281 9)">
                <path fill="#FFF" d="M53.534 50.857c0 1.002-.222 1.235-1.21 1.236-4.478.004-8.957.003-13.435 0-1-.001-1.23-.234-1.23-1.221V30.747c0-.938.254-1.196 1.181-1.197 4.502-.002 9.003-.002 13.504 0 .943 0 1.189.246 1.19 1.183.002 3.377 0 6.754 0 10.131v9.993m5.787-26.284c0-.494-.198-.73-.596-.959a9282.36 9282.36 0 0 1-24.439-14.14c-.445-.259-.747-.237-1.18.014A7516.15 7516.15 0 0 1 8.73 23.597c-.466.268-.612.553-.611 1.075.016 10.938.012 21.875.012 32.812v.729h7.219v-.863-26.333c0-1.262.133-1.398 1.384-1.398 4.363-.002 8.726-.002 13.088 0 1.226 0 1.404.179 1.404 1.4V58.201h28.083v-.61c0-11.006-.003-22.012.013-33.018"/>
                <mask id="h" fill="#fff">
                    <use xlink:href="#g"/>
                </mask>
                <path fill="#FFF" d="M16.235 58.213h12.489V30.964H16.235zM4.995 64.406h57.448V60.07H4.995z" mask="url(#h)"/>
                <path fill="#B7DEF4" d="M51.273 1.858h6.799v12.386c-.167-.077-.328-.132-.47-.22-1.997-1.23-3.995-2.456-5.979-3.708-.19-.119-.404-.393-.406-.596-.024-2.566-.011-5.133-.006-7.7 0-.04.03-.08.062-.162M39.339 50.781h5.62v-9.289h-5.62zM46.208 50.781h5.62v-9.289h-5.62zM39.339 39.634h5.62v-8.67h-5.62zM46.208 39.634h5.62v-8.67h-5.62z" mask="url(#h)"/>
                <path fill="#2E76C9" d="M65.216 24.503l.002.812c-.212-.12-.39-.22-.566-.321l-5.462-3.14C51.176 17.25 42.889 12.49 34.749 7.79c-.375-.217-.716-.325-1.056-.325-.34 0-.68.108-1.055.325-8.365 4.833-16.882 9.73-25.118 14.464l-4.9 2.817c-.126.073-.256.142-.402.22 0-.239 0-.475-.002-.709a98.029 98.029 0 0 1 .028-3.428c.012-.062.17-.236.424-.387 7.493-4.472 15.117-9.009 22.49-13.396l2.683-1.598 1.488-.883a384.55 384.55 0 0 0 4.045-2.42c.25-.152.383-.15.65.008C44.623 8.794 55 14.964 64.863 20.817c.285.169.37.319.364.642-.018.997-.015 1.991-.012 3.044zM17.31 57.9h11.921V31.714h-11.92V57.9zm41.73-5.494v5.494H31.478V31.146c0-1.36-.297-1.654-1.671-1.655H16.71c-1.405 0-1.652.248-1.652 1.654v26.767H8.37v-5.85c0-8.923.001-18.15-.013-27.224 0-.44.107-.628.48-.841a7473.705 7473.705 0 0 0 24.39-14.024c.367-.212.563-.215.91-.014A9221.524 9221.524 0 0 0 58.59 24.014c.36.206.463.368.463.725-.014 9.223-.013 18.6-.013 27.668zM5.206 64.05h56.941v-3.852H5.207v3.852zM51.017 3.364l.003-1.15h6.626v11.779a1.118 1.118 0 0 1-.085-.045l-.596-.354c-1.853-1.098-3.77-2.234-5.642-3.37-.16-.097-.296-.301-.297-.378-.02-2.16-.015-4.357-.009-6.482zm16.42 17.494c.013-.737-.268-1.217-.938-1.605a263.188 263.188 0 0 1-3.04-1.796 262.914 262.914 0 0 0-3.044-1.798c-.407-.236-.53-.444-.528-.893.022-3.683.019-7.429.015-11.05l-.001-2.242c0-1.083-.38-1.467-1.447-1.47-2.731-.006-5.497-.005-8.22 0-1.056.003-1.43.37-1.432 1.403-.002 1.267-.002 2.534-.002 3.8l-.001 3.257c0 .083-.004.168-.01.259a12.79 12.79 0 0 1-.304-.175 4888.74 4888.74 0 0 0-3.288-1.952C41.822 4.594 38.333 2.524 34.918.461c-.884-.535-1.563-.54-2.422-.022-4.023 2.43-8.132 4.871-12.105 7.232-1.399.831-2.798 1.662-4.196 2.495l-2.413 1.436A3093.71 3093.71 0 0 0 .906 19.293c-.325.196-.847.685-.86 1.164-.065 2.25-.049 4.464-.025 6.723.004.436.192.791.514.973.343.194.785.168 1.212-.07.92-.514 1.846-1.05 2.741-1.568.47-.271.94-.543 1.41-.812.067-.039.137-.076.21-.112v32.372H5.75c-.451-.002-.878-.003-1.308.001-1.076.01-1.458.391-1.46 1.456-.004 1.389-.003 2.777-.002 4.166v1.041c.001 1.33.317 1.636 1.689 1.636H63.04c.979-.014 1.36-.382 1.364-1.314.008-2.012.008-3.873 0-5.688-.004-.902-.386-1.277-1.318-1.295a57.734 57.734 0 0 0-1.4-.004l-.37.001v-32.37l.995.573c1.061.611 2.093 1.205 3.127 1.795.59.336 1.073.404 1.434.2.365-.207.551-.66.553-1.347.001-.674 0-1.348-.002-2.022-.003-1.29-.007-2.624.015-3.934z" mask="url(#h)"/>
                <path fill="#2E76C9" d="M39.683 50.43h4.773v-8.205h-4.773v8.205zm.006-10.451h4.75v-8.047h-4.75v8.047zm7.02-.018h4.758v-8.03h-4.758v8.03zm.002 10.463h4.754v-8.207h-4.754v8.207zM53.7 38.5c0-2.446 0-4.89-.002-7.336 0-1.074-.364-1.436-1.44-1.437-4.454-.002-8.907-.002-13.36 0-1.057 0-1.432.38-1.432 1.451-.002 6.661-.002 13.322 0 19.983 0 1.13.346 1.475 1.481 1.476a8447.98 8447.98 0 0 0 13.29 0c1.12-.002 1.461-.35 1.462-1.49V38.5z" mask="url(#h)"/>
            </g>
            <path fill="#B7DEF4" d="M140.156 174.783h11.286v-34.276h-11.286z"/>
            <path fill="#2E76C9" d="M140.182 174.756h10.753v-33.55h-10.753v33.55zm42.71-37.011c-.01-.137-.011-.241-.026-.343-.481-3.365-.962-6.73-1.447-10.096-.374-2.593-.752-5.186-1.13-7.778-.075-.51-.044-.906.584-1.126 1.9-.664 2.673-2.339 1.95-4.185-.195-.5-.108-.877.389-1.07 1.263-.489 2.542-.944 3.82-1.396.427-.151.772.002.901.424.13.422-.087.71-.513.845-.17.054-.346.09-.514.148-.873.3-1.744.606-2.595.903.49 2.39-.232 4.209-2.072 5.213-.444.243-.512.486-.446.923a2856.14 2856.14 0 0 1 2.494 16.967c.07.496.228.645.74.636 4.098-.076 8.196-.132 12.294-.174.47-.005.643-.133.72-.606.679-4.167 1.394-8.33 2.094-12.493.283-1.683.554-3.367.827-5.028-2.283-1.41-2.843-2.76-2.337-5.617a15.238 15.238 0 0 0-6.181-1.476c-.508-.012-1.102.076-1.16-.655-.039-.49.3-.66 1.212-.638 2.525.06 4.905.672 7.15 1.783.735.364.762.461.404 1.202-.77 1.596-.117 3.468 1.55 4.155.729.301.824.71.711 1.365-.846 4.93-1.674 9.864-2.504 14.796-.167.995-.32 1.992-.486 3.023h2.29c.06-.244.118-.453.16-.664 1.725-8.644 3.442-17.29 5.183-25.93.096-.476-.018-.684-.44-.908-3.956-2.098-8.218-3.025-12.693-3.093-6.204-.094-12.112 1.275-17.835 3.5-.095.037-.178.106-.271.163l5.338 27.23h1.838zm-29.224 6.972v27.456c1.132 0 .905.043 1.995-.01a9.136 9.136 0 0 1 4.334.82c2.505 1.128 5.17 1.928 7.955 1.912 9.228-.055 18.456-.208 27.685-.324 1.997-.025 3.505-1.4 3.564-3.247.058-1.819-1.411-3.284-3.405-3.395-.9-.05-1.436-.543-1.43-1.314.005-.77.563-1.268 1.452-1.279.874-.01 1.748.02 2.62-.01 1.71-.06 3.05-1.3 3.27-2.982.202-1.552-.842-3.072-2.45-3.516-.38-.105-.794-.097-1.19-.157-.739-.113-1.211-.664-1.176-1.354.035-.69.56-1.185 1.315-1.214.47-.018.94-.001 1.411-.006 1.98-.022 3.478-1.39 3.515-3.207.04-1.914-1.333-3.324-3.338-3.43-.931-.05-1.515-.563-1.504-1.324.01-.748.564-1.228 1.474-1.275 1.431-.074 2.865-.117 4.293-.23 1.457-.114 2.463-.887 2.955-2.206.818-2.193-.868-4.472-3.308-4.436-5.196.078-10.39.216-15.587.3-4.143.068-8.287.093-12.431.142-.546.006-1.022-.108-1.34-.581-.585-.874.009-1.942 1.134-1.982.953-.035 1.91-.008 2.943-.008l-1.13-5.646c-.293.195-.495.326-.693.462a139.07 139.07 0 0 1-16.122 9.576c-1.245.63-2.43 1.373-3.666 2.021-.414.217-.895.396-1.357.424-1.021.063-2.05.02-3.111.02h1.323zm56.183-1.936c.201 3.02-1.4 4.968-5.23 6.36 2.142 3.19 1.104 6.751-1.881 8.686 1.397 1.56 1.972 3.356 1.498 5.394-.472 2.03-1.799 3.387-3.765 4.236 1.196 1.55 1.609 3.245 1.17 5.106-.575 2.444-2.782 4.296-5.365 4.49-.87.067-1.746.07-2.619.081-8.69.105-17.38.244-26.071.284-2.854.012-5.61-.76-8.148-1.957-1.875-.885-3.75-.763-5.772-.773 0 .475.01.922-.004 1.367-.024.82-.54 1.353-1.39 1.355-4.457.013-8.914.012-13.372 0-.865-.001-1.361-.51-1.398-1.34-.007-.173-.003-.347-.003-.52v-35.095c0-1.558.346-1.887 1.983-1.887h12.432c1.305 0 1.749.423 1.751 1.663.002.583 0 1.165 0 1.836.813-.016 1.54.118 2.31-.366 1.234-.776 2.57-1.398 3.874-2.066 5.744-2.945 11.232-6.287 16.506-9.961.318-.222.4-.413.323-.795-1.214-6.097-2.402-12.199-3.605-18.297-.273-1.383-.12-1.725 1.187-2.273 6.297-2.637 12.841-4.186 19.74-4.047 5.311.108 10.31 1.353 14.867 4.072.97.579 1.118.904.901 1.98-1.801 8.939-3.599 17.879-5.396 26.819-.02.1-.012.206-.016.303 3.346.782 5.316 2.707 5.493 5.345z"/>
            <path fill="#2E76C9" d="M191.944 147.104c.652 0 1.304-.016 1.954.005.778.025 1.328.54 1.362 1.233.033.687-.471 1.322-1.23 1.352a52.99 52.99 0 0 1-4.185 0c-.764-.03-1.26-.665-1.22-1.357.038-.696.586-1.19 1.365-1.232.046-.002.093-.002.14-.002h1.814M191.927 158.963c-.773-.001-1.246-.428-1.308-1.18-.053-.634.319-1.242.848-1.387.842-.232 1.547.131 1.749.901.239.914-.344 1.668-1.29 1.666M192.855 135.893h-1.507v-.836c-.002-.906-.05-.969-.88-1.216-1.629-.484-2.725-1.512-3.09-3.256-.075-.356-.056-.732-.084-1.157.755 0 1.447-.062 2.118.032.244.035.556.404.636.682.345 1.19.957 1.704 2.15 1.678.763-.017 1.327-.403 1.557-1.067.246-.708.085-1.555-.477-1.996-.428-.335-.934-.567-1.413-.83-.854-.468-1.749-.867-2.562-1.398-1.385-.904-1.725-2.313-1.484-3.882.222-1.444 1.088-2.427 2.416-2.869 1.23-.408 1.325-.207 1.302-1.918-.002-.124.013-.248.024-.423h1.454c0 .423.025.854-.005 1.282-.042.594.191.9.757 1.082 1.83.585 3.002 2.442 2.732 4.315-.695 0-1.4.02-2.104-.007-.43-.017-.594-.313-.67-.742-.202-1.125-.762-1.688-1.623-1.712-.723-.02-1.232.307-1.484.955-.291.746-.173 1.627.38 2.072.44.352.963.596 1.459.871.87.482 1.781.894 2.612 1.438 1.392.913 1.675 2.35 1.451 3.9-.214 1.484-1.143 2.394-2.502 2.852-1.124.379-1.126.37-1.136 1.568-.002.183-.017.366-.027.582"/>
            <g>
                <path fill="#B7DEF4" d="M153.857 251.621h40.916v38.516h-40.916z"/>
                <g transform="translate(150.71 229.878)">
                    <mask id="j" fill="#fff">
                        <use xlink:href="#i"/>
                    </mask>
                    <path fill="#2E76C9" d="M10.337 19.526h25.859c-.085-1.86 0-3.694-.281-5.47-.907-5.728-5.562-9.92-11.55-10.57-5.491-.598-10.946 2.719-13.116 7.916-1.094 2.618-.94 5.345-.912 8.124m12.925 3.445H5.426c-1.403 0-1.985.584-1.985 1.985v31.825c0 1.338.602 1.94 1.97 1.94 11.866.004 23.733.004 35.6 0 1.398 0 1.987-.6 1.987-1.996V24.971c0-1.433-.58-2-2.043-2H23.262M6.88 19.575v-3.1C6.888 8.223 12.45 1.672 20.665.238c8.51-1.485 17.182 4.548 18.597 12.967.186 1.11.233 2.247.287 3.374.046.963.01 1.93.01 2.997.595 0 1.157-.002 1.72 0 3.015.01 5.2 2.116 5.247 5.104.032 2.075.007 4.15.007 6.225 0 8.631.004 17.262-.003 25.893-.002 2.589-1.468 4.558-3.84 5.146a6.543 6.543 0 0 1-1.56.17c-11.918.01-23.836.012-35.754.004C2.135 62.115 0 59.982 0 56.781V25.017c0-3.382 2.1-5.44 5.55-5.442h1.33" mask="url(#j)"/>
                </g>
                <path fill="#B7DEF4" d="M171.89 278.324c0 .612-.007 1.225 0 1.837.014 1.094.729 1.858 1.724 1.852.995-.007 1.698-.77 1.706-1.872.008-1.131.04-2.264-.014-3.392-.029-.604.149-.885.734-1.136a5.982 5.982 0 0 0 3.556-6.581c-.478-2.683-2.82-4.703-5.699-4.912-2.625-.191-5.216 1.575-6.08 4.146-.87 2.589.064 5.654 2.504 6.866 1.476.732 1.75 1.623 1.57 2.98-.01.07-.002.14-.002.212m1.76-25.15h17.655c1.46 0 2.038.566 2.038 1.998.001 10.575.001 21.15 0 31.725 0 1.395-.588 1.994-1.983 1.995-11.842.003-23.684.003-35.525 0-1.365-.001-1.965-.603-1.966-1.94v-31.794c0-1.4.581-1.983 1.981-1.983 5.933-.002 11.866-.001 17.8-.001"/>
                <path fill="#2E76C9" d="M173.976 272.755c1.435.014 2.622-1.17 2.62-2.612-.003-1.414-1.161-2.601-2.555-2.617-1.424-.017-2.62 1.179-2.62 2.62-.002 1.415 1.155 2.596 2.555 2.61m-1.633 5.47c0-.07-.008-.142.001-.212.176-1.353-.09-2.241-1.524-2.972-2.37-1.208-3.277-4.265-2.431-6.847.839-2.564 3.355-4.326 5.905-4.136 2.795.21 5.07 2.223 5.535 4.9.475 2.74-.916 5.444-3.454 6.563-.569.25-.74.53-.713 1.133.052 1.126.021 2.255.013 3.383-.008 1.1-.69 1.86-1.656 1.867-.967.006-1.662-.755-1.674-1.847-.008-.61-.002-1.222-.002-1.832"/>
                <path fill="#FFF" d="M173.965 273.053c-1.494-.016-2.73-1.348-2.728-2.944.001-1.627 1.278-2.976 2.798-2.958 1.488.018 2.726 1.358 2.728 2.954.003 1.628-1.265 2.963-2.798 2.948"/>
            </g>
        </g>
        <g>
            <path fill="#2E76C9" d="M310.48 12.976c-.122.041-.278.086-.461.11-6.068.82-10.592 5.825-10.757 11.902-.103 3.782 1.088 6.962 3.642 9.72 4.955 5.35 9.912 10.7 14.869 16.048l4.866 5.25.428.461 6.518-7.018c4.434-4.775 9.02-9.713 13.536-14.565 2.982-3.203 4.196-6.837 3.71-11.108-.548-4.82-4.2-9.055-8.882-10.297-.586-.155-1.205-.256-1.86-.363-.27-.044-.547-.09-.825-.14h-1.498c-.25.042-.502.081-.754.12-.613.094-1.19.183-1.742.317-2.04.497-3.817 1.457-5.28 2.854-.412.393-.824.774-1.259 1.177l-.614.57-.988.921-1.003-.904a111.44 111.44 0 0 0-.488-.435 49.484 49.484 0 0 1-1.052-.954c-2.2-2.072-4.602-3.238-7.343-3.565a1.78 1.78 0 0 1-.41-.1h-2.353zm12.508 47.672l-1.498-1.608-1.011-1.086-4.866-5.251c-4.957-5.35-9.915-10.698-14.87-16.05-3.046-3.29-4.529-7.24-4.406-11.743.203-7.477 5.762-13.64 13.228-14.675l.04-.014a4.64 4.64 0 0 1 .192-.065l.213-.065h3.46l.284.125.05.022c3.261.435 6.222 1.886 8.802 4.317.16.15.321.298.487.447.295-.274.58-.54.862-.81 1.84-1.755 4.065-2.96 6.613-3.58.676-.165 1.346-.268 1.994-.368.276-.042.553-.085.829-.132l.124-.021h2.018l.134.024c.294.055.588.103.9.154.696.113 1.417.231 2.142.423 2.89.767 5.477 2.401 7.478 4.726 1.989 2.31 3.217 5.09 3.552 8.037.577 5.078-.925 9.58-4.463 13.38-4.515 4.851-9.1 9.788-13.533 14.563l-7.022 7.56c-.151.164-.305.31-.453.45l-.2.191-1.08 1.049z"/>
            <path fill="#B7DEF4" d="M315.483 22.225c.968.181 1.952.3 2.9.554 5.262 1.414 9.24 6.136 9.848 11.559.53 4.72-.838 8.786-4.042 12.274-6.785 7.387-13.555 14.786-20.333 22.179-.177.193-.373.37-.596.59-.496-.54-.981-1.067-1.465-1.596-6.508-7.117-13.016-14.233-19.522-21.352-2.782-3.046-4.091-6.639-3.98-10.759.183-6.822 5.162-12.404 11.891-13.325.139-.019.272-.081.407-.124h2.895c.085.038.168.1.257.111 3.157.383 5.81 1.79 8.088 3.964.483.46.984.9 1.5 1.371.654-.617 1.253-1.172 1.84-1.74 1.667-1.612 3.642-2.673 5.882-3.226.884-.218 1.795-.323 2.694-.48h1.736z"/>
            <g transform="translate(277.122 21.061)">
                <mask id="l" fill="#fff">
                    <use xlink:href="#k"/>
                </mask>
                <path fill="#2E76C9" d="M14.15 2.976c-.122.041-.278.086-.461.11-6.067.82-10.591 5.825-10.757 11.902-.103 3.782 1.088 6.962 3.642 9.72 4.955 5.35 9.912 10.7 14.87 16.048l4.865 5.25.428.461 6.518-7.018c4.434-4.775 9.02-9.713 13.536-14.565 2.982-3.203 4.196-6.837 3.71-11.108-.547-4.82-4.2-9.055-8.882-10.297-.586-.155-1.205-.256-1.86-.363-.27-.044-.546-.09-.825-.14h-1.497c-.251.042-.503.081-.755.12-.612.094-1.19.183-1.742.317-2.04.497-3.816 1.457-5.28 2.854-.412.393-.823.774-1.258 1.177l-.615.57-.987.921-1.004-.904a111.44 111.44 0 0 0-.488-.435 49.484 49.484 0 0 1-1.052-.954c-2.2-2.072-4.601-3.238-7.343-3.565a1.78 1.78 0 0 1-.41-.1H14.15zM26.66 50.648L25.16 49.04l-1.012-1.086-4.866-5.251c-4.957-5.35-9.914-10.698-14.87-16.05-3.046-3.29-4.529-7.24-4.406-11.743C.211 7.433 5.77 1.27 13.235.235l.04-.014a4.64 4.64 0 0 1 .192-.065l.213-.065h3.46l.285.125.049.022c3.262.435 6.222 1.886 8.803 4.317.159.15.32.298.486.447.295-.274.58-.54.862-.81 1.84-1.755 4.065-2.96 6.614-3.58.676-.165 1.345-.268 1.993-.368.277-.042.553-.085.829-.132l.125-.021h2.018l.133.024c.294.055.588.103.9.154.697.113 1.417.231 2.142.423 2.891.767 5.477 2.401 7.478 4.726 1.99 2.31 3.218 5.09 3.552 8.037.577 5.078-.924 9.58-4.463 13.38-4.515 4.851-9.1 9.788-13.533 14.563l-7.021 7.56c-.152.164-.305.31-.454.45l-.2.191-1.08 1.049z" mask="url(#l)"/>
            </g>
            <g>
                <path fill="#2E76C9" d="M298.921 113.128c.124-1.762.504-2.092 2.204-2.01 5.296.251 9.938 3.961 11.382 9.137.129.46.276.657.776.641.494-.015.999.038 1.487.127.631.116.814-.039.826-.722.077-4.601 1.919-8.4 5.637-11.196 8.765-6.59 21.519-1.316 22.848 9.472.598 4.856-1.036 9.001-4.727 12.301-.43.385-.43.554-.037.933.857.826 1.582 1.767 2.263 2.74.679.968 1.268 1.99 1.833 3.1 1.262-1.42 2.752-2.373 4.565-2.822 4.431-1.098 8.593 1.397 9.404 5.654.682 3.576-1.662 6.827-5.288 7.333-3.7.518-6.743-2.882-5.713-6.381.68-2.31 3.214-3.615 5.517-2.843.77.258 1.198.95 1.026 1.654-.178.728-.88 1.168-1.65 1.034-1.293-.226-1.952.067-2.208.979a2.184 2.184 0 0 0 1.354 2.633c1.591.591 3.42-.258 4.019-1.867.75-2.017-.219-4.297-2.209-5.192-2.736-1.231-6.065-.028-7.355 2.65-.155.323-.223.632-.139.99 1.472 6.23-.242 11.697-4.152 16.61-2.435 3.058-5.49 5.406-8.925 7.279-.456.248-.625.55-.682 1.022-.25 2.097-.52 4.193-.789 6.288-.252 1.964-1.858 3.392-3.86 3.417-1.372.018-2.744.017-4.115 0-2.023-.024-3.594-1.433-3.841-3.413-.088-.707-.225-1.41-.268-2.12-.03-.494-.202-.626-.687-.545-1.673.281-3.362.407-5.056.495-3.05.16-6.078-.017-9.094-.459-.548-.08-.937-.13-.933.643.004.73-.166 1.461-.265 2.192-.22 1.632-1.745 3.097-3.445 3.174a55.655 55.655 0 0 1-4.86.002c-1.732-.074-3.245-1.521-3.475-3.227-.28-2.07-.549-4.14-.781-6.215-.072-.636-.298-1.02-.909-1.339-4.625-2.415-8.255-5.874-10.898-10.329-.26-.438-.558-.677-1.064-.794-1.258-.292-2.5-.65-3.747-.983-2.193-.587-3.379-2.102-3.384-4.355-.007-3.245-.009-6.49 0-9.736.009-2.78 1.758-4.48 4.59-4.483 1.397-.002 2.794-.012 4.19.008.36.005.579-.103.799-.392 2.935-3.865 6.602-6.864 11.025-8.943.443-.208.454-.493.453-.875-.007-3.836-.005-7.671-.004-11.507 0-1.392.48-1.833 1.913-1.784 2.056.07 3.966.635 5.75 1.634l.7.39"/>
                <path fill="#FEFEFE" d="M301.8 113.804c4.752.56 8.446 4.761 8.363 9.396-.031 1.728-.418 3.337-1.252 4.852-.454.825-.24 1.64.489 2.02.733.383 1.49.102 1.97-.74.93-1.624 1.46-3.376 1.54-5.234.027-.603.231-.689.735-.613.464.07.938.15 1.403.13.798-.034 1.201.289 1.193 1.114-.085.131-.245.053-.378.058-.891.034-1.461.513-1.519 1.288-.055.75.469 1.366 1.343 1.479 1.4.18 2.782.45 4.149.79 3.226.802 6.328 1.911 9.153 3.688 1.346.847 2.556 1.85 3.597 3.05.604.697 1.397.857 2.029.433.633-.426.768-1.113.348-1.935-.108-.21-.16-.279.111-.419 1.142-.587 1.14-.609 2.029.3 3.159 3.232 4.904 7.107 5.08 11.586.169 4.256-1.48 7.931-4.144 11.193-2.354 2.883-5.278 5.084-8.574 6.798-.866.45-1.257 1.034-1.357 1.986-.253 2.386-.606 4.762-.892 7.145-.084.696-.612.837-1.11.858a52.36 52.36 0 0 1-4.01.002c-.651-.023-1.053-.362-1.125-1.107-.156-1.633-.395-3.258-.61-4.885-.091-.697-.441-1.21-1.18-1.32-.727-.11-1.261.202-1.506.899-.112.318-.33.372-.616.413-4.59.653-9.178.658-13.768.001-.3-.043-.525-.079-.657-.447-.23-.641-.752-.975-1.458-.871-.73.107-1.103.57-1.196 1.291-.214 1.652-.498 3.297-.65 4.954-.071.78-.511 1.05-1.135 1.075-1.31.051-2.626.051-3.936 0-.621-.024-1.056-.29-1.14-1.068-.272-2.483-.658-4.954-.956-7.434-.074-.615-.369-1.003-.886-1.25-4.999-2.384-8.807-5.998-11.442-10.828-.303-.556-.793-.842-1.397-.995-1.532-.388-3.06-.79-4.587-1.192-.938-.247-1.281-.664-1.283-1.62-.008-3.31-.011-6.62.001-9.93.004-1.073.521-1.565 1.605-1.57 1.734-.008 3.468-.003 5.202-.002.618.001 1.165-.12 1.547-.677 3.757-5.48 9.065-8.837 15.3-10.916.725-.241 1.465-.441 2.19-.682.426-.141.617-.102.598.425-.038 1.102-.018 2.206-.01 3.31.008.994.575 1.642 1.412 1.636.844-.006 1.385-.643 1.385-1.653.003-4.708.001-9.415.001-14.123v-.66z"/>
                <path fill="#B7DEF4" d="M318.475 120.456c.036-6.056 4.738-10.823 11.038-11.193 5.76-.338 11.068 4.046 11.824 9.767.708 5.353-2.687 10.54-7.945 12.175-.477.148-.81.076-1.215-.208a32.044 32.044 0 0 0-11.88-5.163c-.38-.08-.598-.237-.76-.585-.709-1.526-1.086-3.115-1.062-4.793"/>
                <path fill="#FEFEFE" d="M293.225 123.681c0-3.214.003-6.359-.003-9.504-.001-.31.047-.428.4-.35a9.513 9.513 0 0 1 4.687 2.508c.218.21.266.434.265.718-.008 1.475 0 2.95-.008 4.425-.002.218.103.48-.267.571-1.706.42-3.368.993-5.074 1.632"/>
                <path fill="#2E76C9" d="M290.59 130.52c3.054.012 5.554 2.3 5.69 5.206.043.919-.507 1.582-1.352 1.63-.807.046-1.402-.519-1.496-1.42-.168-1.612-1.29-2.662-2.856-2.675-1.607-.013-2.749 1.04-2.918 2.689-.091.89-.703 1.459-1.511 1.405-.819-.056-1.366-.695-1.342-1.57.08-2.94 2.65-5.278 5.785-5.265M332.932 122.76c0 .386.004.772 0 1.157-.01 1.203-.512 1.9-1.688 2.175-.457.107-.338.379-.351.64-.049.975-.722 1.624-1.554 1.491-.721-.115-1.17-.654-1.173-1.497-.002-.391-.061-.566-.51-.665-.854-.187-1.35-.81-1.502-1.665-.112-.63.118-1.152.685-1.468.538-.299 1.125-.279 1.534.175.511.566 1.149.408 1.678.3.503-.103.142-.7.22-1.069.066-.31-.17-.339-.408-.337-.507.004-1.015.014-1.522-.004-1.312-.044-2.11-.834-2.14-2.138a57.698 57.698 0 0 1-.001-2.604c.024-1.125.537-1.817 1.625-2.09.37-.093.434-.233.44-.568.022-1.01.49-1.539 1.318-1.55.838-.01 1.365.525 1.357 1.509-.004.455.185.539.551.638.897.244 1.458.94 1.518 1.813.039.577-.18 1.043-.697 1.326-.515.281-1.092.29-1.477-.13-.533-.582-1.163-.345-1.751-.347-.414-.003-.17.408-.217.629-.143.67.096.956.822.86.473-.063.969-.04 1.444.023 1.069.142 1.764.944 1.797 2.022.013.458.002.916.002 1.374"/>
            </g>
            <g transform="translate(281.28 220.406)">
                <path fill="#B7DEF4" d="M5.637 27.36C5.71 16.66 13.88 6.568 25.123 6.847c11.483.285 18.725 10.751 18.717 20.346-.24-.069-.464-.125-.684-.199-4.876-1.637-9.747-3.295-14.634-4.89a3.717 3.717 0 0 0-1.98-.074c-6.725 1.69-13.438 3.434-20.154 5.162-.235.06-.473.107-.751.17"/>
                <path fill="#B7DEF4" d="M43.835 17.411C40.543 11.863 36.02 8.2 30.062 6.366c1.756-2.491 4.009-3.78 6.848-3.874 3.47-.116 6.703 2.075 8.064 5.515 1.308 3.309.872 6.414-1.139 9.404"/>
                <ellipse cx="50.729" cy="65.914" fill="#B7DEF4" rx="13.778" ry="13.68"/>
                <mask id="n" fill="#fff">
                    <use xlink:href="#m"/>
                </mask>
                <path fill="#2E76C9" d="M43.407 15.648c1.86-2.586 2.264-5.272 1.053-8.134A7.859 7.859 0 0 0 37 2.744c-2.626.082-4.71 1.196-6.336 3.351 5.513 1.586 9.697 4.754 12.743 9.553zM14.192 49.216l11.034 8.81 11.025-8.81c-1.716-.749-3.406-1.237-5.148-1.293a234.418 234.418 0 0 0-10.683-.096c-2.103.028-4.15.504-6.228 1.39zm27.703 27.697c-4.013-3.18-6.097-7.162-6.031-12.09.065-4.92 2.265-8.839 6.323-11.842-.992-.75-1.898-1.418-2.784-2.113-.376-.295-.641-.282-1.032.034a1607.33 1607.33 0 0 1-11.325 9.05c-.379.3-.503.61-.502 1.073.013 5.04.008 10.082.01 15.123 0 .25.025.498.039.765h15.302zm1.703-48.051c-.1-.044-.163-.078-.23-.099-5.062-1.557-10.123-3.116-15.19-4.659-.251-.076-.559-.057-.82.004-6.581 1.533-13.16 3.077-19.739 4.621-.266.063-.526.149-.778.221.995 8.763 8.832 16.471 18.927 16.177 9.987-.292 17.07-8.271 17.83-16.265zm6.837 48.087c6.643-.036 12.006-5.4 11.964-11.966-.042-6.639-5.433-11.92-12.12-11.872-6.544.047-11.816 5.45-11.772 12.064.043 6.474 5.448 11.81 11.928 11.774zM6.693 26.204c.27-.055.5-.096.729-.15 6.51-1.528 13.016-3.07 19.533-4.566a3.934 3.934 0 0 1 1.92.065c4.737 1.411 9.457 2.878 14.183 4.326.213.066.431.115.664.177.008-8.488-7.012-17.747-18.142-18C14.683 7.81 6.765 16.739 6.693 26.205zM23.861 76.91c.021-.166.043-.256.043-.347.002-5.253.008-10.506-.013-15.758-.001-.252-.187-.579-.39-.742-3.8-3.06-7.623-6.092-11.417-9.16-.432-.349-.705-.28-1.094-.007-5.32 3.73-8.19 8.796-8.308 15.32-.061 3.344-.013 6.69-.011 10.034 0 .207.023.413.037.66h21.153zm-7.73-31.177c-2.628-1.294-4.837-2.95-6.726-5.034C-1.372 28.814 4.807 9.402 20.48 5.92c2.225-.494 4.473-.691 6.745-.421.475.056.748-.057 1.022-.488C30.653 1.23 35.108-.634 39.38.309c4.372.965 7.691 4.463 8.298 8.872.44 3.202-.42 6.067-2.562 8.514-.273.313-.387.547-.217.979 4.054 10.323-.12 21.544-9.923 26.717-.184.097-.363.206-.602.342.213.08.36.147.514.19 3.538.966 6.571 2.8 9.173 5.357.337.331.578.38 1.023.205 8.988-3.531 18.834 2.412 19.887 11.988.943 8.564-5.85 16.114-14.512 16.118-11.206.005-22.412.002-33.619.003H1.764c-1.358 0-1.761-.408-1.762-1.773 0-3.793-.005-7.585.001-11.378.016-9.573 6.23-17.816 15.444-20.493.194-.056.385-.122.684-.217z" mask="url(#n)"/>
                <path fill="#B7DEF4" d="M52.055 75.017c0-.827.027-1.567-.01-2.305-.022-.444.131-.664.521-.874 1.756-.949 2.568-2.967 1.907-4.825-.612-1.72-1.85-2.648-3.666-2.753-.828-.047-1.339-.525-1.394-1.242a1.35 1.35 0 0 1 .96-1.416c.664-.194 1.248.15 1.611.915.07.147.228.347.352.353.766.032 1.533.016 2.295.016.027-1.527-.712-2.81-2.052-3.516-.426-.225-.555-.486-.533-.946.034-.73.01-1.463.01-2.212h-2.649c0 .744-.034 1.439.011 2.129.034.516-.111.796-.588 1.048-1.537.811-2.332 2.551-2.009 4.218.356 1.837 1.71 3.111 3.512 3.308.233.025.47.035.698.088.603.14 1.035.686 1.008 1.3-.027.639-.344 1.11-.954 1.276-.63.173-1.165-.036-1.506-.629-.113-.196-.174-.423-.244-.599h-2.592c.115 1.606.805 2.792 2.168 3.505.406.212.524.443.505.875-.032.754-.009 1.51-.009 2.286h2.648zm-1.344 2.712c-6.454.036-11.838-5.392-11.88-11.978-.045-6.729 5.207-12.226 11.725-12.273 6.66-.049 12.03 5.323 12.072 12.077.042 6.68-5.3 12.137-11.917 12.174z"/>
                <path fill="#2E76C9" d="M52.198 73.998H49.28c0-.743-.025-1.469.01-2.192.02-.415-.109-.636-.556-.84-1.502-.683-2.262-1.82-2.389-3.36H49.2c.078.169.145.386.27.574.375.568.964.769 1.659.603.672-.16 1.021-.611 1.051-1.223.029-.59-.447-1.112-1.11-1.247-.251-.05-.513-.06-.77-.085-1.985-.188-3.477-1.41-3.869-3.172-.356-1.598.52-3.267 2.213-4.045.526-.24.686-.51.649-1.005-.05-.661-.013-1.328-.013-2.041h2.918c0 .718.027 1.421-.01 2.121-.025.441.118.692.586.907 1.476.678 2.291 1.908 2.261 3.372-.84 0-1.685.016-2.528-.016-.137-.005-.311-.197-.387-.337-.401-.735-1.044-1.064-1.777-.878-.675.17-1.111.731-1.056 1.357.06.688.624 1.146 1.535 1.192 2 .1 3.365.99 4.04 2.64.727 1.78-.167 3.716-2.101 4.626-.43.202-.598.412-.574.839.04.707.01 1.417.01 2.21M21.324 35.774c.006-1.441-1.208-2.65-2.666-2.653-1.477-.003-2.674 1.168-2.687 2.628-.012 1.448 1.19 2.646 2.66 2.654 1.463.007 2.687-1.188 2.693-2.629m13.415-.042c-.023-1.44-1.26-2.628-2.72-2.61-1.464.017-2.679 1.237-2.659 2.668.02 1.437 1.266 2.635 2.719 2.613 1.461-.021 2.683-1.248 2.66-2.671m5.311-2.613c.014.282.03.467.03.652.004.63.002 1.262.002 1.968H37.48c-.378 3.015-1.915 4.947-5.039 5.246-2.586.249-4.306-1.017-5.628-3.915-.86 0-1.742-.035-2.617.026-.203.014-.465.324-.56.554-1.394 3.382-5.592 4.477-8.406 2.17-1.257-1.03-1.882-2.377-1.964-4.035h-2.62V33.12c.908 0 1.827-.017 2.745.007.412.01.68-.089.949-.442 1.237-1.628 2.903-2.395 4.973-2.132 2.096.266 3.528 1.429 4.303 3.347.168.417.372.617.825.547.116-.018.24-.016.356 0 1.28.169 2.064-.124 2.79-1.441 1.792-3.247 6.432-3.371 8.71-.396.293.384.573.538 1.049.52.876-.035 1.754-.01 2.704-.01"/>
                <path fill="#FFF" d="M34.446 36.037c.02 1.34-1.117 2.496-2.478 2.516-1.353.02-2.513-1.107-2.532-2.46-.02-1.349 1.113-2.497 2.476-2.514 1.36-.017 2.512 1.102 2.534 2.458M21.294 36.078c-.006 1.357-1.152 2.482-2.521 2.475-1.377-.006-2.501-1.135-2.49-2.5a2.5 2.5 0 0 1 2.515-2.474c1.365.003 2.501 1.141 2.496 2.499"/>
            </g>
        </g>
        <g>
            <g transform="translate(437.04)">
                <mask id="p" fill="#fff">
                    <use xlink:href="#o"/>
                </mask>
                <path fill="#2E76C9" d="M41.387 45.516c-6.236 6.863-14.197 9.473-22.814 10.791 1.78.865 3.535 1.701 5.356 2.358 3.964 1.43 8.023 2.416 12.284 1.839 2.74-.371 5.398-1.46 5.198-5.79-.126-2.724-.024-5.459-.024-8.189v-1.01zM2.846 22.297c1.43-.059 2.183-.71 2.38-1.985.015-.104.07-.202.113-.3 3.02-6.882 8.105-11.13 15.689-11.643 8.348-.565 16.126 4.869 18.871 12.824.26.752.682 1.061 1.505 1.136-.185-6.909-2.951-12.452-8.694-16.194-6.616-4.31-13.598-4.484-20.395-.474-6.218 3.668-9.216 9.397-9.47 16.636zm.1 9.794c-.13 4.477-.225 6.3 1.164 9.769 1.944 4.855 5.46 8.422 9.6 11.435.23.167.596.206.897.202a40.022 40.022 0 0 0 9.867-1.344c4.79-1.283 9.243-3.25 12.926-6.687 1.845-1.722 3.43-3.69 3.799-6.252.276-1.917.142-3.893.187-5.844.01-.413.002-.828.002-1.272-1.167.307-1.167.307-1.478 1.207-3.037 8.804-11.972 14.003-21.056 12.13C11.957 44.011 7.34 39.84 4.918 33.221c-.168-.46-.37-.712-.846-.795-.36-.064-.706-.207-1.126-.336zm38.386 29.557c-3.001 1.837-6.142 2.1-9.384 1.813-4.73-.42-9.171-1.866-13.41-3.942C12.28 56.452 6.87 52.357 3.113 46.327c-.027-.044-.111-.053-.174-.081 0 5.357-.004 10.68.008 16.003 0 .478.088.959.164 1.434 1.278 7.92 7.283 14.253 15.075 15.905 7.681 1.63 15.582-1.633 19.967-8.258 1.913-2.89 2.96-6.07 3.18-9.682zM28.064 12.43c.423 3.765-1.258 6.11-4.59 6.586-2.286.326-4.374-1.087-4.729-3.2-.181-1.08.217-1.816 1.084-2.004.812-.177 1.468.315 1.713 1.363.146.623.528.897 1.11.974 1.737.228 3.053-1.357 2.53-3.036-.304-.973-1.024-1.602-1.945-1.696-1.278-.13-2.628-.202-3.869.067C13.031 12.86 9.19 16.931 7.372 23.061c-.434 1.464-.55 1.592-2.07 1.67-1.376.071-2.407 1.144-2.404 2.501.003 1.341 1.011 2.402 2.339 2.46 1.55.068 1.724.209 2.134 1.71 2.32 8.484 11.098 13.42 19.481 10.86 5.485-1.673 9.024-5.369 10.628-10.898.247-.85.532-1.552 1.547-1.677 1.472-.181 2.345-1.118 2.35-2.45.005-1.329-.866-2.301-2.325-2.49-.836-.108-1.253-.54-1.474-1.332-.25-.897-.54-1.795-.93-2.639-1.776-3.85-4.661-6.564-8.584-8.347zM44.23 41.448c0 6.719.149 13.442-.035 20.155-.274 10.04-7.54 18.622-17.288 20.754C14.364 85.099 2.234 76.733.244 63.953a17.338 17.338 0 0 1-.21-2.637c-.012-13.25-.078-26.502.014-39.752C.121 10.982 8.433 1.694 18.893.257 30.61-1.35 41.163 5.965 43.736 17.562c.378 1.707.493 3.5.51 5.255.06 6.21.023 12.42.023 18.63h-.039z" mask="url(#p)"/>
            </g>
            <path fill="#FFF" d="M465.83 27.63c1.183-.053 2.226-.446 3.075-1.292.674-.672.72-1.515.134-2.125-.567-.59-1.352-.588-2.06.007-.789.664-1.37.713-2.235.181-.158-.097-.299-.22-.453-.322-.71-.47-1.508-.378-1.993.228-.496.619-.395 1.502.268 2.056.943.788 2.021 1.25 3.265 1.267m-12.988 0c1.219-.062 2.355-.499 3.217-1.506.491-.574.452-1.357-.04-1.89-.489-.53-1.275-.61-1.878-.189-1.388.968-1.418.968-2.931.004-.7-.446-1.524-.323-1.986.296a1.45 1.45 0 0 0 .222 1.944c.945.834 2.044 1.311 3.396 1.342m6.598 9.899c1.197-.004 2.955-.52 3.867-1.188.67-.491.854-1.299.446-1.962-.385-.627-1.204-.894-1.873-.498-1.765 1.046-3.504.95-5.277.039-.84-.432-1.653-.179-2.035.572-.378.742-.089 1.525.75 1.988 1.225.676 2.54 1.026 4.122 1.049m5.645-24.913c3.898 1.772 6.766 4.472 8.531 8.299.387.839.675 1.732.924 2.623.22.788.633 1.218 1.465 1.325 1.45.187 2.316 1.155 2.31 2.476-.005 1.324-.872 2.255-2.335 2.435-1.009.125-1.292.822-1.537 1.668-1.595 5.497-5.112 9.171-10.563 10.836-8.331 2.544-17.055-2.363-19.36-10.798-.408-1.493-.582-1.632-2.122-1.7-1.32-.058-2.321-1.113-2.324-2.447-.003-1.349 1.022-2.415 2.39-2.486 1.51-.078 1.625-.205 2.057-1.66 1.806-6.096 5.623-10.144 11.921-11.512 1.233-.267 2.575-.196 3.846-.067.914.094 1.63.72 1.932 1.687.52 1.669-.787 3.245-2.515 3.018-.578-.076-.957-.349-1.102-.968-.243-1.042-.896-1.531-1.703-1.356-.862.188-1.257.92-1.077 1.993.353 2.101 2.428 3.506 4.7 3.182 3.311-.473 4.982-2.805 4.562-6.548"/>
            <path fill="#B7DEF4" d="M478.317 61.433c-.22 3.624-1.262 6.817-3.167 9.716-4.368 6.649-12.237 9.923-19.888 8.288-7.762-1.658-13.742-8.014-15.015-15.962-.076-.477-.163-.96-.164-1.439-.012-5.342-.007-10.684-.007-16.06.062.028.145.037.173.081 3.742 6.051 9.13 10.161 15.365 13.239 4.221 2.084 8.644 3.535 13.356 3.957 3.229.288 6.357.024 9.347-1.82"/>
            <path fill="#B7DEF4" d="M439.538 32.062c.423.127.772.269 1.135.331.48.083.684.333.854.787 2.442 6.548 7.1 10.673 14.057 12.08 9.163 1.853 18.176-3.29 21.239-11.997.314-.89.314-.89 1.49-1.194 0 .44.008.849-.001 1.258-.045 1.929.09 3.884-.19 5.78-.371 2.534-1.97 4.48-3.83 6.184-3.716 3.4-8.207 5.345-13.04 6.614a41.12 41.12 0 0 1-9.952 1.33c-.304.004-.673-.035-.905-.2-4.176-2.98-7.723-6.508-9.684-11.31-1.4-3.432-1.304-5.236-1.173-9.663M439.468 22.352c.255-7.166 3.275-12.838 9.54-16.469 6.85-3.97 13.883-3.797 20.55.47 5.785 3.704 8.572 9.191 8.759 16.03-.83-.074-1.255-.38-1.516-1.125-2.766-7.874-10.603-13.253-19.014-12.694-7.64.508-12.764 4.713-15.807 11.526-.044.097-.098.194-.115.296-.198 1.262-.956 1.908-2.397 1.966M478.889 45.371v1.008c0 2.724-.103 5.453.024 8.17.202 4.32-2.48 5.408-5.248 5.779-4.301.575-8.399-.408-12.401-1.836-1.838-.655-3.61-1.49-5.407-2.352 8.7-1.315 16.736-3.92 23.032-10.769"/>
            <path fill="#2E76C9" d="M459.756 37.507c-1.607-.026-2.942-.411-4.186-1.159-.85-.51-1.145-1.376-.761-2.195.388-.83 1.215-1.109 2.067-.632 1.8 1.007 3.566 1.112 5.358-.043.68-.437 1.511-.143 1.903.55.414.732.227 1.625-.453 2.167-.926.738-2.712 1.308-3.928 1.312M452.692 27.828c-1.43-.033-2.593-.558-3.591-1.474a1.637 1.637 0 0 1-.236-2.136c.488-.68 1.36-.815 2.1-.325 1.6 1.06 1.633 1.06 3.102-.005.637-.461 1.469-.374 1.986.208.52.585.561 1.446.042 2.076-.912 1.107-2.114 1.587-3.403 1.656M465.994 27.828c-1.316-.019-2.456-.526-3.454-1.39-.7-.609-.808-1.578-.283-2.258.513-.666 1.356-.767 2.108-.25.163.112.312.247.48.353.914.584 1.529.53 2.364-.198.748-.653 1.578-.656 2.178-.008.62.67.57 1.596-.142 2.333-.897.928-2 1.36-3.25 1.418"/>
            <g transform="translate(417.191 119.482)">
                <mask id="r" fill="#fff">
                    <use xlink:href="#q"/>
                </mask>
                <path fill="#2E76C9" d="M2.406 18.684h74.021v-3.047H2.407v3.047zM78.87 45.097c1.649-.606 2.368-1.771 2.369-3.712.002-11.658.002-23.317 0-34.976 0-2.671-1.36-4.03-4.034-4.03-21.995-.001-43.99-.001-65.985.002-.42 0-.85-.002-1.258.08-1.248.25-2.085.996-2.639 2.284h1.222c21.231 0 42.462-.004 63.693.014.883 0 1.808.069 2.642.333 2.524.798 3.985 3.016 3.987 5.895.006 11.027.003 22.054.003 33.081v1.029zm-2.437-31.915c0-1.114.11-2.175-.04-3.2-.093-.628-.495-1.27-.914-1.78-.737-.896-1.799-1.092-2.926-1.091-22.072.007-44.143.005-66.215.007-.29 0-.581.006-.867.044-1.476.199-2.555 1.007-2.891 2.429-.27 1.142-.19 2.367-.266 3.59h74.119zm-74.06 7.954v.814c0 8.078-.003 16.155.002 24.233.001 2.532 1.426 3.932 3.988 3.932 22.043.002 44.085.001 66.128 0 2.605 0 4.004-1.392 4.005-3.992.004-8.052.002-16.103 0-24.155 0-.276-.027-.552-.042-.832H2.372zM44.209.007C55.22.007 66.232.014 77.243 0c1.644-.002 3.128.378 4.373 1.49 1.427 1.275 2.006 2.892 2.002 4.786-.017 8.028-.007 16.055-.007 24.083 0 3.71.007 7.422-.003 11.133-.007 3.06-1.474 5.064-4.356 6.04-.228.077-.492.31-.567.53-1.021 2.971-3.016 4.422-6.163 4.423-20.178.002-40.357 0-60.535 0-1.95 0-3.9.01-5.848-.002C2.543 52.46.015 49.964.01 46.366-.005 34.548-.002 22.73.009 10.913c.003-2.997 1.536-5.04 4.352-5.964.229-.074.494-.31.572-.53C5.983 1.416 7.912.011 11.097.008 20.158.004 29.22.008 38.282.008h5.927z" mask="url(#r)"/>
                <path fill="#B7DEF4" d="M2.077 18.709h74.27v-3.118H2.077z" mask="url(#r)"/>
                <path fill="#2E76C9" d="M63.383 44.792c.279.257.56.529.854.785 1.429 1.245 3.46 1.13 4.71-.262a3.541 3.541 0 0 0-.027-4.73c-1.273-1.384-3.283-1.475-4.71-.209-.287.254-.561.523-.83.774-2.296-1.975-4.104-2.151-5.556-.598a3.54 3.54 0 0 0-.083 4.73c1.43 1.65 3.183 1.509 5.642-.49m-3.064-7.894c1.02.348 2.033.94 3.064.975 1.006.035 2.022-.69 3.05-.745 2.373-.126 4.486 1.416 5.357 3.669a5.987 5.987 0 0 1-1.433 6.47c-1.723 1.657-4.25 2.065-6.378.982-.439-.224-.76-.25-1.213-.016-2.127 1.097-4.646.704-6.386-.941-1.735-1.64-2.313-4.208-1.454-6.461.868-2.276 2.95-3.737 5.393-3.933M8.098 43.815h13.407v-2.4H8.098v2.4zm-2.385 2.438h18.178v-7.276H5.713v7.276zM59.208 32.221h11.945v-2.079H59.208zM24.41 32.221h11.946v-2.079H24.41zM41.55 32.221h11.945v-2.079H41.549zM7.271 32.221h11.946v-2.079H7.27z" mask="url(#r)"/>
                <path fill="#B7DEF4" d="M63.128 44.652c-2.463 1.941-4.219 2.078-5.65.476a3.36 3.36 0 0 1 .082-4.594c1.455-1.508 3.265-1.337 5.566.582.269-.245.544-.505.83-.752 1.43-1.23 3.444-1.142 4.719.203a3.362 3.362 0 0 1 .027 4.593c-1.252 1.352-3.287 1.464-4.718.255-.295-.25-.576-.513-.856-.763" mask="url(#r)"/>
                <path fill="#FFF" d="M8.31 43.654h13.503v-2.078H8.31z" mask="url(#r)"/>
            </g>
            <g>
                <path fill="#B7DEF4" d="M486.614 262.515c-2.724-2.6-5.291-5.289-8.093-7.664a193.648 193.648 0 0 0-11.167-8.764c-2.463-1.795-5.208-1.748-7.87-.274-.92.51-1.778 1.145-2.679 1.698-2.034 1.25-4.78-.358-4.934-2.881-.056-.918.259-1.679.954-2.206 2.72-2.062 5.412-4.172 8.2-6.125 1.623-1.138 3.473-1.214 5.258-.34 2.086 1.02 4.116 2.168 6.2 3.191 2.966 1.455 5.901 1.301 8.71-.475 2.116-1.339 4.178-2.774 6.27-4.156 1.538-1.016 3.096-.724 4.209.792 2.195 2.988 4.385 5.98 6.567 8.979 1.04 1.43 1.051 3.289-.042 4.59-3.782 4.502-7.591 8.978-11.39 13.463-.055.064-.125.112-.193.172M454.347 277.793c-.3.572-.499 1.236-.917 1.701-1.396 1.553-2.855 3.05-4.319 4.538-1.12 1.138-2.612 1.138-3.803.051a17.044 17.044 0 0 1-.629-.6c-1.137-1.149-1.183-2.617-.074-3.804a269.236 269.236 0 0 1 4.269-4.467c1.126-1.151 2.597-1.175 3.805-.11 1.195 1.055 1.516 1.61 1.668 2.69M443.946 268.73c1.777.15 2.705 1.09 3.316 2.307.56 1.114.159 2.145-.673 3.03-2.1 2.235-4.175 4.495-6.27 6.736-1.198 1.28-2.606 1.304-3.869.09-.182-.175-.365-.349-.54-.533-1.021-1.083-1.076-2.517-.079-3.605 2.205-2.409 4.415-4.814 6.674-7.167.433-.451 1.1-.662 1.441-.857M427.047 274.146c.308-.569.508-1.238.94-1.69 3.305-3.466 6.648-6.896 9.994-10.324 1.082-1.109 2.537-1.14 3.699-.125.21.184.413.378.612.575 1.147 1.132 1.192 2.543.074 3.703a2956.236 2956.236 0 0 1-9.878 10.2c-1.215 1.25-2.65 1.255-3.948.07-.694-.634-1.364-1.272-1.493-2.409M433.326 255.056c1.888.189 2.796 1.208 3.423 2.572.54 1.172.041 2.055-.759 2.897-2.453 2.581-4.877 5.192-7.316 7.789-1.255 1.336-2.664 1.403-3.96.086-.526-.535-1.014-1.201-1.27-1.903-.303-.833-.003-1.674.618-2.338 2.572-2.749 5.127-5.515 7.74-8.223.447-.463 1.147-.67 1.524-.88"/>
                <g transform="translate(416.5 232.058)">
                    <mask id="t" fill="#fff">
                        <use xlink:href="#s"/>
                    </mask>
                    <path fill="#2E76C9" d="M37.472 46.11c-.14-.992-.436-1.502-1.538-2.47-1.114-.978-2.47-.956-3.508.101a247.613 247.613 0 0 0-3.936 4.1c-1.022 1.09-.98 2.438.068 3.491.188.19.382.373.58.552 1.099.997 2.475.998 3.507-.047 1.35-1.366 2.695-2.74 3.981-4.165.386-.428.57-1.037.846-1.562m-9.856-9.175c-.33.182-.975.379-1.393.8-2.184 2.198-4.32 4.444-6.451 6.693-.964 1.016-.911 2.355.077 3.366.168.172.345.335.521.499 1.22 1.133 2.582 1.11 3.74-.085 2.025-2.092 4.03-4.204 6.06-6.29.804-.827 1.192-1.79.65-2.83-.59-1.136-1.486-2.014-3.204-2.153m-11.12-13.302c-.353.192-1.006.38-1.423.802-2.44 2.466-4.826 4.986-7.228 7.49-.58.604-.86 1.37-.577 2.13.238.638.694 1.244 1.186 1.732 1.21 1.199 2.525 1.139 3.698-.079 2.277-2.365 4.54-4.743 6.831-7.094.747-.766 1.212-1.57.709-2.638-.586-1.242-1.434-2.17-3.196-2.343M11.05 41.732c.122 1.089.757 1.7 1.416 2.308 1.232 1.135 2.594 1.13 3.747-.066 3.132-3.252 6.258-6.51 9.375-9.776 1.06-1.112 1.018-2.463-.07-3.548a13.19 13.19 0 0 0-.582-.552c-1.102-.972-2.483-.942-3.51.12a1178.337 1178.337 0 0 0-9.485 9.893c-.41.434-.6 1.075-.891 1.62m58.802-12.606c.067-.054.135-.098.188-.157 3.72-4.098 7.448-8.188 11.15-12.302 1.07-1.19 1.06-2.888.041-4.195-2.136-2.74-4.28-5.474-6.428-8.205-1.09-1.385-2.614-1.651-4.12-.723-2.048 1.263-4.066 2.574-6.137 3.797-2.75 1.624-5.622 1.764-8.525.435-2.04-.935-4.028-1.984-6.07-2.916-1.747-.799-3.558-.73-5.146.31-2.729 1.785-5.364 3.713-8.027 5.598-.68.481-.988 1.176-.933 2.015.15 2.306 2.839 3.775 4.83 2.633.88-.506 1.721-1.086 2.622-1.552 2.605-1.346 5.292-1.39 7.703.25a188.24 188.24 0 0 1 10.93 8.01c2.743 2.17 5.256 4.627 7.922 7.002m-13.906-.965c.237.213.397.354.554.499 3.519 3.246 7.043 6.487 10.552 9.744.815.756 1.735 1.15 2.77.657.579-.275 1.075-.78 1.518-1.264.981-1.072.93-2.432-.139-3.423-3.136-2.911-6.17-5.952-9.478-8.654-3.95-3.227-8.11-6.203-12.252-9.187-1.47-1.06-3.185-.991-4.805-.148-.733.381-1.447.812-2.132 1.275-3.191 2.156-7.376 1.115-9.233-3.23-.903-2.111-.137-4.548 1.725-5.935.814-.607 1.66-1.173 2.49-1.757l2.027-1.426c-1.662-1.06-3.51-1.546-5.31-1.038-1.84.52-3.608 1.306-5.38 2.044-2.278.95-4.647 1.228-6.991.582-1.97-.542-3.842-1.447-5.748-2.213-1.663-.669-3.54-.318-4.716.982a1249.573 1249.573 0 0 0-7.812 8.725c-1.032 1.164-.918 2.494.273 3.515 2.194 1.88 4.398 3.746 6.6 5.616.259.22.526.432.849.696 1.762-2.09 3.631-4.051 6.667-3.234 2.782.748 4.407 2.68 4.888 5.59 2.117-.21 3.634.868 4.96 2.323 1.392 1.528 1.703 3.315 1.137 5.301 1.466.31 2.64 1.055 3.407 2.204.739 1.107 1.219 2.387 1.846 3.659-.062-.004.019.007.098.005 3.113-.055 7.27 3.915 5.518 7.934-.079.182.042.567.202.72 1.274 1.22 2.543 2.453 3.898 3.581.475.395 1.17.632 1.794.716.904.121 1.52-.509 2.094-1.138 1.256-1.377 1.224-2.647-.128-3.894-.944-.87-1.893-1.735-2.837-2.605-.62-.57-1.235-1.145-1.883-1.747l1.947-2.082c.241.215.442.388.636.567 3.07 2.826 6.141 5.65 9.205 8.483.574.53 1.206.905 2.01.825 1.426-.142 2.244-1.129 2.756-2.293.468-1.06.018-1.997-.842-2.781-3.063-2.794-6.097-5.62-9.151-8.423-.212-.194-.501-.307-.781-.473l2.082-2.22c.24.215.44.389.634.568 3.48 3.208 6.946 6.434 10.459 9.608.481.435 1.174.774 1.813.87 1.117.165 2.486-.926 2.988-2.166.413-1.023.154-1.95-.83-2.862-3.749-3.47-7.501-6.937-11.256-10.4-.215-.198-.47-.35-.721-.535l2.028-2.161M69.69 42.127c.359 2.069-.347 3.773-1.832 5.256-1.482 1.48-3.184 2.083-5.258 1.672-.721 2.5-2.162 4.374-4.734 5.08-2.743.752-4.636-.829-6.268-2.568-.755.965-1.392 1.944-2.19 2.767-2.004 2.07-5.167 2.141-7.315.217-1.414-1.266-2.796-2.57-4.027-3.705-1.108.987-2.226 1.926-3.276 2.935-1.025.986-2.183 1.622-3.62 1.677-2.722.105-4.406-1.46-5.73-3.583-.125-.2-.198-.432-.322-.708-1.71.923-3.478 1.17-5.225.267-1.664-.86-2.913-2.153-3.54-4.064-2.478.842-4.532.17-6.322-1.669-1.828-1.877-2.129-3.97-1.217-6.156-.965-.717-1.948-1.313-2.769-2.082-2.313-2.166-2.357-5.35-.18-7.634 1.107-1.16 2.221-2.312 3.376-3.513-.197-.187-.358-.356-.534-.506l-6.661-5.668c-2.493-2.12-2.736-5.285-.573-7.715A2131.78 2131.78 0 0 1 9.23 3.76c1.915-2.128 5.148-2.874 7.797-1.796 1.312.533 2.603 1.117 3.909 1.665 2.284.96 4.575.963 6.862.008 1.11-.463 2.214-.939 3.318-1.415 3.16-1.363 6.3-1.379 9.344.288 1.149.628 2.012.752 3.284.004 2.352-1.383 4.962-1.389 7.482-.23 2.015.926 3.989 1.94 5.997 2.882 2.013.944 4.002.827 5.9-.32 2.037-1.229 4.046-2.505 6.071-3.753 2.733-1.684 5.896-1.12 7.876 1.4 2.146 2.733 4.293 5.465 6.427 8.207 1.943 2.495 1.814 5.696-.32 8.055-3.497 3.867-7.003 7.727-10.505 11.59-.231.255-.458.515-.69.777 5.383 3.662 2.542 9.857-2.293 11.004" mask="url(#t)"/>
                </g>
            </g>
        </g>
    </g>
</svg>
