<svg xmlns="http://www.w3.org/2000/svg" xmlns:xlink="http://www.w3.org/1999/xlink" width="862" height="390" viewBox="0 0 862 390">
    <defs>
        <path id="a" d="M0 0h862v390H0z"/>
        <path id="c" d="M.51 0h453.721v254.136H.51z"/>
        <path id="e" d="M0 0h442.788v232.193H0z"/>
        <path id="g" d="M.143.273h105.42v44.739H.143z"/>
        <path id="i" d="M.142.352h38.806v115.023H.142z"/>
        <path id="k" d="M1.774.286H99.21v53.6H1.774z"/>
        <path id="m" d="M0 .884h431v193H0z"/>
    </defs>
    <g fill="none" fill-rule="evenodd">
        <path fill="#F9F9FB" fill-rule="nonzero" d="M-162-848h1186v5455H-162z"/>
        <g>
            <mask id="b" fill="#fff">
                <use xlink:href="#a"/>
            </mask>
            <use fill="#FFF" fill-rule="nonzero" xlink:href="#a"/>
            <g mask="url(#b)">
                <g transform="translate(-22 133.892)">
                    <mask id="d" fill="#fff">
                        <use xlink:href="#c"/>
                    </mask>
                    <use fill="#FFF" fill-rule="nonzero" xlink:href="#c"/>
                    <g mask="url(#d)">
                        <path fill="#2E84BA" d="M-.51 254.117h454.104V0H-.51z"/>
                        <path fill="#BCCFE1" d="M21.983 255.549H452.98v-72H21.983z"/>
                        <path fill="#81AACF" d="M318.983 183.757h.028c6.445-1.15 13.263 2.58 17.534 8.442 4.27 5.86 4.87 13.49 2.182 19.797l.046.064c6.446-1.151 13.264 1.401 17.534 7.262 4.27 5.862 4.87 13.491 2.182 19.798l.04.053.167.231c6.445-1.15 14.028 1.175 17.535 7.263 3.507 6.087 1.89 3.585 3.507 9.033h96.419v-71.943H318.983z"/>
                        <path fill="#95B5D5" d="M256.765 230.889H58.915l31.013-35.928h135.824l31.013 35.928M131.196 164.317l-1.582 12.152"/>
                        <path fill="#FFFFFE" d="M133.445 176.997l-7.525-.987 1.445-12.222 7.525.988-1.445 12.221"/>
                        <path fill="#ECECEB" d="M152.297 199.188c-12.05 0-22.083-13.676-22.517-14.275a3.66 3.66 0 0 1 .819-5.108 3.654 3.654 0 0 1 5.102.815c2.31 3.177 9.61 11.137 16.44 11.251 1.935-1.14 7.63-4.731 13.404-10.673a3.655 3.655 0 0 1 5.17-.073 3.66 3.66 0 0 1 .072 5.173c-7.923 8.153-15.596 12.263-15.918 12.433-.45.238-.944.38-1.45.417-.376.027-.75.04-1.122.04"/>
                        <path fill="#FFFFFE" d="M140.095 187.659c-.543-10.21-3.527-17.002-11.362-17.002 0 0-4.192 22.823 7.907 31.722 7.098 5.221 14.16 9.202 18.789 11.602l6.896-9.145c-6.89-2.573-21.231-4.578-22.23-17.177"/>
                        <path fill="#ECECEB" d="M189.541 190.532c.018-.013-3.614-5.445-3.614-5.445-2.822-3.365-6.903-.842-6.903-.842l.05-.058c-17.708 10.93-31.293 19.347-32.435 20.14-3.468 2.407-4.35 7.202-1.971 10.71 2.38 3.51 7.12 4.403 10.588 1.996 1.057-.734 11.97-9.176 26.632-20.557 7.042 8.325 14.451 17.077 21.525 25.43l4.813-3.731a63446.178 63446.178 0 0 0-18.685-27.643"/>
                        <path fill="#ECECEB" d="M208.276 218.218s8.542.037 10.502 3.689h-15.3s1.827-3.916 4.798-3.69"/>
                        <path fill="#326AA5" d="M151.245 200.858l15.213-8.539 7.474 10.712-13.693 10.422-8.994-12.595"/>
                        <path fill="#FFFFFE" d="M187.486 194.657c.017-.013-3.603-5.37-3.603-5.37-2.814-3.32-6.883-.83-6.883-.83l.049-.058c-15.871 9.693-28.415 17.377-31.616 19.4a133.15 133.15 0 0 1-8.732-5.834c-12.043-8.784-7.87-31.308-7.87-31.308-10.483 0-13.463 8.505-13.463 18.996 0 0-.23 21.235 25.581 31.262 4.421.735 11.167.842 16.762-3.434 4.665-3.55 12.609-9.637 22.144-16.961 7.021 8.212 14.409 16.845 21.462 25.085l4.799-3.68c-6.12-8.96-12.53-18.346-18.63-27.268"/>
                        <path fill="#ECECEB" d="M119.222 193.904s6.484 15.382 17.25 19.608l-5.608 2.583s-11.076-6.286-13.913-19.213l2.27-2.978"/>
                        <path fill="#2E84BA" d="M130.669 215.503l19.188-15.817 6.201 1.54 11-6.793 6.874 10.734-16.042 12.38s-12.976 11.055-27.221-2.044"/>
                        <path fill="#E26329" d="M163.452 196.546l-11.68-7.803 13.814-17.03 8.874 8.668-11.008 16.165"/>
                        <path fill="#E4E4E3" d="M163.544 196.546l-11.771-7.84 11.871-17.52 10.816 9.38-10.916 15.98"/>
                        <path fill="#FFFFFE" d="M163.844 196.546l-11.544-7.743 9.984-17.09 12.176 9.182-10.616 15.651"/>
                        <path fill="#E7792B" d="M160.286 196.018l-11.679-7.741 11.008-16.035 11.679 7.74-11.008 16.036"/>
                        <path fill="#E26329" d="M173.932 180.31l-2.919-.671-10.799 16.234 2.92.673 10.798-16.235"/>
                        <path fill="#FFFFFE" d="M206.165 221.916s8.542.037 10.503 3.69h-15.3s1.826-3.916 4.797-3.69M103.67 219.793c-.708 0-1.42-.242-2-.737a3.052 3.052 0 0 1-.334-4.317c12.967-15.06 18.455-38.303 18.509-38.536a3.075 3.075 0 0 1 3.689-2.297 3.061 3.061 0 0 1 2.307 3.671c-.233 1.012-5.892 24.956-19.833 41.147a3.075 3.075 0 0 1-2.337 1.07"/>
                        <path fill="#95B5D5" d="M177.566 244.097a1.63 1.63 0 0 1-1.148-.47L51.494 120.651a1.657 1.657 0 0 1-.024-2.334 1.635 1.635 0 0 1 2.32-.025l124.925 122.974c.648.638.659 1.683.024 2.334-.321.33-.747.496-1.173.496"/>
                        <path fill="#E26329" d="M76.716 193.376c-2.19-6.931-.615-14.823 4.775-20.397a20.084 20.084 0 0 1 20.11-5.336l.05-.05-51.22-50.3c-12.868 46.366 26.285 76.083 26.285 76.083"/>
                        <path fill="#E7792B" d="M50.358 117.822c-27.787 28.522-27.198 74.176 1.315 101.971l.037-.036c-2.209-6.936-.621-14.832 4.812-20.41 5.434-5.576 13.284-7.368 20.272-5.338l.06-.061s-39.468-29.734-26.496-76.126M50.473 117.268l51.602 50.747.214-.222c-2.208-6.993-.62-14.955 4.81-20.578 5.332-5.521 12.99-7.354 19.877-5.483-2.813-3.408-32.74-38.054-76.503-24.464"/>
                        <path fill="#E26329" d="M51 117.858c43.7-13.427 73.582 20.802 76.39 24.17.128.034.257.06.384.098l.161-.165c-2.204-6.91-.619-14.776 4.804-20.332 5.25-5.379 12.76-7.22 19.561-5.498-28.483-27.263-73.709-26.543-101.3 1.727"/>
                        <path fill="#BCCFE1" d="M167.6 246.21h20.05v-6.868H167.6z"/>
                        <path fill="#FFFFFE" d="M99.013 213.981a5.808 5.808 0 0 0-5.804 5.812h11.607a5.808 5.808 0 0 0-5.803-5.812M147.436 158.341c-.93 6.793-7.183 11.545-13.966 10.614-6.783-.93-11.529-7.192-10.599-13.985.93-6.793 7.182-11.545 13.966-10.614 6.783.93 11.528 7.193 10.599 13.985"/>
                        <path fill="#FFFFFE" d="M146.497 165.132a1.32 1.32 0 1 1-2.64-.045 1.32 1.32 0 0 1 2.64.045"/>
                        <path fill="#FFFFFE" d="M146.733 164.845l.819-6.34-4.22 4.48 3.4 1.86"/>
                        <path fill="#182335" d="M137.908 149.394s1.749 6.252 10.172 6.813c0 0-1.077-11.823-12.582-11.966-11.505-.143-13.537 9.633-13.537 9.633s-1.226 5.093 1.63 8.858c0 0 9.124-2.29 14.317-13.338"/>
                        <path fill="#FFFFFE" d="M135.945 157.977c0 1.75-1.418 3.17-3.166 3.17a3.168 3.168 0 0 1-3.165-3.17c0-1.751 1.417-3.17 3.165-3.17a3.168 3.168 0 0 1 3.166 3.17"/>
                        <path fill="#182335" d="M143.324 159.934a.791.791 0 1 1-1.568-.214.791.791 0 0 1 1.568.214"/>
                    </g>
                </g>
            </g>
            <g mask="url(#b)">
                <g transform="translate(430.936 -24.303)">
                    <mask id="f" fill="#fff">
                        <use xlink:href="#e"/>
                    </mask>
                    <use fill="#FFF" fill-rule="nonzero" xlink:href="#e"/>
                    <g mask="url(#f)">
                        <path fill="#95B5D5" d="M.064 245.553h442.788V4.194H.064z"/>
                        <path fill="#BCCFE1" d="M217.09 32.266c-1.23 0-2.398.264-3.455.736a16.01 16.01 0 0 0 .118-1.942c0-8.705-7.007-15.762-15.651-15.762v34.168h18.988c4.716 0 8.54-3.85 8.54-8.6s-3.824-8.6-8.54-8.6"/>
                        <path fill="#D1DEEA" d="M198.102 15.298c-8.63 0-15.626 7.057-15.626 15.762 0 .9.076 1.782.22 2.64a8.676 8.676 0 0 0-5.447-1.916c-4.84 0-8.764 3.958-8.764 8.841 0 1.404.325 2.73.902 3.907h-6.083c-2.674 0-4.842 2.188-4.842 4.886v.048h39.64V15.298M316.561 81.281c1.6 0 3.119.341 4.493.95a20.49 20.49 0 0 1-.155-2.506c0-11.233 9.11-20.339 20.347-20.339v44.09h-23.758v-.042c-.306.025-.614.041-.927.041-6.13 0-11.1-4.969-11.1-11.097 0-6.128 4.97-11.097 11.1-11.097"/>
                        <path fill="#BCCFE1" d="M361.4 80.427c0 1.16-.098 2.298-.285 3.405a11.395 11.395 0 0 1 7.102-2.471c6.313 0 11.432 5.104 11.432 11.402 0 1.809-.425 3.519-1.176 5.038h7.932c3.488 0 6.316 2.82 6.316 6.3v.064h-51.7V60.099c11.255 0 20.38 9.101 20.38 20.328"/>
                        <path fill="#D1DEEA" d="M83.144 111.03c1.602 0 3.124.34 4.5.95a20.369 20.369 0 0 1-.155-2.505c0-11.227 9.124-20.329 20.38-20.329v44.067H84.073v-.042a11.22 11.22 0 0 1-.928.042c-6.141 0-11.12-4.967-11.12-11.092 0-6.125 4.979-11.091 11.12-11.091"/>
                        <path fill="#BCCFE1" d="M128.19 109.475c0 1.16-.098 2.298-.285 3.405a11.397 11.397 0 0 1 7.102-2.471c6.314 0 11.432 5.104 11.432 11.402 0 1.808-.424 3.518-1.176 5.038h7.932c3.488 0 6.317 2.82 6.317 6.3v.064h-51.701V89.146c11.255 0 20.38 9.102 20.38 20.33"/>
                        <path fill="#5B95C3" d="M.427 277.826H441.18V153.629H.427z"/>
                        <path fill="#326AA5" d="M-36.173 167.003a32.17 32.17 0 0 1 19.163 6.293 32.172 32.172 0 0 1 19.164-6.293c7.177 0 13.804 2.34 19.163 6.293a32.171 32.171 0 0 1 19.163-6.293c7.177 0 13.805 2.34 19.164 6.293a32.171 32.171 0 0 1 19.163-6.293c7.177 0 13.804 2.34 19.164 6.293a32.171 32.171 0 0 1 19.163-6.293c7.177 0 13.804 2.34 19.163 6.293a32.172 32.172 0 0 1 19.164-6.293 32.17 32.17 0 0 1 19.163 6.293 32.174 32.174 0 0 1 19.164-6.293c7.176 0 13.804 2.34 19.163 6.293a32.172 32.172 0 0 1 19.163-6.293 32.17 32.17 0 0 1 19.163 6.293 32.173 32.173 0 0 1 19.164-6.293c4.148 0 8.11.79 11.752 2.212v-15.038H-40.289v13.088a32.63 32.63 0 0 1 4.116-.262"/>
                        <path fill="#326AA5" d="M238.554 167.003a32.17 32.17 0 0 1 19.163 6.293 32.173 32.173 0 0 1 19.164-6.293c7.177 0 13.804 2.34 19.164 6.293a32.171 32.171 0 0 1 19.163-6.293c7.176 0 13.804 2.34 19.163 6.293a32.171 32.171 0 0 1 19.163-6.293c7.177 0 13.805 2.34 19.164 6.293a32.171 32.171 0 0 1 19.163-6.293c7.177 0 13.804 2.34 19.164 6.293a32.172 32.172 0 0 1 19.163-6.293 32.17 32.17 0 0 1 19.163 6.293 32.174 32.174 0 0 1 19.164-6.293c7.177 0 13.804 2.34 19.163 6.293a32.172 32.172 0 0 1 19.163-6.293 32.17 32.17 0 0 1 19.164 6.293 32.173 32.173 0 0 1 19.163-6.293c4.148 0 8.11.79 11.752 2.212v-15.038H234.438v13.088a32.63 32.63 0 0 1 4.116-.262M319.877 187.204h-91.159l-.366.987 52.865 43.013h92.233l-53.573-44M322.512 187.204l54.08 44h92.232l-53.572-44h-92.74"/>
                        <path fill="#EA8943" d="M357.212 189.449l19.563 29.208h8.516l-9.433-29.208h-18.646"/>
                        <g transform="translate(330.235 174.017)">
                            <mask id="h" fill="#fff">
                                <use xlink:href="#g"/>
                            </mask>
                            <path fill="#2E84BA" d="M10.337 4.468c2.55 2.521 2.922 6.805-.069 9.023-3.235 2.4-7.644.5-9.13-3.246C.002 7.378-.463 1.418 1.406.45c1.792-.93 6.924 2.033 8.932 4.019" mask="url(#h)"/>
                            <path fill="#EA8943" d="M84.625 15.186l19.919 29.826h8.67l-9.605-29.826H84.625" mask="url(#h)"/>
                        </g>
                        <path fill="#EA8943" d="M378.353 188.897l-31.601-27.004h16.562l31.336 27.004h-16.297"/>
                        <path fill="#2E84BA" d="M342.748 184.324l.15 4.022-4.955-.003 2.477-5.508 2.328 1.489"/>
                        <path fill="#81AACF" d="M385.49 158.536c-2.312-1.328-18.152-8.778-37.894-17.02 0 0-3.696-2.348-9.305-.234-3.806 1.436-5.366 5.983-5.301 8.419l.034.025c.824 10.388 1.844 27.264 3.04 34.1l6.697.111c.987-4.724 1.94-17.863 2.82-24.716 14.107 10.925 25.292 20.354 27.305 21.51 6.094 3.5 13.856 1.37 17.336-4.76 3.48-6.128 1.362-13.935-4.732-17.435"/>
                        <path fill="#EA8943" d="M357.422 188.897l-33.243-27.004h20.913l31.39 27.004h-19.06M414.68 188.897l-33.243-27.004h20.913l31.39 27.004h-19.06"/>
                        <path fill="#EA8943" d="M396.521 188.897l-31.6-27.004h16.56l31.337 27.004h-16.297"/>
                        <path fill="#2E84BA" d="M324.179 131.03l39.107 30.863h18.15L341.8 131.031h-17.62"/>
                        <path fill="#FFFFFE" d="M395.2 96.862c-16.723 0-30.28 13.593-30.28 30.361l4.046 45.112v.485c0 4.902 4 8.913 8.889 8.913h33.856c4.89 0 8.89-4.01 8.89-8.913v-.485l4.88-45.112c0-16.768-13.557-30.361-30.28-30.361"/>
                        <path fill="#EA8943" d="M323.078 131.03l39.107 30.863h18.15l-39.637-30.862h-17.62"/>
                        <path fill="#FFFFFE" d="M389.145 100.72h12.662V88.044h-12.662z"/>
                        <path fill="#FFFFFE" d="M413.889 66.826c-.54-9.984-8.656-17.91-18.59-17.91-9.915 0-18.015 7.896-18.584 17.854l-.022.056h-.014v.035l-2.135 5.412c-.568 1.053-.19 2.376.843 2.955.47.263.993.318 1.48.21 1.207 9.289 8.986 16.464 18.432 16.464 9.846 0 17.902-7.788 18.57-17.647h.05v-7.429h-.03"/>
                        <path fill="#326AA5" d="M416.118 66.427l-.075-.007c.048-.493.075-.993.075-1.498 0-8.536-7.062-15.456-15.774-15.456-8.711 0-15.604 4.654-15.604 13.19 0 .506 1.08 2.512 1.08 2.512s9.383 14.7 14.61 21.223c16.36-5.045 15.688-19.964 15.688-19.964"/>
                        <path fill="#FFFFFE" d="M357.1 140.912l-16.55-9.33-.955 7.524 16.764 13.026a4.768 4.768 0 0 0 4.128.769 4.73 4.73 0 0 0 3.123-2.788l3.512-8.737-8.046-5.382-1.976 4.918M367.994 113.395l-9.13 22.167 8.257 5.389 9.911-24.063-9.038-3.493"/>
                        <path fill="#81AACF" d="M380.634 156.382h43.196l-1.733 15.953s-.532 9.95-13.6 9.95c-13.067 0-31.465-.118-31.465-.118l3.602-25.785"/>
                        <path fill="#EA8943" d="M324.179 189.449h12.663v-57.316h-12.663z"/>
                        <path fill="#FFFFFE" d="M341.001 139.297c2.385-3.486 1.528-8.215-1.989-10.671-3.517-2.456-8.373-1.719-10.98 1.613l12.97 9.058"/>
                        <path fill="#EA8943" d="M378.133 189.449h16.185l21.804-115.183c-5.842.158-11.603 1.612-16.959 4.088l-21.03 111.095"/>
                        <g transform="translate(396.852 74.266)">
                            <mask id="j" fill="#fff">
                                <use xlink:href="#i"/>
                            </mask>
                            <path fill="#EA8943" d="M36.994 4.433C32.618 1.96 27.458.51 21.733.352L.142 115.375h16.026L36.994 4.433M38.862 5.582L18.253 115.375h18.763l14.398-76.7c2.648-14.111-2.579-26.434-12.552-33.093" mask="url(#j)"/>
                        </g>
                        <path fill="#EA8943" d="M396.852 79.226c-12.558 6.652-22.478 18.961-25.145 33.057l-14.495 76.614h18.89l20.75-109.67"/>
                        <path fill="#FFFFFE" d="M346.201 133.507l-5.491 7.444-4.97-3.578 5.493-7.444 4.968 3.578"/>
                        <path fill="#326AA5" d="M408.965 51.938s-7.595-7.49-20.324-3.51c0 0-4.95 1.125-9.194 6.058 0 0-1.59 2.164-4.066 2.25 0 0 3.482 7.097 13.763 5.798l19.82-10.596"/>
                        <path fill="#FFFFFE" d="M394.1 70.684c0 2.283-1.726 4.133-3.854 4.133-2.129 0-3.854-1.85-3.854-4.133s1.725-4.133 3.854-4.133c2.128 0 3.854 1.85 3.854 4.133"/>
                        <path fill="#BCCFE1" d="M248.604 184.324l.149 4.022-4.955-.003 2.478-5.508 2.328 1.489"/>
                        <path fill="#BCCFE1" d="M246.73 178.226c2.523 2.53 2.89 6.826-.069 9.051-3.202 2.408-7.565.501-9.035-3.256-1.126-2.876-1.586-8.855.263-9.827 1.774-.933 6.852 2.04 8.84 4.032"/>
                        <path fill="#EA8943" d="M319.433 188.897l-33.242-27.004h20.913l31.39 27.004h-19.06M283.107 188.897l-31.601-27.004h16.561l31.337 27.004h-16.297"/>
                        <path fill="#EA8943" d="M301.275 188.897l-31.601-27.004h16.562l31.336 27.004h-16.297"/>
                        <path fill="#BCCFE1" d="M301.606 96.862c-16.723 0-30.28 13.593-30.28 30.361l4.045 45.112v.485c0 4.902 4 8.913 8.89 8.913h33.856c4.889 0 8.889-4.01 8.889-8.913v-.485l4.88-45.112c0-16.768-13.556-30.361-30.28-30.361"/>
                        <path fill="#FFFFFE" d="M253.67 141.516s-3.752-2.348-9.444-.233c-3.863 1.435-5.447 5.982-5.381 8.418l.035.025c.836 10.388 1.871 27.264 3.086 34.1l6.796.111c1.002-4.724 1.97-17.863 2.862-24.716 1.025.782 2.033 1.555 3.026 2.32l2.361-18.642c-1.1-.458-2.214-.918-3.342-1.383"/>
                        <path fill="#A8C1DB" d="M291.322 159.19c-2.19-1.241-16.474-7.881-34.728-15.484l-2.336 18.459c12.726 9.815 22.538 17.94 24.413 19.002 6.117 3.466 13.907 1.357 17.4-4.712 3.493-6.07 1.367-13.8-4.75-17.265"/>
                        <path fill="#EA8943" d="M228.933 131.03l39.107 30.863h18.15l-39.637-30.862h-17.62"/>
                        <path fill="#EA8943" d="M228.933 189.449h12.663v-57.316h-12.663z"/>
                        <path fill="#FFFFFE" d="M295 100.72h12.662V88.044H295z"/>
                        <path fill="#FFFFFE" d="M320.295 66.826c-.54-9.984-8.656-17.91-18.59-17.91-9.915 0-18.015 7.896-18.584 17.854l-.022.056h-.015v.035l-2.134 5.412c-.568 1.053-.191 2.376.842 2.955.47.263.993.318 1.48.21 1.207 9.289 8.987 16.464 18.433 16.464 9.846 0 17.902-7.788 18.57-17.647h.05v-7.429h-.03"/>
                        <path fill="#326AA5" d="M321.974 66.627l-.075-.007c.05-.5.075-1.004.075-1.516 0-8.636-7.023-15.638-15.688-15.638-8.664 0-15.688 7.002-15.688 15.638 0 .512.026 1.017.075 1.516l-.075.007s-.584 21.824 15.688 26.928c16.272-5.104 15.688-26.928 15.688-26.928"/>
                        <path fill="#326AA5" d="M288.735 57.512s-9.126 32.134 1.5 37.763c0 0 6.391-2.66 16.172-1.596 9.782 1.064 9.259 3.183 9.259 3.183s7.209-15.115 6.217-31.842c-.991-16.727-33.148-7.508-33.148-7.508"/>
                        <path fill="#326AA5" d="M315.37 52.06s-6.42-6.948-21.559-4.122c-15.14 2.825-10.776 19.25-5.212 21.368L315.37 52.06"/>
                        <path fill="#FFFFFE" d="M262.955 140.912l-16.55-9.33-.955 7.524 16.764 13.026a4.768 4.768 0 0 0 4.128.769 4.73 4.73 0 0 0 3.123-2.788l3.512-8.737-8.046-5.382-1.976 4.918"/>
                        <path fill="#BCCFE1" d="M273.849 113.395l-9.13 22.167 8.257 5.389 9.911-24.063-9.038-3.493"/>
                        <path fill="#A8C1DB" d="M286.473 156.382h42.11l-1.689 15.953s-.52 9.95-13.258 9.95-29.648-1.086-29.648-1.086l2.485-24.817"/>
                        <path fill="#EA8943" d="M261.966 189.449l19.563 29.208h8.516l-9.433-29.208h-18.646M319.775 189.449l19.563 29.208h8.515l-9.433-29.208h-18.645M282.887 189.449h16.185l21.804-115.183c-5.842.158-11.603 1.612-16.959 4.088l-21.03 111.095M337.943 78.353c-4.38-2.476-9.545-3.93-15.276-4.087L301.056 189.45h16.042l20.845-111.096M340.56 79.226l-20.785 109.671h18.923l14.522-76.614c2.67-14.096-2.601-26.405-12.66-33.057M301.606 79.226c-12.557 6.652-22.478 18.961-25.145 33.057l-14.495 76.614h18.89l20.75-109.67"/>
                        <path fill="#EA8943" d="M262.176 188.897l-33.243-27.004h20.913l31.39 27.004h-19.06"/>
                        <path fill="#FFFFFE" d="M246.856 139.297c2.385-3.486 1.528-8.215-1.989-10.671-3.516-2.456-8.373-1.719-10.98 1.613l12.97 9.058"/>
                    </g>
                </g>
                <path fill="#2E84BA" d="M-27.98 194.784h459v-244h-459z"/>
                <path fill="#495F75" d="M-.584 195.048h432v-56h-432z"/>
                <path fill="#D1DEEA" d="M232.12 80.65c-1.121 0-2.185.239-3.148.667a14.43 14.43 0 0 0 .107-1.762c0-7.904-6.384-14.311-14.26-14.311v31.022h17.301c4.297 0 7.781-3.496 7.781-7.809 0-4.311-3.484-7.807-7.78-7.807"/>
                <path fill="#E8EEF3" d="M214.819 65.244c-7.9 0-14.306 6.407-14.306 14.311 0 .817.07 1.617.201 2.397a7.985 7.985 0 0 0-4.986-1.74 8.025 8.025 0 0 0-7.198 11.574h-5.568a4.434 4.434 0 0 0-4.433 4.435v.045h36.29V65.244"/>
                <path fill="#D1DEEA" d="M369.23 29.372c-1.67 0-3.255.36-4.69 1.002.106-.867.16-1.749.16-2.644 0-11.856-9.509-21.467-21.24-21.467v46.533h25.77c6.399 0 11.588-5.243 11.588-11.712 0-6.468-5.189-11.712-11.589-11.712"/>
                <path fill="#E8EEF3" d="M343.465 6.334c-11.78 0-21.33 9.567-21.33 21.369 0 1.22.103 2.415.299 3.58a11.897 11.897 0 0 0-7.434-2.6c-6.608 0-11.965 5.367-11.965 11.986 0 1.902.444 3.7 1.231 5.297h-8.303c-3.65 0-6.61 2.965-6.61 6.623v.066h54.112V6.334"/>
                <path fill="#C2D0DC" d="M420.578 157.422c0 2.155-28.07 3.902-62.697 3.902s-62.697-1.747-62.697-3.902c0-2.156 28.07-3.903 62.697-3.903s62.697 1.747 62.697 3.903" style="mix-blend-mode:multiply"/>
                <path fill="#FBF9F9" d="M355.82 104.194c-.01.009-3.852 3.435 0 7.027l-.8-.635c.589.694 1.087 1.238 1.167 1.193 5.095 5.87 10.194 11.576 13.589 14.974l1.94-1.512c-2.353-4.009-6.394-10.105-10.634-16.303 1.026-.598 2.016-1.178 2.962-1.733l-3.843-6.126c-1.374.973-2.848 2.02-4.38 3.115"/>
                <path fill="#CCD4E3" d="M374.81 96.001a4.013 4.013 0 0 0-5.583-1.225c-.532.347-4.24 2.934-9.25 6.505l3.87 6.217c5.322-3.148 9.216-5.504 9.751-5.852 1.876-1.22 2.419-3.747 1.212-5.645"/>
                <path fill="#FFFFFE" d="M359.387 54.183c-1.527 4.314.725 9.052 5.03 10.582 4.304 1.53 9.03-.727 10.558-5.041 1.526-4.314-.726-9.052-5.03-10.582-4.304-1.53-9.032.727-10.558 5.04"/>
                <path fill="#FFFFFE" d="M357.952 58.351a1.07 1.07 0 0 0 .484 1.433 1.066 1.066 0 0 0 1.43-.484 1.067 1.067 0 1 0-1.913-.949"/>
                <path fill="#FFFFFE" d="M357.841 58.272l1.382-3.725 1.287 3.744-2.669-.019"/>
                <path fill="#182335" d="M361.608 55.972a.533.533 0 1 0 1.005.357.534.534 0 1 0-1.005-.357"/>
                <path fill="#597EB2" d="M321.552 108.033c-13.852 0-25.082 11.254-25.082 25.138 0 13.883 11.23 25.138 25.082 25.138 13.853 0 25.082-11.255 25.082-25.138 0-13.884-11.23-25.138-25.082-25.138m0 4.455c11.379 0 20.637 9.279 20.637 20.683s-9.258 20.682-20.637 20.682c-11.379 0-20.636-9.278-20.636-20.682 0-11.404 9.257-20.683 20.636-20.683"/>
                <path fill="#EA8943" d="M347.35 135.31a1.42 1.42 0 0 1-1.417-1.42c0-13.87-11.26-25.154-25.097-25.154a1.42 1.42 0 0 1-1.419-1.422 1.42 1.42 0 0 1 1.419-1.42c15.402 0 27.933 12.558 27.933 27.995a1.42 1.42 0 0 1-1.418 1.421"/>
                <path fill="#BCCFE1" d="M321.552 111.242c-12.084 0-21.88 9.818-21.88 21.929 0 12.111 9.796 21.93 21.88 21.93s21.88-9.819 21.88-21.93c0-12.111-9.796-21.93-21.88-21.93m0 .95c11.543 0 20.934 9.411 20.934 20.98s-9.39 20.98-20.934 20.98c-11.543 0-20.934-9.411-20.934-20.98s9.391-20.98 20.934-20.98"/>
                <path fill="#597EB2" d="M325.821 132.903a4.007 4.007 0 0 1-4.002 4.012 4.007 4.007 0 0 1-4.003-4.012 4.007 4.007 0 0 1 4.003-4.01 4.007 4.007 0 0 1 4.002 4.01"/>
                <path fill="#95B5D5" d="M321.82 130.497a2.404 2.404 0 0 0-2.403 2.407 2.404 2.404 0 0 0 2.402 2.406 2.404 2.404 0 0 0 2.401-2.406 2.404 2.404 0 0 0-2.4-2.407m0 .95a1.457 1.457 0 0 1 0 2.914 1.457 1.457 0 0 1 0-2.915"/>
                <path fill="#BCCFE1" d="M322.204 131.566l-.652-.046 1.482-20.278.653.046-1.483 20.278M320.604 155.1l-.653-.045 1.482-20.28.653.046-1.482 20.28M343.92 135.31l-20.233-1.485.046-.654 20.233 1.485-.045.654M319.905 133.171l-20.233-1.485.046-.654 20.233 1.485-.046.654M335.49 149.752l-12.87-15.098.47-.413 12.871 15.097-.47.414M320.014 131.566l-12.87-15.097.47-.414 12.87 15.098-.47.413M305.421 147.612l-.413-.472 15.064-12.9.413.472-15.064 12.9M323.565 132.101l-.412-.47 15.064-12.901.412.471-15.064 12.9"/>
                <path fill="#BCCFE1" d="M322.666 131.566l-.58-.279 9.025-17.906.58.28-9.025 17.905M311.993 152.96l-.58-.278 9.025-17.906.58.278-9.025 17.907M341.02 143.333l-17.867-9.046.278-.581 17.867 9.046-.278.581M319.673 132.636l-17.867-9.046.278-.581 17.867 9.045-.278.582M328.433 154.03l-6.347-19.05.59-.204 6.347 19.05-.59.205M320.961 131.566l-6.347-19.05.59-.205 6.348 19.05-.59.205M300.944 140.659l-.205-.592 19.007-6.361.205.592-19.007 6.361"/>
                <g transform="translate(321.552 104.289)">
                    <mask id="l" fill="#fff">
                        <use xlink:href="#k"/>
                    </mask>
                    <path fill="#BCCFE1" d="M1.979 28.41l-.205-.603 18.987-6.478.205.603L1.979 28.41" mask="url(#l)"/>
                    <path fill="#597EB2" d="M70.96 3.744c-13.843 0-25.065 11.258-25.065 25.145S57.117 54.034 70.96 54.034c13.843 0 25.065-11.258 25.065-25.145S84.803 3.744 70.96 3.744m0 4.457c11.37 0 20.622 9.28 20.622 20.688 0 11.407-9.251 20.688-20.622 20.688-11.37 0-20.621-9.28-20.621-20.688 0-11.407 9.25-20.688 20.621-20.688" mask="url(#l)"/>
                    <path fill="#EA8943" d="M45.457 31.128a1.43 1.43 0 0 1-1.427-1.432c0-15.558 12.615-28.214 28.122-28.214.79 0 1.429.641 1.429 1.432a1.43 1.43 0 0 1-1.429 1.433c-13.932 0-25.266 11.371-25.266 25.349a1.43 1.43 0 0 1-1.429 1.432" mask="url(#l)"/>
                    <path fill="#BCCFE1" d="M71.2 6.658c-12.156 0-22.01 9.887-22.01 22.082 0 12.196 9.854 22.083 22.01 22.083 12.157 0 22.012-9.887 22.012-22.083 0-12.195-9.855-22.082-22.011-22.082m0 .955c11.612 0 21.06 9.478 21.06 21.127 0 11.65-9.448 21.127-21.06 21.127-11.612 0-21.06-9.477-21.06-21.127 0-11.65 9.448-21.127 21.06-21.127" mask="url(#l)"/>
                    <path fill="#597EB2" d="M67.138 28.74a4.069 4.069 0 0 0 4.063 4.076 4.07 4.07 0 0 0 4.062-4.076 4.069 4.069 0 0 0-4.062-4.075 4.068 4.068 0 0 0-4.063 4.075" mask="url(#l)"/>
                    <path fill="#BCCFE1" d="M69.1 28.833l-20.003-1.455.046-.635 20.003 1.455-.046.635" mask="url(#l)"/>
                    <g fill="#BCCFE1">
                        <path d="M72.855 28.833l20.003-1.455-.046-.635-20.003 1.455.046.635M87.107 43.595l.414-.482-15.169-13.16-.415.48 15.17 13.162M72.265 27.359l6.184-19.14-.604-.196-6.183 19.14.603.196M91.595 35.692l.196-.606-19.078-6.204-.196.606 19.078 6.204M80.552 48.697l.565-.29L72 30.488l-.565.29 9.117 17.92"/>
                        <path d="M72.327 27.899l17.863-9.147-.289-.567-17.863 9.147.29.567"/>
                    </g>
                    <path fill="#BCCFE1" d="M54.849 43.595l-.415-.482 15.17-13.16.415.48-15.17 13.162M69.681 27.464L56.562 12.246l.48-.417 13.12 15.219-.48.416M70.224 26.824L64.04 7.684l.604-.196 6.184 19.14-.604.196M50.36 35.692l-.195-.606 19.078-6.204.196.606-19.078 6.204"/>
                    <path fill="#BCCFE1" d="M61.403 48.697l-.565-.29 9.118-17.92.565.29-9.118 17.92M.652 27.278L0 27.232 1.482 6.953 2.135 7 .652 27.278M69.095 27.899l-17.863-9.147.289-.567 17.863 9.147-.29.567"/>
                    <path fill="#EA8943" d="M71.201 29.696a.948.948 0 0 1-.737-.35l-22.43-27.5a.957.957 0 0 1 .134-1.344.95.95 0 0 1 1.34.135l22.43 27.499a.957.957 0 0 1-.737 1.56"/>
                </g>
                <path fill="#EA8943" d="M359.888 121.634l-25.093-16.84 2.187-4.222 25.092 16.84-2.186 4.222zm12.136-20.345a1.41 1.41 0 0 0-1.916.605l-6.709 12.959-25.093-16.84 4.63-8.942h-1.587v-2.433a1.396 1.396 0 0 0-.679.62l-10.95 21.15a1.445 1.445 0 0 0 .598 1.94c.21.11.435.164.658.164.51 0 1.005-.28 1.258-.77l1.237-2.39 26.16 17.556c.025.018.054.023.08.039.017.01.028.027.045.036.056.03.114.045.171.066.04.015.077.033.117.045.122.033.246.054.37.054.008 0 .015-.003.023-.003a1.4 1.4 0 0 0 .336-.046c.039-.01.074-.03.112-.043.076-.028.152-.056.223-.096.041-.023.078-.054.117-.082.06-.044.12-.087.175-.14.038-.038.07-.08.103-.122.031-.038.067-.07.095-.11.01-.017.01-.037.02-.053.017-.027.04-.047.054-.075l10.95-21.15a1.445 1.445 0 0 0-.598-1.939z"/>
                <path fill="#BCCFE1" d="M359.71 120.334s1.333 9.92 1.333 10.577-.597 1.19-1.334 1.19c-.737 0-1.334-.533-1.334-1.19 0-.658 1.334-10.577 1.334-10.577"/>
                <path fill="#BCCFE1" d="M359.976 124.937c-3.058 0-5.547 2.494-5.547 5.56 0 3.065 2.489 5.559 5.547 5.559 3.059 0 5.547-2.494 5.547-5.56 0-3.065-2.488-5.559-5.547-5.559m0 13.048c-4.12 0-7.471-3.36-7.471-7.489s3.351-7.487 7.471-7.487 7.472 3.358 7.472 7.487c0 4.13-3.353 7.489-7.472 7.489"/>
                <path fill="#FFFFFE" d="M361.043 91.987H348.78c-4.794 0-8.549-2.232-8.549-5.081 0-2.85 3.755-5.082 8.549-5.082h12.264v1.867H348.78c-3.923 0-6.657 1.694-6.657 3.215 0 1.52 2.734 3.214 6.657 3.214h12.264v1.867"/>
                <path fill="#FFFFFE" d="M359.403 84.499c-.33 0-.669-.012-1.013-.036a1.742 1.742 0 0 1-1.612-1.863 1.737 1.737 0 0 1 1.853-1.62c2.362.167 4.103-.4 5.321-1.727 2.464-2.685 2.288-8.03 2.013-9.864a1.745 1.745 0 0 1 1.457-1.986 1.74 1.74 0 0 1 1.976 1.465c.05.337 1.192 8.298-2.894 12.752-1.755 1.913-4.141 2.879-7.101 2.879"/>
                <path fill="#597EB2" d="M361.393 92.522h-5.502c-.691 0-1.252-.599-1.252-1.337 0-.739.561-1.338 1.252-1.338h5.502c.691 0 1.251.6 1.251 1.338 0 .738-.56 1.337-1.25 1.337M361.393 83.964h-5.502c-.691 0-1.252-.599-1.252-1.337 0-.739.561-1.337 1.252-1.337h5.502c.691 0 1.251.598 1.251 1.337 0 .738-.56 1.337-1.25 1.337"/>
                <path fill="#182335" d="M364.245 49.245s.82 11.192 9.334 13.324c0 0 4.724-4.452.936-10.775-3.79-6.322-10.27-2.549-10.27-2.549"/>
                <path fill="#FFFFFE" d="M366.619 57.308a2.141 2.141 0 0 0 .916 2.883 2.132 2.132 0 0 0 2.876-.918c.541-1.05.13-2.34-.916-2.883a2.132 2.132 0 0 0-2.876.918M371.183 67.563l-4.782.89-1.088-5.529 4.782-.89 1.088 5.53"/>
                <path fill="#597EB2" d="M373.492 98.94c-.73 0-1.414.126-2.007.344l-6.612 1.224c-.936 0-1.695.495-1.695 1.106 0 .611.759 1.107 1.695 1.107l6.612 1.223a5.835 5.835 0 0 0 2.007.345c2.261 0 4.095-1.198 4.095-2.675 0-1.477-1.834-2.674-4.095-2.674"/>
                <path fill="#CCD4E3" d="M379.722 94.661c0 3.544-2.867 6.418-6.404 6.418s-6.404-2.874-6.404-6.418c0-3.545 2.867-6.418 6.404-6.418s6.404 2.873 6.404 6.418"/>
                <path fill="#7B96C0" d="M366.782 94.661l11.873-2.726L377 72.865l-.1.017c-.567-3.424-3.519-6.034-7.078-6.034-3.964 0-7.178 3.238-7.178 7.232a7.323 7.323 0 0 0 .223 1.793l3.915 18.788"/>
                <path fill="#597EB2" d="M366.225 67.918s-1.46 4.683.639 13.503c2.098 8.82 3.252 12.374 3.252 12.374l-3.252.866-4.082-18.744s-1.193-5.4 3.443-7.999"/>
                <path fill="#FFFFFE" d="M358.285 93.056a2.049 2.049 0 0 1-2.044-2.022 2.049 2.049 0 0 1 2.014-2.084c4.122-.062 7.108-1.29 8.874-3.65 3.027-4.047 2.066-10.887 1.44-13.181A2.054 2.054 0 0 1 370 69.596a2.044 2.044 0 0 1 2.513 1.438c.114.416 2.725 10.263-2.114 16.731-2.565 3.43-6.63 5.21-12.083 5.291h-.031M357.888 100.966c1.108-.004 2.18-.01 3.2-.016l-.145-7.359c-1.988.185-4.169.392-6.457.617h-.001a1.53 1.53 0 0 0-.039.004c-.329.035-2.733.364-2.967 2.59-.25 2.36.704 4.415.729 4.468 3.227 6.811 6.463 13.396 8.739 17.46l2.231-.958c-1.104-4.128-3.096-10.319-5.29-16.806"/>
                <path fill="#CCD4E3" d="M375.939 96.84c-.11-2.166 4.505-4.125-4.282-3.733-.614.027-4.82.353-10.614.855l.152 7.117c5.922-.035 10.234-.1 10.855-.13 2.256-.103 3.997-1.944 3.889-4.11M360.386 117.405s-5.96.203-7.348 2.93l11.741-.201-1.533-3.009-2.86.28"/>
                <path fill="#597EB2" d="M355.707 121.404h8.538v-2.14h-8.538z"/>
                <path fill="#7B96C0" d="M368.36 69.41s-1.616 1.259-.546 4.642c1.07 3.383.794 4.563.794 4.563l5.76-.393s.52-9.835-4.22-9.205l-1.788.393"/>
                <path fill="#182335" d="M364.91 50.558s-3.516 3.636-8.136.711l3.093-.711s-1.906-.396-1.814-2.965l10.462.446-3.605 2.519"/>
                <path fill="#C2D0DC" d="M322.848 187.51c0 3.018-39.275 5.466-87.725 5.466-48.449 0-87.725-2.448-87.725-5.467 0-3.019 39.276-5.466 87.725-5.466 48.45 0 87.725 2.447 87.725 5.466" style="mix-blend-mode:multiply"/>
                <path fill="#E8EEF3" d="M26.718 50.11c1.833 0 3.573.395 5.148 1.1a23.844 23.844 0 0 1-.178-2.9c0-12.993 10.437-23.526 23.312-23.526v51H27.78v-.049c-.35.03-.704.049-1.062.049C19.694 75.784 14 70.036 14 62.947c0-7.09 5.694-12.836 12.718-12.836"/>
                <path fill="#D1DEEA" d="M77.863 48.311c0 1.343-.11 2.66-.32 3.94 2.189-1.788 4.955-2.86 7.967-2.86 7.083 0 12.825 5.908 12.825 13.197 0 2.093-.476 4.072-1.32 5.83h8.899c3.913 0 7.086 3.265 7.086 7.292v.074H55v-51c12.627 0 22.863 10.533 22.863 23.527"/>
                <path fill="#F5F4F3" d="M233.426 107.891c-.015.013-5.837 5.152 0 10.541l-1.212-.953c.891 1.04 1.647 1.857 1.767 1.789 7.721 8.805 15.447 17.365 20.59 22.46l2.941-2.266c-3.566-6.014-9.69-15.157-16.113-24.455 1.554-.897 3.054-1.767 4.487-2.6l-5.82-9.188c-2.084 1.46-4.317 3.03-6.64 4.672"/>
                <path fill="#7B96C0" d="M262.43 95.297c-1.79-2.808-5.496-3.62-8.278-1.814-.79.513-6.29 4.343-13.717 9.628l5.738 9.2c7.892-4.657 13.667-8.145 14.46-8.66 2.781-1.806 3.586-5.546 1.797-8.354"/>
                <path fill="#FFFFFE" d="M239.025 32.963c-2.315 6.54 1.099 13.724 7.625 16.043 6.526 2.32 13.693-1.101 16.008-7.642 2.314-6.54-1.1-13.724-7.626-16.043-6.526-2.32-13.692 1.101-16.007 7.642"/>
                <path fill="#FFFFFE" d="M236.865 38.86a1.606 1.606 0 0 0 .726 2.148 1.599 1.599 0 0 0 2.144-.727 1.605 1.605 0 0 0-.725-2.148 1.6 1.6 0 0 0-2.145.726"/>
                <path fill="#FFFFFE" d="M237.233 39.008l1.934-5.856 1.801 5.884-3.735-.028"/>
                <path fill="#182335" d="M242.616 35.825a.8.8 0 1 0 1.508.536.8.8 0 1 0-1.508-.536"/>
                <path fill="#326AA5" d="M182.532 113.381c-20.78 0-37.624 16.883-37.624 37.708s16.845 37.707 37.624 37.707c20.779 0 37.623-16.882 37.623-37.707s-16.844-37.708-37.623-37.708m0 6.684c17.068 0 30.954 13.917 30.954 31.024 0 17.106-13.886 31.024-30.954 31.024-17.069 0-30.955-13.918-30.955-31.024 0-17.107 13.886-31.024 30.955-31.024"/>
                <path fill="#EA8943" d="M221.217 155.1c-1.182 0-2.14-.96-2.14-2.145 0-20.93-16.99-37.957-37.873-37.957-1.183 0-2.141-.96-2.141-2.146 0-1.185.958-2.145 2.14-2.145 23.244 0 42.154 18.952 42.154 42.248a2.143 2.143 0 0 1-2.14 2.145"/>
                <path fill="#95B5D5" d="M182.799 118.195c-18.274 0-33.088 14.847-33.088 33.161 0 18.315 14.814 33.162 33.088 33.162 18.273 0 33.087-14.847 33.087-33.162 0-18.314-14.814-33.161-33.087-33.161m0 1.434c17.455 0 31.656 14.233 31.656 31.727 0 17.495-14.201 31.727-31.656 31.727-17.456 0-31.656-14.232-31.656-31.727 0-17.494 14.2-31.727 31.656-31.727"/>
                <path fill="#326AA5" d="M188.669 151.089c0 3.397-2.748 6.15-6.137 6.15-3.39 0-6.137-2.753-6.137-6.15 0-3.397 2.747-6.151 6.137-6.151 3.39 0 6.137 2.754 6.137 6.15"/>
                <path fill="#95B5D5" d="M182.799 147.612a3.74 3.74 0 0 0-3.736 3.744 3.74 3.74 0 0 0 3.736 3.744 3.74 3.74 0 0 0 3.735-3.744 3.74 3.74 0 0 0-3.735-3.744m0 1.477a2.267 2.267 0 0 1 0 4.534 2.267 2.267 0 0 1 0-4.534"/>
                <path fill="#81AACF" d="M182.265 148.147h1.067v-29.952h-1.067zM182.265 184.518h1.067v-29.953h-1.067zM185.467 151.891h29.885v-1.07h-29.885zM149.711 151.891h29.886v-1.07H149.71zM205.609 174.89l-21.21-21.256.672-.673 21.209 21.256-.671.673M179.993 149.752l-21.21-21.257.672-.673 21.209 21.256-.671.674M159.455 174.89l-.671-.673 21.209-21.256.67.673-21.208 21.256M185.07 149.752l-.67-.674 21.209-21.256.671.673-21.21 21.257M184.22 148.682l-.888-.36 11.388-27.988.887.36-11.387 27.988M170.878 182.378l-.887-.359 11.387-27.988.887.36-11.387 27.987M212.858 164.193l-27.925-11.412.36-.89 27.925 11.413-.36.889M179.771 150.821l-27.925-11.412.36-.89 27.924 11.413-.359.89M195.247 181.843l-11.915-27.974.894-.373 11.914 27.974-.893.373M181.372 148.682l-11.915-27.974.893-.374 11.915 27.975-.893.373M152.22 164.728l-.374-.895 27.911-11.942.373.895-27.91 11.942M185.306 150.821l-.373-.894 27.911-11.942.374.895-27.912 11.941"/>
                <path fill="#326AA5" d="M289.265 113.381c-20.779 0-37.623 16.883-37.623 37.708s16.844 37.707 37.623 37.707c20.779 0 37.624-16.882 37.624-37.707s-16.845-37.708-37.624-37.708m0 6.684c17.069 0 30.955 13.917 30.955 31.024 0 17.106-13.886 31.024-30.955 31.024-17.068 0-30.954-13.918-30.954-31.024 0-17.107 13.886-31.024 30.954-31.024"/>
                <path fill="#EA8943" d="M250.58 155.1c-1.182 0-2.14-.96-2.14-2.145 0-23.296 18.91-42.248 42.154-42.248 1.182 0 2.14.96 2.14 2.145a2.143 2.143 0 0 1-2.14 2.146c-20.884 0-37.873 17.027-37.873 37.957a2.143 2.143 0 0 1-2.141 2.145"/>
                <path fill="#95B5D5" d="M288.998 118.195c-18.273 0-33.087 14.847-33.087 33.161 0 18.315 14.814 33.162 33.087 33.162 18.274 0 33.088-14.847 33.088-33.162 0-18.314-14.814-33.161-33.088-33.161m0 1.434c17.456 0 31.656 14.233 31.656 31.727 0 17.495-14.2 31.727-31.656 31.727-17.455 0-31.656-14.232-31.656-31.727 0-17.494 14.201-31.727 31.656-31.727"/>
                <path fill="#326AA5" d="M283.128 151.089c0 3.397 2.748 6.15 6.137 6.15 3.39 0 6.137-2.753 6.137-6.15 0-3.397-2.748-6.151-6.137-6.151-3.39 0-6.137 2.754-6.137 6.15"/>
                <path fill="#95B5D5" d="M288.999 147.612a3.74 3.74 0 0 0-3.736 3.744 3.74 3.74 0 0 0 3.736 3.744 3.74 3.74 0 0 0 3.735-3.744 3.74 3.74 0 0 0-3.735-3.744m0 1.477a2.267 2.267 0 0 1 0 4.534 2.268 2.268 0 0 1 0-4.534"/>
                <path fill="#81AACF" d="M288.465 148.147h1.067v-29.952h-1.067zM288.465 184.518h1.067v-29.953h-1.067zM256.445 151.891h29.885v-1.07h-29.885zM292.2 151.891h29.886v-1.07H292.2zM266.188 174.89l-.671-.673 21.21-21.256.67.673-21.209 21.256M291.804 149.752l-.67-.674 21.208-21.256.671.673-21.209 21.257M312.342 174.89l-21.209-21.256.671-.673 21.21 21.256-.672.673M286.726 149.752l-21.209-21.257.671-.673 21.21 21.256-.672.674M287.578 148.682l-11.388-27.989.888-.359 11.387 27.988-.887.36M301.453 182.378l-11.387-27.988.887-.36 11.387 27.989-.887.36M258.938 164.193l-.359-.89 27.926-11.412.359.89-27.926 11.412M292.026 150.821l-.36-.89 27.927-11.411.358.889-27.925 11.412M276.55 181.843l-.893-.373 11.915-27.974.893.373-11.916 27.974M290.425 148.682l-.893-.373 11.916-27.975.892.374-11.915 27.974M319.579 164.728l-27.912-11.942.373-.895 27.911 11.942-.372.895M286.491 150.821L258.58 138.88l.373-.895 27.912 11.942-.373.894"/>
                <path fill="#EA8943" d="M289.18 152.426a1.41 1.41 0 0 1-1.099-.523l-33.45-41.01a1.426 1.426 0 0 1 .2-2.003 1.415 1.415 0 0 1 1.997.2l33.45 41.01a1.426 1.426 0 0 1-1.098 2.326"/>
                <path fill="#95B5D5" d="M240.168 163.658s-1.868-14.879-1.868-15.865c0-.986.836-1.785 1.868-1.785 1.031 0 1.868.799 1.868 1.785 0 .986-1.868 15.865-1.868 15.865"/>
                <path fill="#95B5D5" d="M240.168 139.273c-4.479 0-8.122 3.74-8.122 8.339 0 4.598 3.643 8.34 8.122 8.34s8.122-3.742 8.122-8.34-3.643-8.34-8.122-8.34m0 19.572c-6.033 0-10.94-5.038-10.94-11.232 0-6.193 4.907-11.232 10.94-11.232 6.032 0 10.94 5.039 10.94 11.232 0 6.194-4.908 11.232-10.94 11.232"/>
                <path fill="#EA8943" d="M239.689 133.802l-37.793-25.164 3.292-6.31 37.793 25.164-3.292 6.31zm18.278-30.402a2.132 2.132 0 0 0-2.886.905l-10.104 19.363-37.793-25.164 6.972-13.361h-1.443V81.29a2.131 2.131 0 0 0-1.97 1.142l-16.492 31.605a2.15 2.15 0 0 0 .9 2.898c.317.167.656.246.99.246.77 0 1.514-.419 1.896-1.151l1.863-3.57 39.4 26.235c.023.015.047.02.07.033.041.025.076.056.12.079.084.044.172.066.258.098.059.022.115.05.176.067.184.05.37.081.556.081.012 0 .024-.005.036-.005.17-.003.34-.025.504-.068.06-.016.114-.045.172-.065.114-.041.227-.083.334-.143.063-.035.118-.082.177-.124.091-.064.18-.129.262-.208.057-.056.106-.121.158-.185.046-.055.1-.102.141-.163.026-.04.042-.084.065-.125.013-.024.034-.04.047-.065l16.492-31.604a2.15 2.15 0 0 0-.901-2.899z"/>
                <path fill="#326AA5" d="M234.03 165.263h12.809v-2.675H234.03z"/>
                <path fill="#FFFFFE" d="M242.036 89.847h-18.554c-7.252 0-12.933-3.407-12.933-7.756 0-4.348 5.68-7.755 12.933-7.755h18.554v2.85h-18.554c-5.935 0-10.07 2.585-10.07 4.905 0 2.321 4.135 4.907 10.07 4.907h18.554v2.85"/>
                <path fill="#FFFFFE" d="M239.042 78.615c-.497 0-1.003-.018-1.52-.054a2.614 2.614 0 0 1-2.418-2.794 2.607 2.607 0 0 1 2.779-2.43c3.544.249 6.154-.6 7.982-2.592 3.696-4.027 3.432-12.044 3.02-14.794a2.616 2.616 0 0 1 2.185-2.98 2.608 2.608 0 0 1 2.964 2.198c.075.505 1.788 12.447-4.34 19.127-2.634 2.87-6.212 4.32-10.652 4.32"/>
                <path fill="#326AA5" d="M241.719 90.382h-8.438c-1.06 0-1.919-.838-1.919-1.872 0-1.034.86-1.872 1.919-1.872h8.438c1.06 0 1.918.838 1.918 1.872 0 1.034-.859 1.872-1.918 1.872M241.719 77.545h-8.438c-1.06 0-1.919-.838-1.919-1.872 0-1.033.86-1.872 1.919-1.872h8.438c1.06 0 1.918.839 1.918 1.872 0 1.034-.859 1.872-1.918 1.872"/>
                <path fill="#182335" d="M246.305 25.221s1.23 16.994 14 20.233c0 0 7.087-6.762 1.404-16.362-5.683-9.6-15.404-3.87-15.404-3.87"/>
                <path fill="#FFFFFE" d="M250.399 37.562a3.212 3.212 0 0 0 1.374 4.324 3.198 3.198 0 0 0 4.314-1.377 3.212 3.212 0 0 0-1.374-4.324 3.198 3.198 0 0 0-4.314 1.377"/>
                <path fill="#182335" d="M251.642 22.722c0-3.397 2.747-6.15 6.137-6.15 3.39 0 6.137 2.753 6.137 6.15 0 3.397-2.748 6.151-6.137 6.151-3.39 0-6.137-2.754-6.137-6.15M247.588 27.822s-5.587 2.154-8.212 4.795c0 0-.606-6.68 8.53-8.023l-.318 3.228"/>
                <path fill="#FFFFFE" d="M256.978 53.673l-7.39 1.408-1.682-8.754 7.39-1.408 1.682 8.754"/>
                <path fill="#326AA5" d="M260.09 99.475a8.266 8.266 0 0 0-2.92.516l-5.73 1.835c-1.362 0-2.467.744-2.467 1.66 0 .917 1.105 1.66 2.467 1.66l5.73 1.836a8.274 8.274 0 0 0 2.92.516c3.292 0 5.96-1.796 5.96-4.011 0-2.216-2.668-4.012-5.96-4.012"/>
                <path fill="#597EB2" d="M266.05 62.837c0 6.646-5.375 12.034-12.007 12.034s-12.007-5.388-12.007-12.034c0-6.647 5.375-12.035 12.007-12.035s12.008 5.388 12.008 12.035"/>
                <path fill="#A3B2D0" d="M269.253 93.591c0 5.317-4.182 9.628-9.34 9.628-5.158 0-9.339-4.31-9.339-9.628 0-5.317 4.181-9.627 9.34-9.627 5.157 0 9.339 4.31 9.339 9.627"/>
                <path fill="#597EB2" d="M265.553 63.104l2.632 26.88-17.817 4.142-4.063-22.608 19.248-8.414"/>
                <path fill="#326AA5" d="M249.489 51.872s-6.796 4.81-5.101 11.374c1.693 6.564 6.873 6.801 6.873 6.801l3.583 22.607-4.144.937-3.913-21.185s-5.512-4.032-4.662-10.748c.849-6.716 5.5-9.193 7.364-9.786"/>
                <path fill="#FFFFFE" d="M237.938 91.452l-.288-.001c-1.714-.01-3.095-1.396-3.086-3.097.01-1.701 1.411-3.054 3.12-3.062 7.845.032 13.134-1.915 15.772-5.82 2.457-3.636 2.34-8.553 1.81-12.038-.607-3.99-1.854-6.987-1.867-7.017a3.071 3.071 0 0 1 1.67-4.027 3.111 3.111 0 0 1 4.058 1.657c.254.606 6.163 14.967-.516 24.856-3.833 5.673-10.788 8.549-20.673 8.549"/>
                <path fill="#A3B2D0" d="M261.79 93.96a5.966 5.966 0 0 0-8.47.711c-.584.697-4.438 5.609-9.683 12.43l8.117 7.35c5.898-6.47 10.148-11.223 10.739-11.928 2.144-2.56 1.83-6.394-.703-8.562"/>
                <path fill="#FFFFFE" d="M236.817 115.983s-2.96 3.882-2.094 8.912l.087.51c2.15 12.538 4.515 25.271 6.41 32.904l3.73-.413c.121-8.095-.498-21.574-1.276-34.63 3.036-3.198 5.923-6.26 8.501-9.014l-8.274-7.29c-2.17 2.747-4.574 5.803-7.084 9.02"/>
                <path fill="#7B96C0" d="M240.049 158.73s-9.21.304-11.355 4.393l18.145-.3-1.99-4.514-4.8.42"/>
                <g transform="translate(431.452 194.007)">
                    <mask id="n" fill="#fff">
                        <use xlink:href="#m"/>
                    </mask>
                    <use fill="#BCCFE1" xlink:href="#m"/>
                    <g mask="url(#n)">
                        <path fill="#6EA0C9" d="M174.147 160.816c2.344-14.99 4.568-64.873 4.568-67.243 0-3.034-3.293-5.494-6.676-5.494-3.384 0-6.126 2.46-6.126 5.494 0 2.37 1.674 52.252 4.019 67.243h4.215"/>
                        <path fill="#5B95C3" d="M186.075 160.816c2.345-14.99 4.019-64.873 4.019-67.243 0-3.034-2.743-5.494-6.126-5.494-3.384 0-6.676 2.46-6.676 5.494 0 2.37 2.223 52.252 4.568 67.243h4.215"/>
                        <path fill="#95B5D5" d="M157.443 63.792v42.97a6.377 6.377 0 0 0 6.377 6.376V63.792h-6.377"/>
                        <path fill="#81AACF" d="M181.36 49.875v-5h-6.715v5l3.346 15.344 3.37-15.344M198.564 63.792v42.97a6.377 6.377 0 0 1-6.377 6.376V63.792h6.377"/>
                        <path fill="#5B95C3" d="M156.402 68.91h8.316v37.7h13.285V53.685c-.745 0-1.482-4.009-2.208-3.943-10.893.987-19.393 9.193-19.393 19.169"/>
                        <path fill="#478CBE" d="M178.003 53.685v52.925h13.285v-37.7h8.317c0-10.104-8.72-18.393-19.815-19.203-.59-.042-1.185 3.978-1.787 3.978"/>
                        <path fill="#326AA5" d="M187.533 160.673h-5.606v5.605h11.21a5.605 5.605 0 0 0-5.604-5.605M168.718 160.673h5.605v5.605h-11.21a5.605 5.605 0 0 1 5.605-5.605"/>
                        <path fill="#D1DEEA" d="M178.003 50.245l-.019 10.787 4.449-10.935-4.43.148"/>
                        <path fill="#E8EEF3" d="M177.964 50.245l.02 10.787-4.45-10.935 4.43.148"/>
                        <path fill="#EA8943" d="M177.068 52.219l-1.445-1.925h4.761l-1.445 1.925a1.17 1.17 0 0 1-1.871 0"/>
                        <path fill="#FFFFFE" d="M176.385 52.849l-2.812-2.752 1.05-2.002 3.38 2.149-1.618 2.605"/>
                        <path fill="#E8EEF3" d="M179.621 52.849l2.812-2.752-1.05-2.002-3.38 2.149 1.618 2.605"/>
                        <path fill="#41496F" d="M165.42 31.408c0-6.95 5.634-12.583 12.583-12.583 6.95 0 12.584 5.633 12.584 12.583s-5.634 12.583-12.584 12.583c-6.95 0-12.583-5.633-12.583-12.583"/>
                        <path fill="#95B5D5" d="M189.771 30.931c-.337-6.207-5.476-11.136-11.767-11.136-6.292 0-11.431 4.93-11.768 11.136h-.02v3.379h.015c.296 6.246 5.453 11.219 11.773 11.219 6.319 0 11.476-4.973 11.771-11.22h.015v-3.378h-.019"/>
                        <path fill="#182335" d="M173.725 33.483a.82.82 0 1 1-1.64 0 .82.82 0 0 1 1.64 0M183.922 33.483a.82.82 0 1 1-1.64 0 .82.82 0 0 1 1.64 0M175.024 40.097h5.958s-2.627 2.901-5.958 0"/>
                        <path fill="#6FA0C9" d="M174.796 36.086h-4.538a1.877 1.877 0 0 1-1.875-1.875v-.928h.619v.928c0 .693.563 1.257 1.256 1.257h4.538c.692 0 1.256-.564 1.256-1.257v-.928h.62v.928a1.877 1.877 0 0 1-1.876 1.875"/>
                        <path fill="#4D8FC0" d="M176.362 33.746a.464.464 0 0 1-.464-.464v-.27c0-.607-.495-1.101-1.102-1.101h-4.538c-.607 0-1.102.494-1.102 1.102v.27a.464.464 0 1 1-.928 0v-.27c0-1.12.911-2.03 2.03-2.03h4.538c1.119 0 2.03.91 2.03 2.03v.27a.464.464 0 0 1-.464.463"/>
                        <path fill="#6FA0C9" d="M185.748 36.086h-4.537a1.877 1.877 0 0 1-1.875-1.875v-.928h.619v.928c0 .693.563 1.257 1.256 1.257h4.537c.693 0 1.257-.564 1.257-1.257v-.928h.618v.928a1.877 1.877 0 0 1-1.875 1.875"/>
                        <path fill="#4D8FC0" d="M179.645 33.746a.464.464 0 0 0 .464-.464v-.27c0-.607.495-1.101 1.102-1.101h4.537c.608 0 1.102.494 1.102 1.102v.27a.464.464 0 1 0 .928 0v-.27c0-1.12-.91-2.03-2.03-2.03h-4.537c-1.12 0-2.03.91-2.03 2.03v.27c0 .255.208.463.464.463"/>
                        <path fill="#4D8FC0" d="M176.49 33.16h2.987v-.887h-2.987zM168.564 33.16h-1.379a.443.443 0 0 1 0-.887h1.38a.444.444 0 1 1 0 .887M188.821 33.16h-1.378a.443.443 0 1 1 0-.887h1.378a.444.444 0 1 1 0 .887"/>
                        <path fill="#EA8943" d="M177.983 61.031l1.387-3.408-.797-5.417c-.136-.61-1.004-.61-1.14 0l-.807 5.488 1.357 3.337"/>
                        <path fill="#5B95C3" d="M177.917 66.24c-.002-.975.344-1.782.55-2.829.112-.565.38-.96.728-1.212l-4.838-13.597-4.537 4.166 3.204.355-3.376.356 8.27 12.761"/>
                        <path fill="#6EA0C9" d="M169.885 53.592l7.916 12.216c.047-.49.167-.948.294-1.427.083-.316.169-.643.238-.996.102-.52.343-.944.7-1.234l-4.735-13.308-4.163 3.822 4.165.462-4.415.465zm8.17 13.115l-8.644-13.341 2.337-.246-2.244-.25 4.913-4.51 4.943 13.89-.084.06c-.35.253-.576.631-.674 1.128a16 16 0 0 1-.243 1.013c-.156.599-.306 1.165-.304 1.79v.466z"/>
                        <path fill="#478CBE" d="M182.433 50.097l-10.368 25.439v30.996h8.754l1.614-56.435"/>
                        <path fill="#478CBE" d="M181.65 48.602l-9.585 26.934 14.293-22.056-3.375-.357 3.204-.356-4.537-4.165"/>
                        <path fill="#5B95C3" d="M181.71 48.843l-9.122 25.634 13.533-20.885-4.414-.465 4.165-.463-4.163-3.821zm-10.167 27.752L181.59 48.36l4.912 4.51-2.243.25 2.336.247-15.052 23.228z"/>
                        <path fill="#326AA5" d="M175.024 77.018a.745.745 0 1 1-1.49 0 .745.745 0 0 1 1.49 0M180.982 77.018a.745.745 0 1 0 1.49.001.745.745 0 0 0-1.49 0M175.024 85.877a.745.745 0 1 1-1.49 0 .745.745 0 0 1 1.49 0M180.982 85.877a.745.745 0 1 0 1.49.001.745.745 0 0 0-1.49 0M175.024 94.736a.745.745 0 1 1-1.49 0 .745.745 0 0 1 1.49 0M180.982 94.736a.745.745 0 1 0 1.49.001.745.745 0 0 0-1.49 0"/>
                        <path fill="#EA8943" d="M182.81 64.122h5.766V61.49h-5.766z"/>
                        <path fill="#478CBE" d="M187.728 69.977h-4.205a1.242 1.242 0 0 1-1.242-1.243v-6.103h6.688v6.103c0 .687-.556 1.243-1.241 1.243"/>
                        <path fill="#5B95C3" d="M182.418 62.768v5.967c0 .608.496 1.104 1.105 1.104h4.205c.609 0 1.104-.496 1.104-1.104v-5.967h-6.414zm5.31 7.346h-4.205a1.38 1.38 0 0 1-1.379-1.38v-6.241h6.962v6.242a1.38 1.38 0 0 1-1.378 1.379z"/>
                        <path fill="#478CBE" d="M199.605 68.631l-4.594-2.895-3.723 2.895.586 35.379h7.008l.723-35.379"/>
                        <path fill="#FFFFFE" d="M192.15 104.01l.037 1.545h6.377l.043-1.545h-6.457M157.443 105.554h6.377l.037-1.544H157.4l.043 1.544"/>
                        <path fill="#5B95C3" d="M160.995 65.736l-4.593 2.895.722 35.38h7.009l.585-35.38-3.723-2.895"/>
                        <path fill="#41496F" d="M169.008 16.908a7.059 7.059 0 0 0 7.059 7.059h6.757a6.964 6.964 0 0 1 6.965 6.964c0-7.744-6.278-14.023-14.023-14.023h-6.758"/>
                        <path fill="#41496F" d="M171.161 21.983s-2.22 6.945-5.687 8.27c0 0 2.415-7.977 5.687-8.27"/>
                        <path fill="#BCCFE1" d="M172.102 16.908h-.844c.065 3.014 1.61 5.63 3.865 6.994.309.042.623.065.944.065h1.558c-3.074-.558-5.438-3.496-5.523-7.059"/>
                        <path fill="#BCCFE1" d="M175.173 16.908h-.844c.065 3.063 1.661 5.715 3.977 7.059h2.39c-3.073-.558-5.438-3.496-5.523-7.059"/>
                        <path fill="#A8C1DB" d="M99.573 161.18c2.345-13.012 4.02-56.313 4.02-58.37 0-2.634-2.744-4.769-6.127-4.769-3.384 0-6.126 2.135-6.126 4.769 0 2.057 1.674 45.358 4.019 58.37h4.214"/>
                        <path fill="#95B5D5" d="M111.502 161.18c2.345-13.012 4.019-56.313 4.019-58.37 0-2.634-2.744-4.769-6.127-4.769-3.383 0-6.126 2.135-6.126 4.769 0 2.057 1.674 45.358 4.02 58.37h4.214M84.026 72.453h6.12l2.804 9.8-2.256 15.568h12.736V53.978c-11.93 0-19.404 6.545-19.404 18.475"/>
                        <path fill="#81AACF" d="M103.43 53.978v43.843h12.736l-1.887-15.51 2.436-9.858h6.394c0-11.93-7.749-18.475-19.68-18.475"/>
                        <path fill="#FFFFFE" d="M112.96 160.673h-5.605v5.605h11.21a5.605 5.605 0 0 0-5.605-5.605M94.145 160.673h5.605v5.605H88.54a5.606 5.606 0 0 1 5.605-5.605"/>
                        <path fill="#95B5D5" d="M100.072 55.448h6.716v-5.061h-6.716z"/>
                        <path fill="#A8C1DB" d="M115.198 36.444c-.337-6.207-5.477-11.137-11.768-11.137S92 30.237 91.663 36.444h-.02v3.378h.015c.296 6.247 5.453 11.219 11.772 11.219 6.32 0 11.476-4.972 11.772-11.219h.015v-3.378h-.02"/>
                        <path fill="#182335" d="M99.152 38.995a.82.82 0 1 1-1.64 0 .82.82 0 0 1 1.64 0M109.349 38.995a.82.82 0 1 1-1.641 0 .82.82 0 0 1 1.64 0M100.451 45.61h5.958s-2.628 2.9-5.958 0"/>
                        <path fill="#7B96C0" d="M90.695 97.82l-5.894 68.458h18.791V97.82H90.695"/>
                        <path fill="#6A89B9" d="M116.166 97.82h-12.574v68.458h20.941l-8.367-68.458"/>
                        <path fill="#326AA5" d="M103.268 51.042c-5.642 0-10.216-5.585-10.216-11.227s4.574-10.216 10.216-10.216c5.642 0 10.216 4.574 10.216 10.216 0 5.642-4.574 11.227-10.216 11.227m11.988-12.868c0-13.118-11.103-14.06-11.898-14.035-.796-.026-12.174.367-12.174 14.035 0 15.534-3.404 21.784-3.404 21.784s2.185 10.508 15.488 10.602v.003l.09-.002.089.002v-.003c13.302-.094 15.488-10.602 15.488-10.602s-3.679-6.25-3.679-21.784"/>
                        <path fill="#81AACF" d="M123.11 71.983l-3.58-2.615-4.01 2.557.66 14.331h6.582l.347-14.273"/>
                        <path fill="#95B5D5" d="M117.093 84.375l-.68-.616L98.69 97.506c1.828 2.357 5.524 2.55 8.255.431l12.943-10.038c-.954-1.14-1.96-2.303-2.795-3.524"/>
                        <path fill="#81AACF" d="M118.728 81.055l-14.87 11.938 3.553 4.583 15.35-11.32-4.033-5.201"/>
                        <path fill="#95B5D5" d="M84.026 71.983l3.579-2.615 4.009 2.557-.658 14.331h-6.584l-.346-14.273"/>
                        <path fill="#E26329" d="M103.43 95.885c-1.072 0-2.145.6-2.844 1.8l-3.12 5.364h11.928l-3.12-5.364c-.698-1.2-1.771-1.8-2.844-1.8m0 1.22c.696 0 1.348.435 1.79 1.193l2.053 3.531h-7.686l2.054-3.53c.441-.76 1.093-1.194 1.789-1.194"/>
                        <path fill="#A8C1DB" d="M90.042 84.375l.68-.616 17.723 13.747c-1.828 2.357-5.524 2.55-8.255.431L87.248 87.899c.953-1.14 1.959-2.303 2.794-3.524"/>
                        <path fill="#95B5D5" d="M88.408 81.055l14.87 11.938-3.554 4.583-15.351-11.32 4.035-5.201"/>
                        <path fill="#E57238" d="M87.764 112.833v7.89c0 .518.419.938.936.938h29.46c.518 0 .936-.42.936-.937v-7.891H87.764"/>
                        <path fill="#E26329" d="M87.764 112.833h31.332v-11.996H87.764z"/>
                        <path fill="#B7C3D9" d="M102.675 111.268h2.364c.211 0 .383.171.383.383v2.363a.383.383 0 0 1-.383.383h-2.364a.383.383 0 0 1-.383-.383v-2.363c0-.212.171-.383.383-.383"/>
                        <path fill="#8FA3C8" d="M104.835 113.965h-1.956a.138.138 0 0 1 0-.275h1.956c.076 0 .137.062.137.138a.137.137 0 0 1-.137.137"/>
                        <path fill="#5B95C3" d="M137.311 161.18c2.346-16.716 4.02-55.199 4.02-57.842a6.127 6.127 0 0 0-12.253 0c0 2.643 1.674 41.126 4.02 57.843h4.213"/>
                        <path fill="#4773AB" d="M149.24 161.18c2.345-16.716 4.02-55.199 4.02-57.842a6.127 6.127 0 0 0-12.253 0c0 2.643 1.673 41.126 4.02 57.843h4.213"/>
                        <path fill="#FFFFFE" d="M120.608 75.536v33.121a6.377 6.377 0 0 0 6.377 6.377V75.536h-6.377"/>
                        <path fill="#E8EEF3" d="M161.73 75.536v33.121a6.377 6.377 0 0 1-6.378 6.377V75.536h6.377"/>
                        <path fill="#F5C190" d="M119.567 80.375h8.316v23.051h13.285V58.775c-11.93 0-21.6 9.67-21.6 21.6"/>
                        <path fill="#F2B57F" d="M141.169 58.775v44.651h13.285v-23.05h8.316c0-11.93-9.67-21.601-21.601-21.601"/>
                        <path fill="#326AA5" d="M150.255 161.18h-5.098v5.098h10.195a5.097 5.097 0 0 0-5.097-5.097M132.082 161.18h5.098v5.098h-10.195a5.097 5.097 0 0 1 5.097-5.097"/>
                        <path fill="#E8EEF3" d="M137.811 54.007h6.716v5.062l-3.359 6.667-3.357-6.667v-5.062"/>
                        <path fill="#182335" d="M128.585 40.54c0-6.949 5.634-12.582 12.583-12.582 6.95 0 12.584 5.633 12.584 12.582 0 6.95-5.634 12.583-12.584 12.583-6.949 0-12.583-5.633-12.583-12.583"/>
                        <path fill="#FFFFFE" d="M152.936 40.064c-.337-6.207-5.476-11.136-11.767-11.136-6.292 0-11.431 4.93-11.768 11.136h-.019v3.379h.015c.295 6.246 5.453 11.219 11.772 11.219s11.476-4.973 11.771-11.22h.015v-3.378h-.019"/>
                        <path fill="#182335" d="M136.89 42.615a.82.82 0 1 1-1.64 0 .82.82 0 0 1 1.64 0M147.087 42.615a.82.82 0 1 1-1.641 0 .82.82 0 0 1 1.641 0"/>
                        <path fill="#B0C7DD" d="M144.52700000000002 54.177a11.81 11.81 0 0 0 8.042-8.303v-.002a11.809 11.809 0 0 1-8.042 8.304"/>
                        <path fill="#CCDBE8" d="M141.168 54.662a11.79 11.79 0 0 0 0 0"/>
                        <path fill="#39465B" d="M152.57 45.874c.204-.782.33-1.595.37-2.431h.014-.013c-.04.836-.167 1.648-.371 2.43v.001m-22.802 0a11.76 11.76 0 0 1-.371-2.431h-.015.015c.04.836.166 1.65.371 2.43"/>
                        <path fill="#DAE5EE" d="M141.169 54.662a11.79 11.79 0 0 1-3.358-.486 11.808 11.808 0 0 1-8.043-8.302 11.781 11.781 0 0 1-.371-2.431h-.015V40.54l.985-.726c.002.052.21 6.58 5.317 9.415.005-.005 1.287-1.88 5.323-1.88 4.041 0 5.645 1.88 5.645 1.88 5.107-2.834 5.316-9.363 5.317-9.415l.985.725v2.903h-.014c-.04.836-.166 1.65-.37 2.431a11.81 11.81 0 0 1-8.043 8.302 11.791 11.791 0 0 1-3.358.486"/>
                        <path fill="#F5C190" d="M126.985 77.764l-7.418 2.611.476 13.29h4.425a2.517 2.517 0 0 0 2.517-2.517V77.764"/>
                        <path fill="#F7CCA2" d="M119.567 89.084h7.418v3.885a.696.696 0 0 1-.696.696h-6.026a.696.696 0 0 1-.696-.696v-3.885"/>
                        <path fill="#F2B57F" d="M155.352 77.764l7.418 2.611-.476 13.29h-4.425a2.517 2.517 0 0 1-2.517-2.517V77.764"/>
                        <path fill="#F5C190" d="M162.77 89.084h-7.418v3.885c0 .384.312.696.696.696h6.026a.696.696 0 0 0 .696-.696v-3.885"/>
                        <path fill="#F7CCA2" d="M137.811 57.14l-1.741 2.241 1.402 3.425 1.923-2.187-1.584-3.478"/>
                        <path fill="#F5C190" d="M139.395 60.62l1.773 2.558v2.558l-2.8-3.949 1.027-1.168M144.527 57.14l1.74 2.241-1.402 3.425-1.922-2.187 1.584-3.478"/>
                        <path fill="#F2B57F" d="M142.943 60.62l-1.774 2.558v2.558l2.8-3.949-1.026-1.168"/>
                        <path fill="#E9834A" d="M140.243 68.365a.562.562 0 1 1-1.124 0 .562.562 0 0 1 1.124 0M140.243 73.252a.562.562 0 1 1-1.124 0 .562.562 0 0 1 1.124 0M140.243 78.14a.562.562 0 1 1-1.123 0 .562.562 0 0 1 1.123 0M140.243 83.027a.562.562 0 1 1-1.124 0 .562.562 0 0 1 1.124 0M140.243 87.914a.562.562 0 1 1-1.123 0 .562.562 0 0 1 1.123 0M140.243 92.801a.562.562 0 1 1-1.123 0 .562.562 0 0 1 1.123 0M140.243 97.688a.562.562 0 1 1-1.124 0 .562.562 0 0 1 1.124 0"/>
                        <path fill="#182335" d="M133.764 30.931s6.684 2.627 14.968 0c0 0-6.957-5.475-14.968 0"/>
                        <path fill="#182335" d="M134.444 30.492s-2.602 9.413-5.577 11.303c0 0 .68-8.174 5.577-11.303M147.893 30.492s2.602 9.413 5.577 11.303c0 0-.68-8.174-5.577-11.303"/>
                        <path fill="#182335" d="M128.867 37.89s1.854-10.706 12.381-10.706v.774s5.104-.774 10.047 3.757v2.671l-3.402-3.894-8.212-.893-5.237.893-5.577 7.398"/>
                        <path fill="#326AA5" d="M141.276 50.83c-.894 0-1.934-.324-3.044-1.29a.352.352 0 0 1-.034-.499.355.355 0 0 1 .499-.035c2.805 2.444 4.983.13 5.075.029a.354.354 0 0 1 .522.475c-.017.02-1.226 1.32-3.018 1.32"/>
                        <path fill="#597EB2" d="M236.928 161.18c2.346-16.716 4.02-55.199 4.02-57.842a6.126 6.126 0 0 0-12.253 0c0 2.643 1.674 41.126 4.02 57.843h4.213"/>
                        <path fill="#4773AB" d="M248.857 161.18c2.345-16.716 4.02-55.199 4.02-57.842a6.127 6.127 0 0 0-12.253 0c0 2.643 1.673 41.126 4.019 57.843h4.214"/>
                        <path fill="#2E84BA" d="M220.225 75.536v33.121a6.377 6.377 0 0 0 6.377 6.377V75.536h-6.377"/>
                        <path fill="#597EB2" d="M261.346 75.536v33.121a6.377 6.377 0 0 1-6.377 6.377V75.536h6.377"/>
                        <path fill="#E8EEF3" d="M219.184 80.375h8.316v23.051h13.285V58.775c-11.93 0-21.6 9.67-21.6 21.6"/>
                        <path fill="#D1DEEA" d="M240.786 58.775v44.651h13.285v-23.05h8.316c0-11.93-9.67-21.601-21.601-21.601"/>
                        <path fill="#326AA5" d="M249.871 161.18h-5.097v5.098h10.195a5.098 5.098 0 0 0-5.098-5.097M231.7 161.18h5.097v5.098h-10.195a5.098 5.098 0 0 1 5.097-5.097"/>
                        <path fill="#597EB2" d="M237.428 54.007h6.715v5.062l-3.358 2.1-3.357-2.1v-5.062"/>
                        <path fill="#326AA5" d="M228.202 40.54c0-6.949 5.634-12.582 12.583-12.582 6.95 0 12.585 5.633 12.585 12.582 0 6.95-5.635 12.583-12.585 12.583-6.949 0-12.583-5.633-12.583-12.583"/>
                        <path fill="#6A89B9" d="M252.553 40.064c-.337-6.207-5.476-11.136-11.767-11.136-6.292 0-11.431 4.93-11.768 11.136h-.019v3.379h.015c.295 6.246 5.453 11.219 11.772 11.219 6.32 0 11.476-4.973 11.771-11.22h.015v-3.378h-.019"/>
                        <path fill="#5078AE" d="M240.858 54.662h-.068.137-.069"/>
                        <path fill="#5D80B3" d="M240.786 54.662H240.714a11.74 11.74 0 0 1-4.207-.804v-3.553c0-2.34 1.879-3.053 4.209-3.067h.14c2.295.014 4.152.707 4.207 2.964v3.657a11.747 11.747 0 0 1-4.206.802H240.786"/>
                        <path fill="#182335" d="M236.508 42.615a.82.82 0 1 1-1.642 0 .82.82 0 0 1 1.642 0M246.704 42.615a.82.82 0 1 1-1.641 0 .82.82 0 0 1 1.641 0M237.807 49.23h5.957s-2.628 2.9-5.957 0"/>
                        <path fill="#D1DEEA" d="M262.369 80.375l-1.042 27.118h-6.377l-1.003-30.475 8.422 3.357"/>
                        <path fill="#E8EEF3" d="M219.203 80.375l1.04 27.118h6.378l1.003-30.475-8.421 3.357"/>
                        <path fill="#597EB2" d="M262.369 80.3l-.767 26.504h-6.927l-.728-29.786 8.422 3.281"/>
                        <path fill="#6A89B9" d="M219.203 80.3l.766 26.504h6.927l.728-29.786-8.421 3.281"/>
                        <path fill="#E26329" d="M240.762 83.632l2.198-5.91-1.498-14.343c-.16-.724-1.192-.724-1.354 0l-1.51 14.427 2.164 5.826"/>
                        <path fill="#6A89B9" d="M237.428 59.068l.055-.042c-10.362 1.59-18.299 10.542-18.299 21.35h8.316l.825 14.44-.825 15.293h10.125a3.16 3.16 0 0 0 3.16-3.16V82.496l-3.357-23.428"/>
                        <path fill="#597EB2" d="M244.143 59.068l-3.357 23.428v24.336a3.278 3.278 0 0 0 3.277 3.277h10.008l-.825-15.27.825-14.464h8.316c0-10.675-7.418-19.515-18.244-21.307"/>
                        <path fill="#E26329" d="M239.668 63.394l-1.718-2.287h5.659l-1.718 2.287a1.39 1.39 0 0 1-2.223 0"/>
                        <path fill="#D1DEEA" d="M237.428 59.068l3.357 2.1-2.74 2.208-2.114-2.207 1.497-2.1"/>
                        <path fill="#E8EEF3" d="M244.143 59.068l-3.357 2.1 2.74 2.208 2.114-2.207-1.497-2.1"/>
                        <path fill="#597EB2" d="M237.428 59.068l-3.843 3.027 7.2 20.401-3.357-23.428"/>
                        <path fill="#6A89B9" d="M244.143 59.068l3.843 3.027-7.2 20.401 3.357-23.428"/>
                        <path fill="#4773AB" d="M240.14 83.818a.771.771 0 1 1-1.542-.001.771.771 0 0 1 1.542 0M240.14 89.456a.771.771 0 1 1-1.542 0 .771.771 0 0 1 1.542 0M240.14 95.094a.771.771 0 1 1-1.543 0 .771.771 0 0 1 1.543 0M240.14 100.733a.77.77 0 1 1-1.542-.001.77.77 0 0 1 1.542 0"/>
                        <path fill="#182335" d="M228.73 43.443s.947-4.034 1.732-7.285a3.805 3.805 0 0 1 3.156-2.876 51.16 51.16 0 0 1 14.55.052 3.462 3.462 0 0 1 2.853 2.676c.598 2.67 1.553 6.825 1.834 7.433 0 0 1.369-4.22.198-10.41-.23-1.211-1.33-2.081-2.59-2.05 0 0-3.165-4.829-10.618-4.691-7.453.137-13.794 3.956-11.115 17.15"/>
                        <path fill="#6A89B9" d="M303.127 166.78l4.315-1.55-.006-5.48-1.06.323c-1.204 1.905-3.408 3.212-5.675 3.212a6.51 6.51 0 0 1-1.395-.15 5.739 5.739 0 0 0-1.41 3.645h5.231"/>
                        <path fill="#81AACF" d="M307.442 162.047l-5.05 1.593s-2.111.786-3.119-.467c0 0 .711-1.126 3.612-1.992l-.666-6.827 5.237-.799-.014 8.492"/>
                        <path fill="#6A89B9" d="M306.45 166.78h.992v-3.94h-.991zM316.005 166.78l-4.314-1.55.005-5.48 1.06.323c1.205 1.905 3.409 3.212 5.676 3.212.483 0 .947-.052 1.394-.15a5.754 5.754 0 0 1 1.411 3.645h-5.232"/>
                        <path fill="#81AACF" d="M311.69 162.047l5.051 1.593s2.11.786 3.118-.467c0 0-1.219-1.355-3.678-1.992l1.03-7.626h-5.666l.146 8.492"/>
                        <path fill="#6A89B9" d="M311.69 166.78h.992v-3.94h-.991z"/>
                        <path fill="#FFEEDC" d="M301.082 48.383a3.12 3.12 0 0 0-3.118 3.118 3.12 3.12 0 0 0 3.118 3.118c1.718 0 3.118-1.399 3.118-3.118 0-1.72-1.4-3.118-3.118-3.118m0 6.51a3.396 3.396 0 0 1-3.392-3.392 3.396 3.396 0 0 1 3.392-3.393 3.398 3.398 0 0 1 3.393 3.393 3.398 3.398 0 0 1-3.393 3.393M317.79 48.383a3.122 3.122 0 0 0-3.118 3.118c0 1.719 1.4 3.118 3.118 3.118a3.12 3.12 0 0 0 3.118-3.118 3.12 3.12 0 0 0-3.118-3.118m0 6.51a3.396 3.396 0 0 1-3.393-3.392 3.396 3.396 0 0 1 3.393-3.393 3.396 3.396 0 0 1 3.392 3.393c0 1.87-1.52 3.393-3.392 3.393"/>
                        <path fill="#81AACF" d="M329.996 83.39v-2.92l-6.376-4.84v14.137h.702c1.655-.089 5.674-.87 5.674-6.376"/>
                        <path fill="#7B96C0" d="M318.204 92.393h-8.737v20.96h13.579s1.99-11.056-4.842-20.96"/>
                        <path fill="#8FA3C8" d="M300.73 92.393s-6.779 9.112-4.761 20.96h13.498v-20.96h-8.736"/>
                        <path fill="#7B96C0" d="M316.527 159.237c2.693-18.821 6.818-46.596 6.818-49.571 0-3.81-3.148-6.897-7.032-6.897s-6.22 3.088-6.22 6.897c0 2.975.607 30.338 1.598 49.57h4.836"/>
                        <path fill="#8FA3C8" d="M302.139 159.237c-2.69-18.821-6.546-46.596-6.546-49.571 0-3.81 3.145-6.897 7.029-6.897s6.22 3.088 6.22 6.897c0 2.975-.415 30.338-1.406 49.57h-5.297"/>
                        <path fill="#A8C1DB" d="M288.876 80.47v28.281a6.377 6.377 0 0 0 6.376 6.377V75.631l-6.376 4.839"/>
                        <path fill="#95B5D5" d="M329.996 80.47v28.281a6.377 6.377 0 0 1-6.376 6.377V75.631l6.376 4.839"/>
                        <path fill="#FFEEDC" d="M288.876 80.47l7.274 1.993 4.595 10.024h8.69V58.87c-11.93 0-20.559 9.67-20.559 21.6"/>
                        <path fill="#FBDEC1" d="M309.435 58.87v33.617h8.854l4.43-9.935 7.277-2.082c0-11.93-8.63-21.6-20.561-21.6"/>
                        <path fill="#95B5D5" d="M306.078 59.163h6.716v-5.061h-6.716z"/>
                        <path fill="#326AA5" d="M296.852 40.635c0-6.95 5.635-12.582 12.583-12.582 6.95 0 12.584 5.633 12.584 12.582 0 6.95-5.635 12.583-12.584 12.583-6.948 0-12.583-5.633-12.583-12.583"/>
                        <path fill="#A8C1DB" d="M321.204 40.158c-.338-6.207-5.476-11.136-11.77-11.136-6.29 0-11.429 4.93-11.766 11.136h-.02v3.379h.017c.294 6.246 5.451 11.22 11.77 11.22 6.32 0 11.475-4.974 11.772-11.22h.014v-3.379h-.017"/>
                        <path fill="#182335" d="M305.158 42.71a.82.82 0 1 1-1.641-.001.82.82 0 0 1 1.641 0M315.355 42.71a.82.82 0 1 1-1.641-.001.82.82 0 0 1 1.641 0M306.456 49.325h5.96s-2.63 2.9-5.96 0"/>
                        <path fill="#95B5D5" d="M296.88 63.08s4.666-4.21 12.555-4.21c7.89 0 12.584 4.319 12.584 4.319l-12.584 3.362-12.555-3.472"/>
                        <path fill="#182335" d="M303.264 32.059s2.47 8.147 10.71 8.147l-1.18-2.06s5.02 1.885 5.896 6.316c.733 3.708-.87 6.683-3.431 8.756 0 0 9.181-2.264 7.688-13.836-1.724-13.365-16.35-12.167-19.43-9.853l-.253 2.53"/>
                        <path fill="#182335" d="M303.95 53.404s-9.211-2.105-8.124-12.42c1.026-9.749 8.997-12.056 8.997-12.056l-1.559 3.131s-8.63 12.756.686 21.345"/>
                        <path fill="#6A89B9" d="M312.794 59.163v35.93a3.493 3.493 0 0 0 3.491 3.493h5.103s-.939-3.021-3.102-6.099l4.436-9.935.925-.265v25.978h6.349V80.47s1.312-18.02-17.202-21.307"/>
                        <path fill="#7B96C0" d="M306.078 59.163v35.93a3.493 3.493 0 0 1-3.492 3.493h-5.102s.938-3.021 3.099-6.099l-4.433-9.935-.925-.265v25.978h-6.349V80.47s-1.133-18.294 17.202-21.307"/>
                        <path fill="#6A89B9" d="M306.078 59.163l-4.417 8.047 4.417 25.587V59.163"/>
                        <path fill="#7B96C0" d="M312.794 59.163l4.416 8.047-4.416 25.587V59.163"/>
                        <path fill="#182335" d="M285.983 53.743s2.314 3.169 2.495 11.636c.184 8.468-10.848 9.704-10.848 9.704l8.353-21.34M264.937 63.376s-5.982 8.55.244 12.302v-1.945s.513 3.358 5.492 3.358v-1.413s1.877 2.105 4.715 2.288v-18.17l-10.451 3.58"/>
                        <path fill="#182335" d="M285.838 63.376s5.983 8.55-.242 12.302v-1.945s-.514 3.358-5.493 3.358v-1.413s-1.877 2.105-4.715 2.288v-18.17l10.45 3.58"/>
                        <path fill="#6A89B9" d="M274.097 161.18c2.28-13.153 1.373-43.435 1.373-45.514 0-2.662-2.666-4.82-5.955-4.82-3.288 0-5.953 2.158-5.953 4.82 0 2.08 4.16 32.361 6.439 45.515h4.096"/>
                        <path fill="#577DB1" d="M282.273 161.18c2.249-13.153 5.47-43.435 5.47-45.514 0-2.662-2.63-4.82-5.873-4.82-3.243 0-5.873 2.158-5.873 4.82 0 2.08-.012 32.361 2.237 45.515h4.04"/>
                        <path fill="#6A89B9" d="M257.058 96.626v18.607a5.766 5.766 0 0 0 5.767 5.767V92.25l-5.767 4.376"/>
                        <path fill="#577DB1" d="M294.245 96.626v18.607a5.765 5.765 0 0 1-5.767 5.767V92.25l5.767 4.376"/>
                        <path fill="#6A89B9" d="M257.058 96.626l5.767-1.246V82.287c-3.61 3.568-5.767 8.67-5.767 14.339"/>
                        <path fill="#4773AB" d="M262.825 82.287v13.092l4.968 12.114h7.86V77.091c-5.121 0-9.567 1.972-12.828 5.196"/>
                        <path fill="#577DB1" d="M294.245 96.626l-5.767-1.246V82.287c3.612 3.568 5.767 8.67 5.767 14.339"/>
                        <path fill="#326AA5" d="M288.478 82.287v13.092l-4.967 12.114h-7.86V77.091c5.121 0 9.567 1.972 12.827 5.196"/>
                        <path fill="#577DB1" d="M272.6 78.335h6.105v-4.602H272.6z"/>
                        <path fill="#4773AB" d="M267.432 106.669l8.225-.961V138.2H262.2s-.23-.008-.603-7.094c-.983-18.72 5.834-24.437 5.834-24.437"/>
                        <path fill="#326AA5" d="M283.88 106.669l-8.223-.961V138.2h13.455s.23-.008.601-7.094c.986-18.72-5.832-24.437-5.832-24.437"/>
                        <path fill="#577DB1" d="M275.652 77.091c-2.3 0-4.461.401-6.442 1.13a6.541 6.541 0 0 0 12.884 0 18.566 18.566 0 0 0-6.442-1.13"/>
                        <path fill="#182335" d="M264.212 61.49c0-6.318 5.122-11.44 11.44-11.44s11.44 5.122 11.44 11.44-5.122 11.44-11.44 11.44-11.44-5.122-11.44-11.44"/>
                        <path fill="#6A89B9" d="M286.351 61.057c-.307-5.643-4.98-10.124-10.7-10.124-5.719 0-10.391 4.481-10.698 10.124h-.016v3.072h.012c.27 5.678 4.958 10.2 10.703 10.2 5.745 0 10.433-4.522 10.702-10.2h.013v-3.072h-.016"/>
                        <path fill="#182335" d="M271.763 63.376a.746.746 0 1 1-1.492 0 .746.746 0 0 1 1.492 0M281.033 63.376a.746.746 0 1 1-1.492 0 .746.746 0 0 1 1.492 0M272.944 69.39h5.416s-2.389 2.637-5.416 0"/>
                        <path fill="#326AA5" d="M270.43 166.78l4.314-1.55-.005-5.48-1.06.323c-1.205 1.905-3.409 3.212-5.675 3.212a6.53 6.53 0 0 1-1.395-.15 5.75 5.75 0 0 0-1.411 3.645h5.231"/>
                        <path fill="#6A89B9" d="M274.744 162.047l-5.05 1.593s-2.111.786-3.117-.467c0 0 .709-1.126 3.61-1.992l4.57-7.626-.013 8.492"/>
                        <path fill="#326AA5" d="M273.754 166.78h.99v-3.94h-.99zM281.861 166.78l-4.315-1.55.005-5.48 1.061.323c1.204 1.905 3.408 3.212 5.674 3.212.484 0 .95-.052 1.395-.15a5.739 5.739 0 0 1 1.411 3.645h-5.23"/>
                        <path fill="#577DB1" d="M277.546 162.047l5.051 1.593s2.11.786 3.117-.467c0 0-1.217-1.355-3.677-1.992l-4.636-7.626.145 8.492"/>
                        <path fill="#326AA5" d="M277.546 166.78h.99v-3.94h-.99z"/>
                        <path fill="#182335" d="M278.705 53.404s5.654 2.15 5.196 10.527c-.458 8.376 1.145 9.932 2.977 10.253 0 0-.093-1.472-.686-2.178 0 0 .546.646 2.012.36 0 0-1.353-1.707-1.112-4.133.242-2.425 1.611-12.77-8.387-14.83"/>
                        <path fill="#182335" d="M264.631 59.163s1.602-13.632 15.105-9.933c13.504 3.7 4.221 20.214 4.221 20.214s1.982-5.616.723-9.786c-1.26-4.17-2.615-4.722-2.615-4.722l-3.36-1.532-3.952-.977s-5.933.96-6.174 3.02c-.24 2.06-3.948 3.716-3.948 3.716"/>
                        <path fill="#E8EEF3" d="M279.185 77.693a.266.266 0 0 1-.192-.083.265.265 0 0 1-.06-.298.279.279 0 0 1 .36-.149.282.282 0 0 1 .147.149c.014.035.02.07.02.106a.264.264 0 0 1-.08.192.24.24 0 0 1-.088.061.294.294 0 0 1-.107.022M279.177 78.492a.272.272 0 0 1-.261-.285.276.276 0 0 1 .286-.264c.15.008.269.134.263.288a.276.276 0 0 1-.274.261h-.014zm-7.4-.247a.276.276 0 0 1 .55-.03.273.273 0 0 1-.258.288h-.016a.275.275 0 0 1-.275-.258zm7.304 1.046a.275.275 0 1 1 .074-.546c.15.022.255.159.236.31a.277.277 0 0 1-.272.239l-.038-.003zm-7.218-.222a.277.277 0 0 1 .23-.313.28.28 0 0 1 .314.23.277.277 0 0 1-.23.314l-.042.002a.272.272 0 0 1-.272-.233zm7.037 1.002a.27.27 0 0 1-.198-.332.277.277 0 0 1 .332-.2.278.278 0 0 1 .2.335.279.279 0 0 1-.266.206l-.068-.01zm-6.87-.186a.273.273 0 0 1 .195-.336.276.276 0 0 1 .336.195.276.276 0 0 1-.195.336.211.211 0 0 1-.072.01.274.274 0 0 1-.263-.205zm6.587.939a.275.275 0 0 1 .209-.508c.139.054.205.216.148.357h.002a.279.279 0 0 1-.359.15zm-6.317-.143a.274.274 0 1 1 .505-.212.278.278 0 0 1-.146.36.29.29 0 0 1-.106.019.274.274 0 0 1-.253-.167zm5.905.83a.273.273 0 0 1-.083-.38.275.275 0 1 1 .083.38zm-5.507-.078v.003a.276.276 0 0 1 .458-.305.278.278 0 0 1-.08.382.272.272 0 0 1-.15.044.267.267 0 0 1-.228-.124zm.557.665a.278.278 0 0 1-.016-.39.278.278 0 0 1 .39-.014c.11.102.115.278.014.387a.277.277 0 0 1-.387.017zm4.39-.014a.274.274 0 1 1 .398-.376.279.279 0 0 1-.011.39.277.277 0 0 1-.19.074.27.27 0 0 1-.198-.088zm-3.675.513a.272.272 0 0 1-.118-.37.276.276 0 0 1 .488.253.278.278 0 0 1-.247.148.28.28 0 0 1-.123-.03zm2.976-.115a.276.276 0 0 1 .119-.37.275.275 0 0 1 .37.12c.069.135.017.3-.12.368a.274.274 0 0 1-.369-.118zm-2.155.404a.273.273 0 0 1-.212-.324.271.271 0 0 1 .327-.212c.146.03.242.177.209.325a.273.273 0 0 1-.266.217l-.058-.006zm1.378-.209a.276.276 0 0 1 .212-.327.273.273 0 0 1 .324.212.274.274 0 0 1-.211.327l-.055.005a.274.274 0 0 1-.27-.217zm-.802.022c0-.153.124-.274.275-.274a.274.274 0 1 1 0 .549.275.275 0 0 1-.275-.275zM272.047 77.693a.294.294 0 0 1-.107-.022.238.238 0 0 1-.088-.06.264.264 0 0 1-.08-.192.273.273 0 0 1 .327-.27l.053.014.046.025.041.035a.246.246 0 0 1 .061.089.301.301 0 0 1 .022.106c0 .036-.009.072-.022.104a.247.247 0 0 1-.06.088l-.042.036-.046.025-.053.016-.052.006"/>
                        <path fill="#E8EEF3" d="M278.597 78.365a.275.275 0 1 1 .3-.461.279.279 0 0 1 .08.382.275.275 0 0 1-.38.08m-6.413-.07a.275.275 0 0 1 .105-.373.272.272 0 0 1 .373.102.275.275 0 1 1-.478.272m5.913.739a.275.275 0 1 1 .336-.436.275.275 0 0 1-.336.436m-5.448-.011a.273.273 0 0 1 .066-.382.272.272 0 0 1 .381.063.276.276 0 0 1-.222.436.278.278 0 0 1-.225-.117m4.883.626a.275.275 0 1 1 .39-.008.271.271 0 0 1-.2.085.27.27 0 0 1-.19-.077m-4.334.052a.274.274 0 0 1 .013-.387.274.274 0 1 1-.013.387m3.683.473a.276.276 0 0 1 .055-.385.276.276 0 0 1 .384.055.276.276 0 0 1-.22.44.278.278 0 0 1-.22-.11m-3.023.12a.275.275 0 0 1-.058-.384.272.272 0 0 1 .382-.058c.124.088.151.26.06.385a.283.283 0 0 1-.222.112.283.283 0 0 1-.162-.055m2.268.236a.274.274 0 0 1 .152-.356.272.272 0 0 1 .356.148.273.273 0 0 1-.252.379.279.279 0 0 1-.256-.17m-1.47.2a.275.275 0 1 1 .094.017.306.306 0 0 1-.093-.017m.64-.115a.273.273 0 0 1 .267-.283.276.276 0 0 1 .283.266.277.277 0 0 1-.266.283h-.01a.273.273 0 0 1-.274-.266"/>
                        <path fill="#ED9C6C" d="M286.367 97.586a.823.823 0 0 1-.823-.824V80.566a.823.823 0 1 1 1.647 0v16.196a.823.823 0 0 1-.824.824"/>
                        <path fill="#ED9C6C" d="M290.44 103.642a4.073 4.073 0 1 1-8.146 0c0-2.249 4.073-12.196 4.073-12.196s4.074 9.947 4.074 12.196"/>
                        <path fill="#182335" d="M278.705 53.404s-5.487-1.465-6.942 1.418c-1.457 2.884-1.687 11.917-9.376 9.918 0 0 .211-.79 1.825-1.22 0 0-1.614.43-2.374-1.395 0 0 1.373-.208 2.152-2.222.778-2.014 5.352-11.9 14.715-6.5M326.927 54.376c0-5.967 5.6-10.804 12.508-10.804 6.908 0 12.508 4.837 12.508 10.804 0 5.968-5.6 10.805-12.508 10.805-6.909 0-12.508-4.837-12.508-10.805"/>
                        <path fill="#326AA5" d="M339.44 69.59c.044 0 .085-.008.125-.011.044.004.088.012.135.012a1.424 1.424 0 0 0 .305-.037v.02a1.32 1.32 0 0 0-.396.06 1.17 1.17 0 0 0-.17-.044m.23 2.692a1.288 1.288 0 0 0-.465-.17h.003c.145 0 .28-.026.412-.069a1.28 1.28 0 0 0 .565.06l.053-.007v.005l-.05.003a1.265 1.265 0 0 0-.518.178"/>
                        <path fill="#597EB2" d="M341.773 161.18h4.214c.516-3.644 1.078-7.826 1.647-12.163h-6.401c.17 4.306.354 8.48.54 12.164M345.567 108.1c-3.385 0-5.421 2.725-5.421 6.085 0 2.055.47 19.3 1.087 34.832h6.4c2.012-15.419 4.06-32.783 4.06-34.832 0-3.36-2.742-6.084-6.126-6.084M336.465 74.454h6.277v-4.73h-6.277z"/>
                        <path fill="#6A89B9" d="M331.308 75.641s3.776-1.908 8.3-1.908v10.07l-5.97-2.091-2.33-6.07"/>
                        <path fill="#597EB2" d="M347.908 75.641s-3.774-1.908-8.3-1.908v10.07l5.972-2.091 2.328-6.07"/>
                        <path fill="#182335" d="M327.841 57.138c0-6.495 5.267-11.76 11.761-11.76 6.494 0 11.762 5.265 11.762 11.76s-5.268 11.76-11.762 11.76c-6.494 0-11.761-5.265-11.761-11.76"/>
                        <path fill="#6A89B9" d="M350.6 56.692c-.315-5.8-5.118-10.408-10.998-10.408-5.879 0-10.682 4.607-10.998 10.408h-.02v3.158h.017c.275 5.838 5.095 10.486 11.001 10.486 5.907 0 10.727-4.648 11.001-10.486h.014v-3.158h-.016"/>
                        <path fill="#182335" d="M335.603 59.077a.767.767 0 1 1-1.533 0 .767.767 0 0 1 1.533 0M345.133 59.077a.767.767 0 1 1-1.533 0 .767.767 0 0 1 1.533 0M339.63 66.816c-.895 0-1.935-.324-3.044-1.29a.351.351 0 0 1-.033-.499.352.352 0 0 1 .497-.034c2.808 2.443 4.984.128 5.075.028a.354.354 0 0 1 .524.475c-.02.02-1.227 1.32-3.02 1.32"/>
                        <path fill="#6A89B9" d="M339.056 114.185c0-3.36-2.034-6.084-5.418-6.084-3.384 0-6.126 2.724-6.126 6.084 0 2.05 2.047 19.414 4.06 34.832h6.4c.617-15.532 1.084-32.776 1.084-34.832M331.571 149.017c.568 4.337 1.131 8.519 1.647 12.164h4.213c.187-3.683.37-7.858.54-12.164h-6.4"/>
                        <path fill="#326AA5" d="M347.214 99.465l-7.612-2.702v18.614h11.83s1.732-7.117-4.218-15.912"/>
                        <path fill="#81AACF" d="M331.991 99.465s-5.91 5.39-4.15 15.912h11.761V96.763l-7.61 2.702"/>
                        <path fill="#E4EFF5" d="M331.991 99.465s-4.63 4.765-4.304 10.644h11.915V99.465h-7.61"/>
                        <path fill="#E4EFF5" d="M327.256 108.1l-.384 25.527h12.736v-25.316l-12.352-.21"/>
                        <path fill="#D1DEEA" d="M352.33 108.528l-12.722-.217v25.316h12.722v-25.1"/>
                        <path fill="#D1DEEA" d="M347.214 99.465s4.627 4.765 4.3 10.644h-11.912V99.465h7.612"/>
                        <path fill="#6A89B9" d="M331.308 75.641c-5.166 2.513-8.097 7.432-9.077 12.956l5.832.67c3.909-4.926 3.629-10.08 3.245-13.626"/>
                        <path fill="#597EB2" d="M347.897 75.641c-.387 3.546-.664 8.7 3.244 13.627l5.833-.671c-.98-5.524-3.911-10.443-9.077-12.956"/>
                        <path fill="#D1DEEA" d="M347.897 75.641a16.281 16.281 0 0 0-1.798-.742c-.491 3.145-6.497 5.552-6.497 5.552v19.014h7.612l3.927-10.197c-3.908-4.927-3.631-10.08-3.244-13.627"/>
                        <path fill="#E4EFF5" d="M333.103 74.899c-.626.216-1.224.464-1.795.742.387 3.546.664 8.586-3.245 13.513l3.928 10.31h7.611V80.452s-6.005-2.406-6.5-5.552"/>
                        <path fill="#6A89B9" d="M322.23 88.597v23.202a5.834 5.834 0 0 0 5.833 5.834V86.506l-5.832 2.09"/>
                        <path fill="#597EB2" d="M356.974 88.597v23.202a5.834 5.834 0 0 1-5.833 5.834V86.506l5.833 2.09"/>
                        <path fill="#E9834A" d="M334.772 74.328v25.506h-2.784l-3.925-10.566v12.11h-6.107V88.596s1.12-11.82 12.816-14.269"/>
                        <path fill="#E3672A" d="M344.444 74.328v25.506h2.783l3.925-10.566v12.11h6.11V88.596s-1.122-11.82-12.818-14.269"/>
                        <path fill="#597EB2" d="M349.42 161.874a5.067 5.067 0 0 0-2.558-.693h-5.097v2.084h5.69c.909 0 1.68-.581 1.965-1.391"/>
                        <path fill="#326AA5" d="M349.42 161.874a2.084 2.084 0 0 1-1.965 1.39h-5.69v3.014h10.194a5.09 5.09 0 0 0-2.539-4.404"/>
                        <path fill="#6A89B9" d="M331.76 163.265h5.693v-2.084h-5.097c-.936 0-1.806.255-2.56.693a2.087 2.087 0 0 0 1.964 1.39"/>
                        <path fill="#326AA5" d="M331.76 163.265a2.087 2.087 0 0 1-1.965-1.391 5.095 5.095 0 0 0-2.539 4.404h10.197v-3.013h-5.693"/>
                        <path fill="#182335" d="M350.068 70.558a.961.961 0 0 1-.955-.86c-.895-8.453-3.898-14.369-6.255-17.842-2.561-3.77-4.944-5.563-4.966-5.58a.96.96 0 1 1 1.142-1.546c.415.307 10.183 7.702 11.99 24.765a.96.96 0 0 1-.956 1.063"/>
                        <path fill="#182335" d="M351.644 66.89a.96.96 0 0 1-.936-.755c-2.951-13.428-9.464-19.146-9.53-19.202a.962.962 0 0 1 1.246-1.463c.285.244 7.062 6.139 10.161 20.253a.962.962 0 0 1-.941 1.167"/>
                        <path fill="#182335" d="M352.958 63.679a.963.963 0 0 1-.908-.644c-4.6-13.141-8.91-15.994-8.954-16.021a.961.961 0 0 1 1.03-1.624c.197.127 4.921 3.245 9.738 17.01a.96.96 0 0 1-.906 1.279M329.894 71.015a.96.96 0 0 1-.96-.94c-.382-17.154 8.363-25.734 8.733-26.09a.961.961 0 1 1 1.331 1.387c-.112.109-8.503 8.425-8.14 24.66a.964.964 0 0 1-.942.983h-.022"/>
                        <path fill="#182335" d="M327.863 67.578a.962.962 0 0 1-.958-1.046c1.276-14.394 7.243-21.104 7.496-21.382a.962.962 0 0 1 1.425 1.291c-.058.065-5.792 6.566-7.005 20.26a.962.962 0 0 1-.958.877"/>
                        <path fill="#182335" d="M326.153 64.56a.962.962 0 0 1-.941-1.16c3.024-14.268 7.309-17.962 7.49-18.112a.96.96 0 1 1 1.235 1.474c-.074.066-4.005 3.642-6.845 17.036a.961.961 0 0 1-.94.762M352.698 57.811a.961.961 0 0 1-.934-.733c-1.152-4.73-2.053-5.9-2.327-6.162a.962.962 0 0 1-.637-1.746c.13-.089.598-.36 1.252-.112.82.31 2.086 1.432 3.579 7.565a.96.96 0 0 1-.933 1.188"/>
                        <path fill="#182335" d="M326.246 58.636a.962.962 0 0 1-.936-1.189c1.842-7.558 3.558-8.958 4.21-9.21a.958.958 0 0 1 1.241.551.96.96 0 0 1-.45 1.198c-.137.11-1.54 1.372-3.132 7.916a.961.961 0 0 1-.933.734M352.333 51.282a.958.958 0 0 1-.766-.379c-5.218-6.856-12.28-5.427-12.577-5.364a.961.961 0 1 1-.414-1.878c.348-.075 8.539-1.781 14.52 6.078a.964.964 0 0 1-.182 1.347.97.97 0 0 1-.581.196M342.5 55.103a.963.963 0 0 1-.842-.497c-2.887-5.234-5.35-7.601-5.374-7.625a.961.961 0 0 1 1.323-1.394c.11.103 2.703 2.598 5.736 8.09a.961.961 0 0 1-.842 1.426"/>
                        <path fill="#182335" d="M339.333 54.345a.96.96 0 0 1-.82-.46c-.772-1.262-3.283-5.072-3.308-5.11a.962.962 0 0 1 1.606-1.059c.104.158 2.555 3.876 3.343 5.167a.961.961 0 0 1-.82 1.462"/>
                        <path fill="#6E6F7D" d="M201.214 67.803v12.254c0 6.977 5.656 12.633 12.633 12.633V67.803h-12.633"/>
                        <path fill="#6E6F7D" d="M226.48 67.803v12.254c0 6.977-5.656 12.633-12.633 12.633V67.803h12.633"/>
                        <path fill="#E8EEF3" d="M210.489 80.016h6.716v5.061l-3.359 4.893-3.357-4.893v-5.061"/>
                        <path fill="#8FA3C8" d="M201.263 66.55c0-6.95 5.634-12.583 12.583-12.583 6.95 0 12.585 5.633 12.585 12.582 0 6.95-5.635 12.583-12.585 12.583-6.95 0-12.583-5.633-12.583-12.583"/>
                        <path fill="#FFFFFE" d="M225.614 66.072c-.337-6.207-5.476-11.136-11.767-11.136-6.292 0-11.43 4.93-11.768 11.136h-.019v3.379h.015c.295 6.246 5.452 11.22 11.772 11.22s11.476-4.974 11.771-11.22h.015v-3.379h-.019"/>
                        <path fill="#182335" d="M210.275 68.623a.82.82 0 1 1-1.64.001.82.82 0 0 1 1.64 0M219.058 68.623a.82.82 0 1 1-1.64.001.82.82 0 0 1 1.64 0M210.867 75.239h5.959s-2.628 2.9-5.959 0"/>
                        <path fill="#F7CCA2" d="M224.465 95.118c0-5.864-4.754-10.617-10.618-10.617-5.864 0-10.618 4.753-10.618 10.617 0 .278.014.554.034.827h-.034v32.618h14.856l6.38-32.618h-.036c.022-.273.036-.549.036-.827"/>
                        <path fill="#FFFFFE" d="M256.466 142.695a199.642 199.642 0 0 0 4.056 6.563l3.818-1.784a201.133 201.133 0 0 0-2.412-7.259l-5.462 2.48"/>
                        <path fill="#2E84BA" d="M254.869 121.342c-1.706-3.37-4.994-4.133-6.547-4.304-10.82-.614-19.669-.97-20.888-.97a6.126 6.126 0 1 0 0 12.252c1.197 0 9.75-.344 20.301-.938 2.978 5.386 6.014 10.747 8.732 15.313l5.461-2.48c-1.997-5.695-4.522-12.37-7.06-18.873"/>
                        <path fill="#6EA0C9" d="M259.888 155.467a.883.883 0 0 0 .79-1.277l-10.086-20.252c-1.021-2.05-3.162-3.655-4.874-3.655h-43.355a.883.883 0 1 0 0 1.766h43.355c.927 0 2.506 1.1 3.291 2.677l10.087 20.251c.154.311.467.49.792.49"/>
                        <path fill="#6EA0C9" d="M205.9 149.7h26.298a4.426 4.426 0 0 0 4.422-4.421v-.38a2.656 2.656 0 0 1 2.653-2.654h3.94a.883.883 0 1 0 0-1.766h-3.94a4.426 4.426 0 0 0-4.421 4.42v.38a2.656 2.656 0 0 1-2.654 2.653H205.9a2.656 2.656 0 0 1-2.654-2.653v-9.365a.884.884 0 0 0-1.767 0v9.365a4.426 4.426 0 0 0 4.421 4.42"/>
                        <path fill="#6EA0C9" d="M202.363 136.797a.883.883 0 0 0 .883-.883V91.207a4.425 4.425 0 0 0-4.42-4.42h-9.367a.883.883 0 1 0 0 1.767h9.366a2.657 2.657 0 0 1 2.654 2.653v44.707c0 .488.396.883.884.883"/>
                        <path fill="#2E84BA" d="M189.46 89.084h6.75a1.413 1.413 0 0 0 0-2.828h-6.75a1.414 1.414 0 1 0 0 2.828"/>
                        <path fill="#326AA5" d="M202.363 128.563h40.849v-13.805h-40.85z"/>
                        <path fill="#95B5D5" d="M235.287 158.353a7.925 7.925 0 1 1 15.85.001 7.925 7.925 0 0 1-15.85 0"/>
                        <path fill="#326AA5" d="M238.633 158.353a4.578 4.578 0 1 1 9.157 0 4.578 4.578 0 0 1-9.157 0"/>
                        <path fill="#6EA0C9" d="M243.212 159.237a.883.883 0 0 0 .883-.883v-46.3a4.425 4.425 0 0 0-4.42-4.42h-33.776a4.426 4.426 0 0 0-4.42 4.42v16.51a.884.884 0 0 0 1.767 0v-16.51a2.656 2.656 0 0 1 2.653-2.653h33.776a2.657 2.657 0 0 1 2.654 2.653v46.3c0 .487.395.883.883.883"/>
                        <path fill="#326AA5" d="M202.363 108.056c-15.386 0-27.86 12.473-27.86 27.858s12.474 27.857 27.86 27.857 27.858-12.472 27.858-27.857-12.472-27.858-27.858-27.858m0 2.474c13.997 0 25.385 11.387 25.385 25.384 0 13.996-11.388 25.383-25.385 25.383-13.998 0-25.385-11.387-25.385-25.383 0-13.997 11.387-25.384 25.385-25.384"/>
                        <path fill="#6EA0C9" d="M202.363 105.55c-16.771 0-30.366 13.594-30.366 30.364 0 16.77 13.595 30.364 30.366 30.364 16.77 0 30.366-13.595 30.366-30.364 0-16.77-13.596-30.365-30.366-30.365m0 1.06c16.159 0 29.306 13.146 29.306 29.305 0 16.158-13.147 29.304-29.306 29.304-16.16 0-29.306-13.146-29.306-29.304 0-16.159 13.147-29.304 29.306-29.304"/>
                        <path fill="#E4EFF5" d="M202.363 110.189c-14.21 0-25.727 11.517-25.727 25.725 0 14.207 11.518 25.725 25.727 25.725 14.208 0 25.727-11.518 25.727-25.725 0-14.208-11.519-25.725-25.727-25.725m0 1.06c13.601 0 24.666 11.064 24.666 24.665 0 13.6-11.065 24.664-24.666 24.664-13.602 0-24.667-11.064-24.667-24.664 0-13.6 11.065-24.665 24.667-24.665"/>
                        <path fill="#95B5D5" d="M207.11 135.914a4.748 4.748 0 1 1-9.495 0 4.748 4.748 0 0 1 9.495 0"/>
                        <path fill="#E4EFF5" d="M202.363 133.093a2.821 2.821 0 1 0 0 5.643 2.821 2.821 0 0 0 0-5.643m0 1.06c.97 0 1.76.79 1.76 1.76 0 .971-.79 1.76-1.76 1.76-.971 0-1.761-.789-1.761-1.76 0-.97.79-1.76 1.76-1.76"/>
                        <path fill="#E4EFF5" d="M202.01 133.627h.706V110.19h-.707zM202.01 161.638h.706V138.2h-.707zM204.649 136.267h23.44v-.707h-23.44zM176.636 136.267h23.44v-.707h-23.44zM220.304 154.354l.5-.5-16.575-16.574-.5.5 16.575 16.574M200.496 134.547l.5-.5-16.575-16.573-.5.499 16.575 16.574M184.42 154.354l16.576-16.574-.5-.5-16.575 16.574.5.5M204.23 134.547l16.574-16.574-.5-.5-16.575 16.574.5.5M203.55 133.928l8.822-21.715-.655-.266-8.821 21.716.654.265M193.008 159.88l8.822-21.715-.655-.266-8.822 21.716.655.266M226.065 145.922l.266-.655-21.717-8.82-.266.654 21.717 8.821M200.112 135.38l.266-.654-21.717-8.82-.267.654 21.718 8.82M212.045 159.75l.652-.275-9.12-21.592-.651.274 9.12 21.592M201.148 133.945l.65-.275-9.118-21.593-.652.275 9.12 21.593M178.8 146.247l21.594-9.119-.276-.65-21.593 9.118.275.65M204.606 135.35l21.594-9.118-.275-.652-21.594 9.119.275.65"/>
                        <path fill="#326AA5" d="M269.535 152.294l-11.18 4.72-.928-2.199 11.178-4.72.93 2.2"/>
                        <path fill="#F7CCA2" d="M225.376 95.43c0 6.136-4.975 11.11-11.11 11.11-6.136 0-11.11-4.974-11.11-11.11 0-6.135 4.974-11.11 11.11-11.11 6.135 0 11.11 4.975 11.11 11.11"/>
                        <path fill="#FFFFFE" d="M237.634 107.638h-15.959c-.92 0-1.782-.447-2.311-1.198l-8.72-12.45a2.827 2.827 0 1 1 4.622-3.257l7.876 11.25h14.492v5.655M237.634 107.638h5.647a5.647 5.647 0 0 0-5.647-5.646v5.646M268.68 146.216a5.082 5.082 0 0 0-4.096-.077l-4.702 1.967 1.06 2.535 6.195-2.626a2.655 2.655 0 0 0 1.543-1.799"/>
                        <path fill="#E26329" d="M268.68 146.216a2.655 2.655 0 0 1-1.543 1.8l-6.195 2.625.907 2.167 4.702-1.966 4.703-1.966a5.075 5.075 0 0 0-2.574-2.66"/>
                        <path fill="#A8C1DB" d="M221.958 68.37l-.589 2.532a1.178 1.178 0 0 1-1.152.915h-3.363c-.586 0-1.09-.438-1.17-1.019l-.354-2.532a1.181 1.181 0 0 1 1.17-1.346h4.306c.363 0 .7.163.926.447.226.284.308.65.226 1.003m-9.595-.104l-.353 2.532a1.189 1.189 0 0 1-1.171 1.019h-3.363a1.177 1.177 0 0 1-1.151-.915l-.59-2.532c-.082-.353 0-.719.226-1.003.226-.284.563-.447.926-.447h4.305a1.183 1.183 0 0 1 1.171 1.346m10.194-2.14h-6.008c-.351 0-.705.075-1.01.248a1.99 1.99 0 0 0-.703.67h-1.979c-.17-.269-.405-.501-.702-.67a2.047 2.047 0 0 0-1.01-.249h-6.01a.54.54 0 0 0-.53.646l.357 1.78.588 2.532a1.978 1.978 0 0 0 1.926 1.528h3.363c.98 0 1.822-.732 1.958-1.703l.353-2.533c.013-.09.018-.182.018-.272h1.358c0 .09.005.182.017.272l.353 2.533a1.985 1.985 0 0 0 1.958 1.703h3.363c.92 0 1.718-.634 1.926-1.528l.59-2.533.354-1.779a.54.54 0 0 0-.53-.646"/>
                        <path fill="#6E6F7D" d="M208.215 55.882s1.972 9.44 15.199 13.508c0 0 1.28 10.445-4.83 11.994 0 0 8.621-.598 7.846-14.835-.775-14.237-16.361-13.687-18.215-10.667"/>
                        <path fill="#6E6F7D" d="M219.478 55.882s-12.85.4-15.198 13.508c0 0-1.28 10.445 4.83 11.994 0 0-8.622-.598-7.847-14.835.776-14.237 16.361-13.687 18.215-10.667"/>
                        <path fill="#F1AD7F" d="M339.602 96.625a.14.14 0 0 1-.137-.118l-3.137-22.308a.137.137 0 1 1 .272-.039l3.002 21.342 3.003-21.342a.14.14 0 0 1 .154-.117c.077.011.129.08.118.156l-3.137 22.308a.14.14 0 0 1-.138.118"/>
                        <path fill="#EB905B" d="M338.982 97.602c0-.342.62-1.496.62-1.496s.62 1.154.62 1.496a.62.62 0 1 1-1.24 0M352.33 130.445h-25.403a.413.413 0 0 1-.412-.413c0-.226.187-.411.412-.411h25.403c.228 0 .414.185.414.411a.414.414 0 0 1-.414.413M352.33 127.17h-25.403a.414.414 0 0 1-.412-.412c0-.227.187-.412.412-.412h25.403c.228 0 .414.185.414.412a.414.414 0 0 1-.414.412"/>
                    </g>
                </g>
            </g>
        </g>
    </g>
</svg>
