<svg xmlns="http://www.w3.org/2000/svg" xmlns:xlink="http://www.w3.org/1999/xlink" width="860" height="384" viewBox="0 0 860 384">
    <defs>
        <path id="a" d="M0 0h860v384H0z"/>
        <path id="c" d="M.03 0h436.892v386.97H.03z"/>
        <path id="d" d="M374 308h122v76H374z"/>
    </defs>
    <g fill="none" fill-rule="evenodd">
        <mask id="b" fill="#fff">
            <use xlink:href="#a"/>
        </mask>
        <use fill="#F0F0F0" fill-rule="nonzero" xlink:href="#a"/>
        <g mask="url(#b)">
            <g transform="translate(-.5)">
                <path fill="#2E84BA" d="M.93 384h859.71V0H.93z"/>
                <path fill="#659AC6" d="M.93 384h859.71V163H.93z"/>
                <path fill="#326AA5" d="M610.553 336H262.447a3.95 3.95 0 0 0-3.947 3.952v18.024a3.95 3.95 0 0 0 3.947 3.952h6.266V393h335.574v-31.072h6.266a3.95 3.95 0 0 0 3.947-3.952v-18.024a3.95 3.95 0 0 0-3.947-3.952"/>
                <path fill="#597EB2" d="M467.679 299H435.5v93h26.863c21.545 0 22.854-14.657 22.854-14.657h.29s7.327-41.326-17.828-78.343"/>
                <path fill="#81AACF" d="M404.383 299s-24.924 34.058-17.503 78.343c0 0 1.306 14.657 22.808 14.657H436.5v-93h-32.117"/>
                <path fill="#D1DEEA" d="M510.5 236.531c-6.051-33.955-29.485-62.531-74-62.531v178h50.75c1.39-24.969-18.324-52.937-18.324-52.937l16.723-48.904v32.182H510.5v-45.81z"/>
                <path fill="#E4EFF4" d="M436.5 299.68V174c-44.516 0-67.949 29.066-74 63.603V284.2h24.85v-32.735l16.724 49.743S384.36 326.603 385.751 352H436.5v-52.32"/>
                <path fill="#F5F4F3" d="M462.5 282c0 13.255 10.745 24 24 24s24-10.745 24-24h-48"/>
                <path fill="#FFFFFE" d="M361.762 284.048c0 13.087 10.685 23.697 23.864 23.697 13.18 0 23.865-10.61 23.865-23.697h-47.729"/>
                <path fill="#E9834A" d="M384.332 228c-3.773 0-6.832 3.074-6.832 6.867v70.267c0 3.792 3.059 6.866 6.832 6.866H436.5v-84h-52.168"/>
                <mask id="e" fill="#fff">
                    <use xlink:href="#d"/>
                </mask>
                <path fill="#597EB2" d="M468.363 315c-17.657 0-28.419 13.926-28.851 31.32l-3.012 6.143 3.22 1.782c.917 16.326 4.479 48.331 8.435 126.085h22.45c12.495-88.434 23.08-118.94 23.08-132.921 0-17.9-7.297-32.409-25.322-32.409" mask="url(#e)"/>
                <path fill="#81AACF" d="M436.97 352.463l-2.827-5.722C433.876 329.152 423.085 315 405.285 315c-18.025 0-26.785 14.51-26.785 32.409 0 13.981 12.048 44.487 24.542 132.921h22.451c3.888-76.412 7.395-108.639 8.385-125.224l3.093-2.643" mask="url(#e)"/>
                <path fill="#E3672A" d="M488.671 228H436.5v84h52.171c3.771 0 6.829-3.074 6.829-6.866v-70.267c0-3.793-3.058-6.867-6.829-6.867"/>
                <path fill="#F7CCA9" d="M436.5 255.99c-8.293 0-15.04 6.958-15.04 15.51s6.747 15.51 15.04 15.51 15.04-6.958 15.04-15.51-6.747-15.51-15.04-15.51m0 32.01c-8.823 0-16-7.401-16-16.5s7.177-16.5 16-16.5 16 7.401 16 16.5-7.177 16.5-16 16.5"/>
                <path fill="#326AA5" d="M386.503 103v30.74S385.413 177 422.875 177h15.7l.925-47.195L386.503 103"/>
                <path fill="#182335" d="M386.5 103c0-27.614 22.386-50 50-50s50 22.386 50 50-22.386 50-50 50-50-22.386-50-50"/>
                <path fill="#F5F4F3" d="M452.169 174.22V157h-31.34v17.22c-.215.887-.329 1.804-.329 2.744 0 7.467 16 25.036 16 25.036s16-17.57 16-25.036c0-.94-.115-1.857-.331-2.743"/>
                <path fill="#182335" d="M485.5 103v111s-36-.532-36-37.592v-22.422l36-50.986M386.5 103v111s36-.532 36-37.592v-22.422L386.5 103"/>
                <path fill="#FFFFFE" d="M482.427 101.707C481.097 77.347 460.821 58 436 58c-24.821 0-45.096 19.347-46.427 43.707h-.073v13.261h.056C390.724 139.481 411.07 159 436 159c24.932 0 45.277-19.519 46.444-44.032h.056v-13.26h-.073"/>
                <path fill="#182335" d="M421.5 112a3 3 0 1 1-6 0 3 3 0 0 1 6 0M457.5 112a3 3 0 1 1-6 0 3 3 0 0 1 6 0"/>
                <path fill="#E3672A" d="M437.118 144c-3.848 0-8.32-1.354-13.096-5.404a1.453 1.453 0 0 1-.147-2.088 1.55 1.55 0 0 1 2.145-.144c12.073 10.235 21.443.536 21.836.118a1.554 1.554 0 0 1 2.147-.095c.62.55.667 1.481.104 2.087-.077.083-5.277 5.526-12.989 5.526"/>
                <path fill="#182335" d="M390.178 131s13.514-9.081 21.637-55.906c0 0 61.241 29.373 71.02 40.168 0 0 10.5-27.864-21.24-53.546 0 0-23.661-15.111-52.545 0C380.167 76.828 390.178 131 390.178 131"/>
                <path fill="#E9834A" d="M407.854 104.185c-1.48 0-2.858.653-3.78 1.792a4.65 4.65 0 0 0-.921 4.021l2.405 10.152c.511 2.159 2.444 3.665 4.701 3.665h13.728c2.395 0 4.45-1.756 4.781-4.084l1.442-10.151a4.678 4.678 0 0 0-1.139-3.767 4.862 4.862 0 0 0-3.64-1.628h-17.577zM423.987 127H410.26c-3.752 0-7.01-2.54-7.86-6.129l-2.405-10.15-1.45-7.13c-.273-1.34.77-2.591 2.163-2.591h24.526c1.436 0 2.877.3 4.127.996 3 1.67 4.51 4.87 4.062 8.024l-1.442 10.151c-.554 3.894-3.99 6.829-7.993 6.829zM446.57 104.185a4.864 4.864 0 0 0-3.642 1.628 4.678 4.678 0 0 0-1.138 3.767l1.442 10.15c.33 2.33 2.386 4.085 4.78 4.085h13.729c2.257 0 4.19-1.506 4.701-3.665l2.405-10.152a4.65 4.65 0 0 0-.921-4.02 4.835 4.835 0 0 0-3.78-1.793H446.57zm-6.55 15.986l-1.442-10.15c-.449-3.156 1.063-6.356 4.062-8.025 1.25-.696 2.69-.996 4.128-.996h24.526c1.39 0 2.435 1.25 2.163 2.59l-1.451 7.13-2.405 10.151c-.851 3.59-4.108 6.129-7.86 6.129h-13.729c-4.003 0-7.438-2.935-7.992-6.829z"/>
                <path fill="#E9834A" d="M432.5 109h9v-4h-9z"/>
            </g>
        </g>
    </g>
</svg>
