<svg xmlns="http://www.w3.org/2000/svg" xmlns:xlink="http://www.w3.org/1999/xlink" width="1186" height="442" viewBox="0 0 1186 442">
    <defs>
        <path id="a" d="M0 0h1186v442H0z"/>
        <path id="c" d="M.244.413h178.399V170.95H.243z"/>
        <path id="e" d="M.402.71h120.963v226.241H.402z"/>
        <path id="g" d="M.567.293h83.69v122.658H.568z"/>
    </defs>
    <g fill="none" fill-rule="evenodd">
        <mask id="b" fill="#fff">
            <use xlink:href="#a"/>
        </mask>
        <use fill="#0091DA" fill-rule="nonzero" xlink:href="#a"/>
        <g mask="url(#b)">
            <path fill="#B2C8DE" d="M218.528 244.609c-4.248 0-8.281.899-11.922 2.496.264-2.162.404-4.36.404-6.589C207.01 210.96 182.827 187 153 187v116h65.528C234.803 303 248 289.935 248 273.808c0-16.13-13.197-29.199-29.472-29.199"/>
            <path fill="#C6D7E5" d="M154 187c-29.917 0-54.177 23.958-54.177 53.516 0 3.054.263 6.047.761 8.96a30.495 30.495 0 0 0-18.883-6.507c-16.778 0-30.382 13.433-30.382 30.022 0 4.76 1.128 9.257 3.127 13.26H-81.21c-9.277 0-16.791 7.43-16.791 16.585V303h252V187"/>
            <path fill="#B2C8DE" d="M716.032 74.577c-3.275 0-6.384.696-9.191 1.932a42.41 42.41 0 0 0 .31-5.098C707.151 48.538 688.507 30 665.51 30v89.76h50.522c12.548 0 22.722-10.108 22.722-22.588 0-12.482-10.174-22.595-22.722-22.595"/>
            <path fill="#C6D7E5" d="M665.51 30c-22.999 0-41.647 18.538-41.647 41.411 0 2.363.202 4.678.585 6.934a23.343 23.343 0 0 0-14.516-5.036c-12.897 0-23.355 10.395-23.355 23.23 0 3.685.867 7.164 2.404 10.26h-54.074c-7.132 0-12.907 5.75-12.907 12.835v.126h143.51V30"/>
            <path fill="#B2C8DE" d="M28.35 105.321c-1.968 0-3.836.41-5.522 1.14.122-.987.187-1.992.187-3.01C23.015 89.947 11.815 79-2 79v53h30.35c7.539 0 13.65-5.97 13.65-13.338 0-7.37-6.111-13.34-13.65-13.34"/>
        </g>
        <g mask="url(#b)">
            <path fill="#182335" d="M429.772 133s-10.99 102.432 21.767 112c0 0 18.176-4.713 32.757-4.713l.704-80.838L429.772 133"/>
            <path fill="#182335" d="M539.227 133s10.992 102.432-21.765 112c0 0-18.178-4.713-32.758-4.713L484 159.449 539.227 133"/>
            <g transform="translate(395 271)">
                <mask id="d" fill="#fff">
                    <use xlink:href="#c"/>
                </mask>
                <path fill="#FFFFFE" d="M178.643 51.326V38.701l-27.665-20.916v61.104h3.05c7.185-.384 24.615-3.759 24.615-27.563" mask="url(#d)"/>
                <path fill="#6A89B9" d="M84.018 387.975c10.176-72.255 6.129-238.595 6.129-250.019 0-14.623-11.9-26.48-26.58-26.48-14.678 0-26.577 11.857-26.577 26.48 0 11.424 18.57 177.764 28.746 250.019h18.282" mask="url(#d)"/>
                <path fill="#7290BC" d="M117.145 387.975c10.175-72.255 24.752-238.595 24.752-250.019 0-14.623-11.9-26.48-26.578-26.48-14.678 0-26.578 11.857-26.578 26.48 0 11.424-.054 177.764 10.12 250.019h18.284" mask="url(#d)"/>
                <path fill="#FFFFFE" d="M7.76 15.647a40.031 40.031 0 0 1-1.12 5.635c-.04.15-.077.327-.108.508 1.907 5.51.173 11.255-5.044 14.604a9.308 9.308 0 0 1-1.244.66v106.52c0 15.223 12.387 27.564 27.665 27.564V.413L7.761 15.647" mask="url(#d)"/>
            </g>
            <path fill="#A3B2D0" d="M395 308.81l31.848 8.656L446.96 361H485V215c-52.224 0-90 42-90 93.81"/>
            <path fill="#B7C3D9" d="M485 215v146h38.318l19.188-43.15L574 308.81C574 257 536.642 215 485 215"/>
            <path fill="#EEEDEC" d="M470 217h29v-22h-29z"/>
            <path fill="#182335" d="M430 136.5c0-30.1 24.4-54.5 54.5-54.5s54.5 24.4 54.5 54.5-24.4 54.5-54.5 54.5-54.5-24.4-54.5-54.5"/>
            <path fill="#FFFFFE" d="M534.92 134.467C533.46 107.454 511.222 86 484 86c-27.223 0-49.46 21.454-50.92 48.467H433v14.705h.062C434.342 176.355 456.656 198 484 198s49.657-21.645 50.938-48.828H535v-14.705h-.08"/>
            <path fill="#9AC" d="M520 148c0 7.18-5.82 13-13 13s-13-5.82-13-13c0-7.179 5.82-13 13-13s13 5.821 13 13"/>
            <path fill="#326AA5" d="M506.5 137.014c-6.333 0-11.487 5.153-11.487 11.487 0 6.334 5.154 11.486 11.487 11.486s11.486-5.152 11.486-11.486c0-6.334-5.153-11.487-11.486-11.487m0 25.986c-7.996 0-14.5-6.505-14.5-14.5 0-7.994 6.504-14.5 14.5-14.5 7.995 0 14.5 6.506 14.5 14.5 0 7.995-6.505 14.5-14.5 14.5"/>
            <path fill="#9AC" d="M475 148c0 7.18-5.82 13-13 13s-13-5.82-13-13c0-7.179 5.82-13 13-13s13 5.821 13 13"/>
            <path fill="#326AA5" d="M462.5 137.014c-6.334 0-11.486 5.153-11.486 11.487 0 6.334 5.152 11.486 11.486 11.486 6.333 0 11.486-5.152 11.486-11.486 0-6.334-5.153-11.487-11.486-11.487m0 25.986c-7.995 0-14.5-6.505-14.5-14.5 0-7.994 6.505-14.5 14.5-14.5s14.5 6.506 14.5 14.5c0 7.995-6.505 14.5-14.5 14.5"/>
            <path fill="#326AA5" d="M494 154h-1.974c0-4.368-3.376-7.922-7.526-7.922s-7.526 3.554-7.526 7.922H475c0-5.513 4.261-10 9.5-10s9.5 4.487 9.5 10M459 146c0-2.209 1.567-4 3.5-4 1.932 0 3.5 1.791 3.5 4M503 146c0-2.209 1.567-4 3.5-4 1.932 0 3.5 1.791 3.5 4"/>
            <path fill="#E3672A" d="M471 174h26s-11.469 13.5-26 0"/>
            <g transform="translate(418 215)">
                <mask id="f" fill="#fff">
                    <use xlink:href="#e"/>
                </mask>
                <path fill="#EEEDEC" d="M12.106 18.957S32.39.71 66.675.71c34.285 0 54.69 18.724 54.69 18.724l-54.69 14.571-54.57-15.048" mask="url(#f)"/>
                <path fill="#A3B2D0" d="M28.506 145s-58.513 43.358-7.875 181.712h46.347V145H28.506" mask="url(#f)"/>
            </g>
            <path fill="#FFFFFE" d="M494.394 354h-20.788L468 314h32l-5.606 40"/>
            <g transform="translate(468 319)">
                <mask id="h" fill="#fff">
                    <use xlink:href="#g"/>
                </mask>
                <path fill="#E4EFF5" d="M28.21 31.11H5.186L.567.294H32.83l-4.62 30.818" mask="url(#h)"/>
                <path fill="#B7C3D9" d="M55.401 41s58.407 43.253 7.862 181.272H17V41h38.401" mask="url(#h)"/>
            </g>
            <path fill="#FFFFFE" d="M574 322H464c0 15.465 12.383 28 27.658 28h57.734c7.183-.39 24.608-3.818 24.608-28"/>
            <path fill="#182335" d="M456 95s.111 37.232-23.505 54c0 0-5.965-39.8 23.505-54"/>
            <path fill="#326AA5" d="M500.695 307h-32.39L465 314h39l-3.305-7"/>
            <path fill="#EEEDEC" d="M480 259.603c0-2.428 4.5-10.603 4.5-10.603s4.5 8.175 4.5 10.603c0 2.428-2.015 4.397-4.5 4.397-2.486 0-4.5-1.97-4.5-4.397"/>
            <path fill="#182335" d="M456 94.861s24.347 47.056 82.948 47.139c0 0 3.845-49.206-54.432-60 0 0-26.027 4.334-28.516 12.861"/>
        </g>
        <path fill="#2979B2" d="M1186 519H744.605V145.764c-16.298 0-29.51-12.502-29.605-27.958v-.168l29.605-46.965V0H1186v129.288c-4.66 9.72-14.968 16.476-26.943 16.476-16.353 0-29.602-12.592-29.602-28.125 0 15.533-13.247 28.125-29.605 28.125v156.6H1186V519M995.492 325c-8 0-14.492 6.266-14.492 14.002 0 7.732 6.491 13.998 14.492 13.998 8.016 0 14.508-6.266 14.508-13.998 0-7.736-6.492-14.002-14.508-14.002m-162.33-207c0 1.024-.052 2.028-.162 3.016V302h178V121.026a27.627 27.627 0 0 1-.185-3.026c0 15.513-13.251 28.089-29.606 28.089-16.355 0-29.606-12.576-29.606-28.089 0 15.513-13.25 28.089-29.605 28.089-16.351 0-29.606-12.576-29.606-28.089 0 15.513-13.26 28.089-29.614 28.089-16.355 0-29.615-12.576-29.615-28.089" mask="url(#b)"/>
    </g>
</svg>
