<svg xmlns="http://www.w3.org/2000/svg" width="638" height="93" viewBox="0 0 638 93">
    <defs>
        <linearGradient id="a" x1="27.41%" x2="66.805%" y1="85.262%" y2="2.797%">
            <stop offset="0%" stop-color="#0072BC"/>
            <stop offset="50%" stop-color="#238FCF"/>
            <stop offset="100%" stop-color="#00BED3"/>
        </linearGradient>
    </defs>
    <g fill="none" fill-rule="evenodd">
        <path fill="url(#a)" d="M75.353 31.095C75.353 13 61.257 0 41.777 0 17.941 0 0 18.606 0 42.82c0 25.487 19.48 46.642 45.11 48.936v-32.37c-11.79-1.019-19.992-9.94-19.992-21.41 0-11.214 7.689-19.37 17.941-19.37 9.483 0 15.89 5.862 15.89 14.783 0 7.646-4.869 12.744-13.84 14.273v11.98c18.454-.765 30.244-11.98 30.244-28.547z" transform="translate(0 .83)"/>
        <path fill="#790008" d="M488.421 66.242h41.121V24.977h-41.12z"/>
        <path fill="#FFF" fill-rule="nonzero" d="M515.832 32.772h-21.857l9.674 12.838h21.86z"/>
        <path fill="#EC1D24" d="M525.51 45.61h-21.86l-9.674 12.834h21.857z"/>
        <path fill="#790008" d="M560.634 52.615a8.774 8.774 0 0 1-5.535 1.94c-4.905 0-8.735-3.931-8.735-8.948 0-5.018 3.83-8.948 8.735-8.948a8.78 8.78 0 0 1 5.532 1.942l.082.06 3.792-3.8-.095-.08a14.187 14.187 0 0 0-9.311-3.49c-7.95 0-14.422 6.424-14.422 14.316 0 7.894 6.472 14.315 14.422 14.315 3.416 0 6.723-1.236 9.314-3.488l.092-.081-3.792-3.8-.079.062zm9.014 6.511h5.446V32.084h-5.446v27.042zm26.94-9.763c-.2-.353-9.509-17.33-9.509-17.33h-5.319v27.042h5.438V42.92l9.39 16.372s8.951-15.663 9.352-16.37v16.153h5.44V32.032h-5.318l-9.474 17.331zm31.94 4.868h-5.332V47.87h5.332c2.487 0 3.375 1.633 3.375 3.162 0 1.546-.888 3.2-3.375 3.2zm-5.332-17.246h4.996c2.09 0 3.335 1.11 3.335 2.98 0 1.855-1.245 2.971-3.335 2.971h-4.996v-5.951zm10.613 8.285c1.199-.663 3.164-2.516 3.164-5.534 0-4.718-3.207-7.652-8.375-7.652h-10.84v27.042h11.295c5.113 0 8.294-2.999 8.294-7.834 0-3.629-2.13-5.31-3.538-6.022z"/>
        <path fill="#4E4F53" fill-rule="nonzero" d="M336.842 53.708V40.111h1.7v13.597h-1.7zm5.414 0v-9.833h1.327l.208 1.8c.684-1.295 2.032-2.043 3.63-2.043 2.24 0 3.836 1.497 3.836 3.662v6.414h-1.659v-6.171c0-1.497-1.1-2.55-2.655-2.55-1.742 0-3.049 1.295-3.049 3.177v5.544h-1.638zm16.344-2.711c0-2.064 1.742-3.258 4.605-3.258.705 0 1.472.081 2.26.284V47.01c0-1.255-.995-2.145-2.468-2.145-1.078 0-2.178.243-3.34.728l-.456-1.173c1.41-.526 2.697-.79 3.983-.79 2.281 0 3.858 1.377 3.858 3.42v4.755c0 .547.332.89.912.89.166 0 .415-.04.54-.06l.124 1.214a6.09 6.09 0 0 1-1.078.101c-1.1 0-1.805-.627-1.93-1.639-.808 1.032-2.115 1.64-3.505 1.64-1.99 0-3.505-1.276-3.505-2.955zm1.618-.101c0 1.072.975 1.882 2.281 1.882 1.743 0 2.966-1.214 2.966-2.955v-.83a9.207 9.207 0 0 0-2.074-.242c-1.99 0-3.173.81-3.173 2.145zm11.636-11.433v11.98c0 .728.477 1.193 1.224 1.193.29 0 .643-.06.995-.142l.208 1.275c-.56.122-1.1.182-1.556.182-1.556 0-2.51-.91-2.51-2.367v-12.12h1.639zm5.662 0v11.98c0 .728.477 1.193 1.224 1.193.29 0 .643-.06.996-.142l.207 1.275c-.56.122-1.1.182-1.556.182-1.555 0-2.51-.91-2.51-2.367v-12.12h1.64zm4.273 14.245v-9.833h1.639v9.833h-1.639zm-.29-12.828c0-.627.456-1.073 1.12-1.073.643 0 1.099.446 1.099 1.073s-.456 1.072-1.1 1.072c-.663 0-1.12-.445-1.12-1.072zm4.48 10.117c0-2.064 1.742-3.258 4.604-3.258.706 0 1.473.081 2.261.284V47.01c0-1.255-.995-2.145-2.468-2.145-1.079 0-2.178.243-3.34.728l-.456-1.173c1.41-.526 2.697-.79 3.983-.79 2.281 0 3.858 1.377 3.858 3.42v4.755c0 .547.331.89.912.89.166 0 .415-.04.54-.06l.124 1.214a6.09 6.09 0 0 1-1.079.101c-1.099 0-1.804-.627-1.929-1.639-.809 1.032-2.115 1.64-3.505 1.64-1.991 0-3.505-1.276-3.505-2.955zm1.618-.101c0 1.072.974 1.882 2.281 1.882 1.742 0 2.966-1.214 2.966-2.955v-.83a9.207 9.207 0 0 0-2.074-.242c-1.991 0-3.173.81-3.173 2.145zm10.246 2.812v-9.833h1.327l.208 1.8c.684-1.295 2.032-2.043 3.63-2.043 2.24 0 3.837 1.497 3.837 3.662v6.414h-1.66v-6.171c0-1.497-1.099-2.55-2.655-2.55-1.742 0-3.049 1.295-3.049 3.177v5.544h-1.638zm11.366-4.917c0-3.014 2.116-5.16 5.082-5.16 1.224 0 2.427.365 3.567 1.114l-.684 1.112c-.871-.586-1.742-.89-2.676-.89-2.115 0-3.588 1.558-3.588 3.824 0 2.267 1.473 3.845 3.588 3.845.934 0 1.805-.324 2.676-.91l.684 1.112c-1.14.749-2.343 1.113-3.567 1.113-2.966 0-5.082-2.124-5.082-5.16zm9.956 0c0-3.035 2.033-5.16 4.916-5.16 2.696 0 4.563 2.044 4.563 4.978 0 .203 0 .385-.02.587h-7.8c.146 2.084 1.64 3.52 3.755 3.52.912 0 1.97-.262 3.049-.829l.518 1.113c-1.327.648-2.613.951-3.733.951-3.07 0-5.248-2.124-5.248-5.16zm4.916-3.925c-1.805 0-3.09 1.315-3.257 3.298h6.223c-.062-1.942-1.265-3.298-2.966-3.298zm25.408-.991l-3.318 9.833h-1.618l-2.468-7.931-2.49 7.931h-1.617l-3.298-9.833h1.66l2.488 7.931 2.468-7.931h1.556l2.489 7.931 2.468-7.931h1.68zm2.261 9.833v-9.833h1.639v9.833h-1.639zm-.29-12.828c0-.627.456-1.073 1.12-1.073.643 0 1.099.446 1.099 1.073s-.456 1.072-1.1 1.072c-.663 0-1.12-.445-1.12-1.072zm7.84.08v2.915h3.173v1.274H459.3v5.787c0 1.012.705 1.7 1.742 1.7.436 0 .913-.081 1.431-.202l.229 1.254a7.98 7.98 0 0 1-2.012.263c-1.805 0-3.029-1.173-3.029-2.873v-5.929h-2.094v-1.274h2.094V40.96h1.639zm5.683 12.748V39.463h1.639v6.131c.684-1.234 1.99-1.962 3.526-1.962 2.24 0 3.837 1.497 3.837 3.662v6.414h-1.66v-6.171c0-1.497-1.099-2.55-2.654-2.55-1.743 0-3.05 1.295-3.05 3.177v5.544h-1.638z"/>
        <g fill="#4E4F53">
            <path fill-rule="nonzero" d="M256.71 28.869c-3.967 0-7.706 1.633-9.973 4.573l-.566-3.81h-5.213v42.03h6.346V57.29c1.926 1.742 5.552 2.94 8.612 2.94 8.612 0 14.391-6.642 14.391-16.333-.113-8.93-5.552-15.027-13.598-15.027zm-1.927 25.915c-2.833 0-5.893-1.306-7.48-3.157v-9.038c0-5.009 3.174-8.276 8.046-8.276 5.1 0 8.386 3.703 8.386 9.583 0 6.968-3.286 10.888-8.952 10.888zM89 18.742v40.834h6.572V45.093h8.726c8.952 0 15.071-5.335 15.071-13.175 0-7.84-6.006-13.176-15.071-13.176H89zm6.572 5.336h7.82c5.892 0 9.405 2.83 9.405 7.84 0 5.009-3.513 7.84-9.406 7.84h-7.819v-15.68zm42.608 5.118c-3.627 0-6.913 1.633-8.726 4.355l-.566-3.811h-5.213v29.944h6.346V43.57c0-5.771 2.833-8.929 8.159-8.929.906 0 2.153.218 3.512.436l.794-5.227c-1.36-.436-2.72-.653-4.306-.653zm12.351-3.812c2.267 0 3.966-1.633 3.966-3.81 0-2.178-1.7-3.812-3.966-3.812s-4.08 1.634-4.08 3.811c0 2.178 1.814 3.811 4.08 3.811zm3.06 34.192V29.63h-6.233v29.945h6.233zm24.023-30.707c-4.08 0-7.706 1.742-9.972 4.573l-.567-3.81h-5.212v29.944h6.346v-16.77c0-5.008 3.286-8.493 8.045-8.493 4.193 0 6.912 2.614 6.912 6.643v18.62h6.346V40.193c-.113-6.75-4.872-11.324-11.898-11.324zm32.749 5.444c2.606 0 5.552 1.09 7.932 2.831l2.833-4.464c-2.833-2.396-7.026-3.811-10.992-3.811-9.065 0-15.751 6.533-15.751 15.68 0 9.473 6.119 15.68 15.411 15.68 4.42 0 8.839-1.525 11.445-3.811l-2.833-4.356c-2.266 1.851-4.873 2.722-7.705 2.722-6.006 0-9.86-3.92-9.86-10.235-.112-6.098 3.74-10.236 9.52-10.236zm107.084 20.798c-2.153 0-2.946-.871-2.946-3.158V17h-6.346v35.824c0 4.792 2.833 7.514 8.046 7.514 1.246 0 2.72-.218 3.626-.654l-.68-4.79c-.453 0-1.247.217-1.7.217zm-87.594-29.727c2.266 0 3.966-1.633 3.966-3.81 0-2.178-1.7-3.812-3.966-3.812s-4.08 1.634-4.08 3.811c0 2.178 1.814 3.811 4.08 3.811zm3.06 34.192V29.63h-6.233v29.945h6.233zm60.85-17.967c-1.925-.545-4.532-.762-6.798-.762-8.272 0-13.145 3.81-13.145 10.126 0 5.554 4.646 9.256 11.332 9.256 3.966 0 7.139-1.525 9.405-4.029.907 2.613 3.173 4.029 6.346 4.029 1.246 0 2.72-.218 3.626-.653l-.68-4.683c-.566.11-1.133.218-1.7.218-1.586 0-2.153-.762-2.153-2.178V39.976c0-6.86-4.759-11.107-12.578-11.107-3.853 0-8.159.98-11.898 2.722l1.926 4.791c2.72-1.524 5.893-2.395 8.952-2.395 4.873 0 7.48 2.069 7.48 6.206v1.416h-.114zm0 6.098c0 4.79-2.945 7.622-7.818 7.622-3.626 0-5.78-1.851-5.78-4.791 0-3.376 2.834-5.336 7.593-5.336 2.266 0 4.08.218 6.006.654v1.85z"/>
            <path d="M319.024 19.38c0-.82.604-1.38 1.476-1.38.433 0 .877.115 1.358.338l-.178.71c-.403-.193-.783-.294-1.12-.294-.463 0-.76.245-.76.625 0 1.035 2.2.36 2.2 2.213 0 .84-.61 1.408-1.5 1.408-.457 0-.96-.122-1.5-.395l.178-.711c.462.215.901.352 1.263.352.486 0 .788-.252.788-.654 0-1.063-2.205-.402-2.205-2.213zM323 23v-5h.74l1.263 2.247L326.26 18h.74v5h-.706v-3.646l-1.079 1.927h-.424l-1.085-1.927V23H323z"/>
        </g>
    </g>
</svg>
