<svg xmlns="http://www.w3.org/2000/svg" width="142" height="147" viewBox="0 0 142 147">
    <defs>
        <linearGradient id="a" x1="27.758%" x2="66.822%" y1="85.181%" y2="2.641%">
            <stop offset="0%" stop-color="#0072BC"/>
            <stop offset="50%" stop-color="#238FCF"/>
            <stop offset="100%" stop-color="#00BED3"/>
        </linearGradient>
    </defs>
    <g fill="none" fill-rule="evenodd">
        <path fill="url(#a)" d="M110.991 35.442C110.991 15.012 94.952 0 73.087 0 46.115 0 25.756 21.017 25.756 48.562c0 28.85 22.192 52.935 50.997 55.611V67.491c-13.551-1.24-22.782-11.162-22.782-24.347 0-12.728 8.576-21.996 20.36-21.996 10.801 0 18.134 6.723 18.134 16.644 0 8.812-5.63 14.556-15.712 16.122v13.577c20.752-.522 34.238-13.12 34.238-32.049z"/>
        <path fill="#4E4F53" fill-rule="nonzero" d="M99.643 120.801c-2.356 0-4.578.98-5.925 2.744l-.336-2.286h-3.097v25.218h3.77v-8.624c1.145 1.046 3.3 1.764 5.117 1.764 5.117 0 8.55-3.985 8.55-9.8-.067-5.357-3.299-9.016-8.079-9.016zm-1.144 15.55c-1.684 0-3.501-.784-4.444-1.895v-5.423c0-3.005 1.885-4.965 4.78-4.965 3.03 0 4.982 2.221 4.982 5.75 0 4.18-1.952 6.533-5.318 6.533zM0 114.725v24.5h3.905v-8.689h5.184c5.319 0 8.954-3.201 8.954-7.905 0-4.704-3.568-7.906-8.954-7.906H0zm3.905 3.202H8.55c3.501 0 5.589 1.698 5.589 4.704 0 3.005-2.088 4.704-5.589 4.704H3.905v-9.408zm25.315 3.07c-2.155 0-4.107.98-5.184 2.614l-.337-2.287h-3.097v17.967h3.77v-9.67c0-3.462 1.683-5.357 4.848-5.357.538 0 1.279.13 2.087.261l.471-3.136a8.058 8.058 0 0 0-2.558-.392zm7.338-2.286c1.347 0 2.357-.98 2.357-2.287s-1.01-2.287-2.357-2.287c-1.346 0-2.423.98-2.423 2.287s1.077 2.287 2.423 2.287zm1.818 20.514V121.26h-3.703v17.966h3.703zm14.273-18.424c-2.423 0-4.578 1.046-5.924 2.744l-.337-2.286H43.29v17.966h3.77v-10.061c0-3.005 1.953-5.096 4.78-5.096 2.491 0 4.107 1.568 4.107 3.985v11.172h3.77v-11.629c-.067-4.05-2.894-6.795-7.069-6.795zm19.458 3.267c1.548 0 3.299.653 4.712 1.699l1.684-2.679c-1.684-1.437-4.175-2.287-6.531-2.287-5.386 0-9.358 3.92-9.358 9.408 0 5.684 3.635 9.408 9.156 9.408 2.626 0 5.251-.914 6.8-2.286l-1.683-2.614c-1.347 1.111-2.895 1.634-4.578 1.634-3.569 0-5.858-2.352-5.858-6.142-.067-3.658 2.222-6.141 5.656-6.141zm63.623 12.479c-1.28 0-1.75-.523-1.75-1.895V113.68h-3.77v21.495c0 2.874 1.683 4.508 4.78 4.508.74 0 1.615-.131 2.154-.392l-.404-2.875c-.27 0-.74.13-1.01.13zM83.687 118.71c1.346 0 2.356-.98 2.356-2.287s-1.01-2.287-2.356-2.287c-1.347 0-2.424.98-2.424 2.287s1.077 2.287 2.424 2.287zm1.818 20.514V121.26h-3.703v17.966h3.703zm36.154-10.78c-1.145-.326-2.693-.457-4.04-.457-4.915 0-7.81 2.287-7.81 6.076 0 3.332 2.76 5.553 6.733 5.553 2.357 0 4.242-.914 5.588-2.417.539 1.568 1.885 2.417 3.77 2.417.741 0 1.616-.13 2.155-.392l-.404-2.809c-.337.065-.673.13-1.01.13-.943 0-1.28-.457-1.28-1.306v-7.775c0-4.116-2.827-6.664-7.472-6.664-2.29 0-4.848.588-7.07 1.634l1.145 2.874c1.616-.914 3.5-1.437 5.319-1.437 2.895 0 4.443 1.241 4.443 3.724v.85h-.067zm0 3.659c0 2.875-1.75 4.573-4.646 4.573-2.154 0-3.433-1.11-3.433-2.874 0-2.026 1.683-3.202 4.51-3.202 1.347 0 2.424.131 3.569.392v1.111zM136.316 114.828c0-.492.403-.828.984-.828.289 0 .585.069.905.203l-.118.426a1.913 1.913 0 0 0-.747-.176c-.309 0-.506.146-.506.375 0 .62 1.466.215 1.466 1.327 0 .504-.407.845-1 .845-.304 0-.64-.073-1-.237l.119-.427c.308.13.6.211.841.211.325 0 .526-.15.526-.392 0-.638-1.47-.241-1.47-1.327zM139 117v-3h.555l.947 1.348.943-1.348H142v3h-.53v-2.188l-.809 1.157h-.318l-.814-1.156V117z"/>
    </g>
</svg>
